riscv_formal_verification/picorv32/rvfi_valid_sll_new.vcd
$date Mon Feb 25 16:33:56 2019
 $end
$version JasperGold $end
$timescale 1 ns $end
$scope module rvfi_testbench $end
$scope module wrapper $end
$scope module uut $end
$scope module pcpi_div $end
$var wire 1 ! resetn $end
$var wire 1 " pcpi_valid $end
$var wire 32 # pcpi_insn [31:0] $end
$var wire 32 $ pcpi_rs1 [31:0] $end
$var wire 32 % pcpi_rs2 [31:0] $end
$var wire 1 & instr_any_div_rem $end
$var reg 1 ' pcpi_wr $end
$var reg 32 ( pcpi_rd [31:0] $end
$var reg 1 ) pcpi_wait $end
$var reg 1 * pcpi_ready $end
$var reg 1 + instr_div $end
$var reg 1 , instr_divu $end
$var reg 1 - instr_rem $end
$var reg 1 . instr_remu $end
$var reg 1 / pcpi_wait_q $end
$var wire 1 0 start $end
$var reg 32 1 quotient_msk [31:0] $end
$var reg 1 2 running $end
$var wire 1 3 \:X_3 $end
$var wire 1 4 \:X_4 $end
$var wire 1 5 \:X_0 $end
$var wire 1 6 \:X_1 $end
$var wire 1 7 \:X_2 $end
$var wire 1 8 \:X_5 $end
$var wire 1 9 \:X_6 $end
$var wire 1 : \:X_7 $end
$var wire 1 ; \:X_8 $end
$var wire 1 < \:X_9 $end
$var wire 1 = \:X_10 $end
$var wire 1 > \:X_11 $end
$var wire 1 ? \:X_12 $end
$var wire 1 @ \:X_13 $end
$var wire 1 A \:X_14 $end
$var wire 1 B \:X_15 $end
$var wire 1 C \:X_16 $end
$var wire 1 D \:X_17 $end
$var wire 1 E \:X_18 $end
$var wire 1 F \:X_19 $end
$var wire 1 G \:X_20 $end
$var wire 1 H \:X_21 $end
$var wire 1 I \:X_22 $end
$var wire 1 J \:X_23 $end
$var wire 1 K \:X_24 $end
$var wire 1 L \:X_25 $end
$var wire 1 M \:X_26 $end
$var wire 1 N \:X_27 $end
$var wire 1 O \:X_28 $end
$var wire 1 P \:X_29 $end
$var wire 1 Q \:X_30 $end
$var wire 1 R \:X_31 $end
$var wire 1 S clk $end
$upscope $end
$scope module pcpi_mul $end
$var wire 1 T resetn $end
$var wire 1 U pcpi_valid $end
$var wire 32 V pcpi_insn [31:0] $end
$var wire 32 W pcpi_rs1 [31:0] $end
$var wire 32 X pcpi_rs2 [31:0] $end
$var wire 1 Y instr_any_mul $end
$var wire 1 Z pcpi_wr $end
$var wire 32 [ pcpi_rd [31:0] $end
$var wire 1 \ pcpi_wait $end
$var wire 1 ] pcpi_ready $end
$var wire 1 ^ instr_mul $end
$var wire 1 _ instr_mulh $end
$var wire 1 ` instr_mulhsu $end
$var wire 1 a instr_mulhu $end
$var reg 4 b active [3:0] $end
$var wire 1 c pcpi_insn_valid $end
$var wire 1 d \:X_3556 $end
$var wire 1 e clk $end
$upscope $end
$var reg 32 f \cpuregs[10] [31:0] $end
$var reg 32 g \cpuregs[11] [31:0] $end
$var reg 32 h \cpuregs[12] [31:0] $end
$var reg 32 i \cpuregs[13] [31:0] $end
$var reg 32 j \cpuregs[14] [31:0] $end
$var reg 32 k \cpuregs[15] [31:0] $end
$var reg 32 l \cpuregs[16] [31:0] $end
$var reg 32 m \cpuregs[17] [31:0] $end
$var reg 32 n \cpuregs[18] [31:0] $end
$var reg 32 o \cpuregs[19] [31:0] $end
$var reg 32 p \cpuregs[20] [31:0] $end
$var reg 32 q \cpuregs[21] [31:0] $end
$var reg 32 r \cpuregs[22] [31:0] $end
$var reg 32 s \cpuregs[23] [31:0] $end
$var reg 32 t \cpuregs[24] [31:0] $end
$var reg 32 u \cpuregs[25] [31:0] $end
$var reg 32 v \cpuregs[26] [31:0] $end
$var reg 32 w \cpuregs[27] [31:0] $end
$var reg 32 x \cpuregs[28] [31:0] $end
$var reg 32 y \cpuregs[29] [31:0] $end
$var reg 32 z \cpuregs[30] [31:0] $end
$var reg 32 { \cpuregs[31] [31:0] $end
$var wire 1 | pcpi_mul_wr $end
$var wire 32 } pcpi_mul_rd [31:0] $end
$var wire 1 ~ pcpi_mul_wait $end
$var wire 1 !! \:X_129 $end
$var wire 1 "! \:X_130 $end
$var wire 1 #! \:X_131 $end
$var wire 1 $! \:X_132 $end
$var wire 1 %! \:X_133 $end
$var wire 1 &! \:X_134 $end
$var wire 1 '! \:X_135 $end
$var wire 1 (! \:X_136 $end
$var wire 1 )! \:X_137 $end
$var wire 1 *! \:X_138 $end
$var wire 1 +! \:X_139 $end
$var wire 1 ,! \:X_140 $end
$var wire 1 -! \:X_141 $end
$var wire 1 .! \:X_142 $end
$var wire 1 /! \:X_143 $end
$var wire 1 0! \:X_144 $end
$var wire 1 1! \:X_145 $end
$var wire 1 2! \:X_146 $end
$var wire 1 3! \:X_147 $end
$var wire 1 4! \:X_148 $end
$var wire 1 5! \:X_149 $end
$var wire 1 6! \:X_150 $end
$var wire 1 7! \:X_151 $end
$var wire 1 8! \:X_152 $end
$var wire 1 9! \:X_153 $end
$var wire 1 :! \:X_154 $end
$var wire 1 ;! \:X_155 $end
$var wire 1 <! mem_la_firstword $end
$var reg 1 =! prefetched_high_word $end
$var wire 1 >! clear_prefetched_high_word $end
$var reg 16 ?! mem_16bit_buffer [15:0] $end
$var wire 32 @! next_pc [31:0] $end
$var reg 32 A! \cpuregs[0] [31:0] $end
$var reg 32 B! \cpuregs[1] [31:0] $end
$var reg 32 C! \cpuregs[2] [31:0] $end
$var reg 32 D! \cpuregs[3] [31:0] $end
$var reg 32 E! \cpuregs[4] [31:0] $end
$var reg 32 F! \cpuregs[5] [31:0] $end
$var reg 32 G! \cpuregs[6] [31:0] $end
$var reg 32 H! \cpuregs[7] [31:0] $end
$var reg 32 I! \cpuregs[8] [31:0] $end
$var reg 32 J! \cpuregs[9] [31:0] $end
$var wire 1 K! alu_lts $end
$var reg 1 L! clear_prefetched_high_word_q $end
$var wire 1 M! cpuregs_write $end
$var wire 32 N! cpuregs_wrdata [31:0] $end
$var wire 32 O! cpuregs_rs1 [31:0] $end
$var wire 32 P! cpuregs_rs2 [31:0] $end
$var wire 1 Q! \:X_32 $end
$var wire 1 R! \:X_33 $end
$var wire 1 S! \:X_34 $end
$var wire 1 T! \:X_35 $end
$var wire 1 U! \:X_36 $end
$var wire 1 V! \:X_37 $end
$var wire 1 W! \:X_38 $end
$var wire 1 X! \:X_39 $end
$var wire 1 Y! \:X_40 $end
$var wire 1 Z! \:X_41 $end
$var wire 1 [! \:X_42 $end
$var wire 1 \! \:X_43 $end
$var wire 1 ]! \:X_44 $end
$var wire 1 ^! \:X_45 $end
$var wire 1 _! \:X_46 $end
$var wire 1 `! \:X_47 $end
$var wire 1 a! \:X_48 $end
$var wire 1 b! \:X_49 $end
$var wire 1 c! \:X_50 $end
$var wire 1 d! \:X_51 $end
$var wire 1 e! \:X_483 $end
$var wire 1 f! \:X_482 $end
$var wire 1 g! \:X_481 $end
$var wire 1 h! \:X_480 $end
$var wire 1 i! \:X_479 $end
$var wire 1 j! \:X_478 $end
$var wire 1 k! \:X_477 $end
$var wire 1 l! \:X_476 $end
$var wire 1 m! \:X_475 $end
$var wire 1 n! \:X_474 $end
$var wire 1 o! \:X_473 $end
$var wire 1 p! \:X_472 $end
$var wire 1 q! \:X_471 $end
$var wire 1 r! \:X_470 $end
$var wire 1 s! \:X_469 $end
$var wire 1 t! \:X_468 $end
$var wire 1 u! \:X_467 $end
$var wire 1 v! \:X_466 $end
$var wire 1 w! \:X_465 $end
$var wire 1 x! \:X_464 $end
$var wire 1 y! \:X_463 $end
$var wire 1 z! \:X_462 $end
$var wire 1 {! \:X_461 $end
$var reg 1 |! instr_srli $end
$var reg 1 }! instr_srai $end
$var reg 1 ~! instr_add $end
$var reg 1 !" instr_sub $end
$var reg 1 "" instr_sll $end
$var reg 1 #" instr_slt $end
$var reg 1 $" instr_sltu $end
$var reg 1 %" instr_xor $end
$var reg 1 &" instr_srl $end
$var reg 1 '" instr_sra $end
$var reg 1 (" instr_or $end
$var reg 1 )" instr_and $end
$var reg 1 *" instr_rdcycle $end
$var reg 1 +" instr_rdcycleh $end
$var reg 1 ," instr_rdinstr $end
$var reg 1 -" instr_rdinstrh $end
$var reg 1 ." instr_ecall_ebreak $end
$var reg 1 /" instr_getq $end
$var reg 1 0" instr_setq $end
$var reg 1 1" instr_retirq $end
$var reg 1 2" instr_maskirq $end
$var reg 1 3" instr_waitirq $end
$var reg 1 4" instr_timer $end
$var wire 1 5" instr_trap $end
$var reg 5 6" decoded_rd [4:0] $end
$var reg 5 7" decoded_rs1 [4:0] $end
$var reg 5 8" decoded_rs2 [4:0] $end
$var reg 32 9" decoded_imm [31:0] $end
$var reg 32 :" decoded_imm_uj [31:0] $end
$var reg 1 ;" decoder_trigger $end
$var reg 1 <" decoder_trigger_q $end
$var wire 1 =" mem_ready $end
$var wire 32 >" mem_rdata [31:0] $end
$var wire 1 ?" mem_la_read $end
$var reg 1 @" pcpi_valid $end
$var reg 32 A" pcpi_insn [31:0] $end
$var wire 32 B" pcpi_rs1 [31:0] $end
$var wire 32 C" pcpi_rs2 [31:0] $end
$var reg 1 D" rvfi_valid $end
$var reg 32 E" rvfi_insn [31:0] $end
$var reg 1 F" decoder_pseudo_trigger $end
$var reg 1 G" decoder_pseudo_trigger_q $end
$var reg 1 H" compressed_instr $end
$var reg 1 I" is_lui_auipc_jal $end
$var reg 1 J" is_lb_lh_lw_lbu_lhu $end
$var reg 1 K" is_slli_srli_srai $end
$var reg 1 L" is_jalr_addi_slti_sltiu_xori_ori_andi $end
$var wire 1 M" pcpi_mul_ready $end
$var wire 1 N" pcpi_div_wr $end
$var wire 32 O" pcpi_div_rd [31:0] $end
$var wire 1 P" pcpi_div_wait $end
$var wire 1 Q" pcpi_div_ready $end
$var wire 1 R" pcpi_int_wr $end
$var wire 32 S" pcpi_int_rd [31:0] $end
$var wire 1 T" pcpi_int_wait $end
$var wire 1 U" pcpi_int_ready $end
$var reg 2 V" mem_state [1:0] $end
$var reg 2 W" mem_wordsize [1:0] $end
$var wire 32 X" mem_rdata_word [31:0] $end
$var reg 32 Y" mem_rdata_q [31:0] $end
$var reg 1 Z" mem_do_prefetch $end
$var reg 1 [" mem_do_rinst $end
$var reg 1 \" mem_do_rdata $end
$var reg 1 ]" mem_do_wdata $end
$var wire 1 ^" mem_xfer $end
$var reg 1 _" mem_la_secondword $end
$var wire 1 `" alu_out_0 $end
$var wire 32 a" alu_add_sub [31:0] $end
$var wire 32 b" alu_shl [31:0] $end
$var wire 32 c" alu_shr [31:0] $end
$var wire 1 d" alu_eq $end
$var wire 1 e" alu_ltu $end
$var reg 1 f" mem_la_firstword_reg $end
$var reg 1 g" last_mem_valid $end
$var reg 1 h" latched_compr $end
$var reg 1 i" latched_is_lu $end
$var reg 1 j" latched_is_lh $end
$var reg 1 k" latched_is_lb $end
$var reg 5 l" latched_rd [4:0] $end
$var reg 4 m" pcpi_timeout_counter [3:0] $end
$var reg 1 n" pcpi_timeout $end
$var reg 1 o" do_waitirq $end
$var wire 32 p" alu_out [31:0] $end
$var reg 32 q" alu_out_q [31:0] $end
$var wire 1 r" \:X_492 $end
$var wire 1 s" \:X_491 $end
$var wire 1 t" \:X_490 $end
$var wire 1 u" \:X_489 $end
$var wire 1 v" \:X_488 $end
$var wire 1 w" \:X_487 $end
$var wire 1 x" \:X_486 $end
$var wire 1 y" \:X_485 $end
$var wire 1 z" \:X_484 $end
$var reg 32 {" q_insn_opcode [31:0] $end
$var reg 1 |" dbg_next $end
$var wire 1 }" launch_next_insn $end
$var reg 1 ~" dbg_valid_insn $end
$var reg 32 !# cached_insn_opcode [31:0] $end
$var reg 8 "# cpu_state [7:0] $end
$var reg 2 ## irq_state [1:0] $end
$var reg 1 $# latched_store $end
$var reg 1 %# latched_stalu $end
$var reg 1 &# latched_branch $end
$var wire 1 '# \:X_357 $end
$var wire 1 (# \:X_358 $end
$var wire 1 )# \:X_359 $end
$var wire 1 *# \:X_220 $end
$var wire 1 +# \:X_221 $end
$var wire 1 ,# \:X_222 $end
$var wire 1 -# \:X_223 $end
$var wire 1 .# \:X_224 $end
$var wire 1 /# \:X_225 $end
$var wire 1 0# \:X_226 $end
$var wire 1 1# \:X_227 $end
$var wire 1 2# \:X_228 $end
$var wire 1 3# \:X_229 $end
$var wire 1 4# \:X_230 $end
$var wire 1 5# \:X_231 $end
$var wire 1 6# \:X_232 $end
$var wire 1 7# \:X_233 $end
$var wire 1 8# \:X_234 $end
$var wire 1 9# \:X_235 $end
$var wire 1 :# \:X_236 $end
$var wire 1 ;# \:X_237 $end
$var wire 1 <# \:X_238 $end
$var wire 1 =# \:X_239 $end
$var wire 1 ># \:X_240 $end
$var wire 1 ?# \:X_241 $end
$var wire 1 @# \:X_242 $end
$var wire 1 A# \:X_243 $end
$var wire 1 B# \:X_244 $end
$var wire 1 C# \:X_245 $end
$var wire 1 D# \:X_246 $end
$var wire 1 E# \:X_247 $end
$var wire 32 F# mem_rdata_latched_noshuffle [31:0] $end
$var wire 32 G# mem_rdata_latched [31:0] $end
$var wire 1 H# mem_la_use_prefetched_high_word $end
$var wire 1 I# mem_done $end
$var reg 1 J# instr_lui $end
$var reg 1 K# instr_auipc $end
$var reg 1 L# instr_jal $end
$var reg 1 M# instr_jalr $end
$var reg 1 N# instr_beq $end
$var reg 1 O# instr_bne $end
$var reg 1 P# instr_blt $end
$var reg 1 Q# instr_bge $end
$var reg 1 R# instr_bltu $end
$var reg 1 S# instr_bgeu $end
$var reg 1 T# instr_lb $end
$var reg 1 U# instr_lh $end
$var reg 1 V# instr_lw $end
$var reg 1 W# instr_lbu $end
$var reg 1 X# instr_lhu $end
$var reg 1 Y# instr_sb $end
$var reg 1 Z# instr_sh $end
$var reg 1 [# instr_sw $end
$var reg 1 \# instr_addi $end
$var reg 1 ]# instr_slti $end
$var reg 1 ^# instr_sltiu $end
$var reg 1 _# instr_xori $end
$var reg 1 `# instr_ori $end
$var reg 1 a# instr_andi $end
$var reg 1 b# instr_slli $end
$var wire 1 c# resetn $end
$var reg 1 d# trap $end
$var reg 1 e# mem_valid $end
$var wire 1 f# \:X_360 $end
$var wire 1 g# \:X_361 $end
$var wire 1 h# \:X_362 $end
$var wire 1 i# \:X_363 $end
$var wire 1 j# \:X_364 $end
$var wire 1 k# \:X_365 $end
$var wire 1 l# \:X_366 $end
$var wire 1 m# \:X_367 $end
$var wire 1 n# \:X_368 $end
$var wire 1 o# \:X_369 $end
$var wire 1 p# \:X_370 $end
$var wire 1 q# \:X_371 $end
$var wire 1 r# \:X_372 $end
$var wire 1 s# \:X_373 $end
$var wire 1 t# \:X_374 $end
$var wire 1 u# \:X_375 $end
$var wire 1 v# \:X_376 $end
$var wire 1 w# \:X_377 $end
$var wire 1 x# \:X_378 $end
$var wire 1 y# \:X_379 $end
$var wire 1 z# \:X_380 $end
$var wire 1 {# \:X_381 $end
$var wire 1 |# \:X_382 $end
$var wire 1 }# \:X_383 $end
$var wire 1 ~# \:X_384 $end
$var wire 1 !$ \:X_385 $end
$var wire 1 "$ \:X_386 $end
$var wire 1 #$ \:X_387 $end
$var wire 1 $$ \:X_388 $end
$var wire 1 %$ \:X_389 $end
$var wire 1 &$ \:X_390 $end
$var wire 1 '$ \:X_391 $end
$var wire 1 ($ \:X_392 $end
$var wire 1 )$ \:X_393 $end
$var wire 1 *$ \:X_64 $end
$var wire 1 +$ \:X_156 $end
$var wire 1 ,$ \:X_157 $end
$var wire 1 -$ \:X_158 $end
$var wire 1 .$ \:X_159 $end
$var wire 1 /$ \:X_160 $end
$var reg 64 0$ count_cycle [63:0] $end
$var reg 64 1$ count_instr [63:0] $end
$var reg 32 2$ reg_pc [31:0] $end
$var reg 32 3$ reg_next_pc [31:0] $end
$var reg 32 4$ reg_op1 [31:0] $end
$var reg 32 5$ reg_op2 [31:0] $end
$var reg 32 6$ reg_out [31:0] $end
$var reg 5 7$ reg_sh [4:0] $end
$var reg 32 8$ next_insn_opcode [31:0] $end
$var wire 32 9$ dbg_insn_opcode [31:0] $end
$var wire 1 :$ \:X_52 $end
$var wire 1 ;$ \:X_53 $end
$var wire 1 <$ \:X_54 $end
$var wire 1 =$ \:X_55 $end
$var wire 1 >$ \:X_56 $end
$var wire 1 ?$ \:X_57 $end
$var wire 1 @$ \:X_58 $end
$var wire 1 A$ \:X_59 $end
$var wire 1 B$ \:X_60 $end
$var wire 1 C$ \:X_61 $end
$var wire 1 D$ \:X_62 $end
$var wire 1 E$ \:X_63 $end
$var wire 1 F$ \:X_394 $end
$var wire 1 G$ \:X_395 $end
$var wire 1 H$ \:X_396 $end
$var wire 1 I$ \:X_397 $end
$var wire 1 J$ \:X_398 $end
$var wire 1 K$ \:X_399 $end
$var wire 1 L$ \:X_400 $end
$var wire 1 M$ \:X_401 $end
$var wire 1 N$ \:X_402 $end
$var wire 1 O$ \:X_403 $end
$var wire 1 P$ \:X_404 $end
$var wire 1 Q$ \:X_405 $end
$var wire 1 R$ \:X_406 $end
$var wire 1 S$ \:X_407 $end
$var wire 1 T$ \:X_408 $end
$var wire 1 U$ \:X_409 $end
$var wire 1 V$ \:X_410 $end
$var wire 1 W$ \:X_411 $end
$var wire 1 X$ \:X_412 $end
$var wire 1 Y$ \:X_413 $end
$var wire 1 Z$ \:X_414 $end
$var wire 1 [$ \:X_415 $end
$var wire 1 \$ \:X_416 $end
$var wire 1 ]$ \:X_417 $end
$var wire 1 ^$ \:X_418 $end
$var wire 1 _$ \:X_419 $end
$var wire 1 `$ \:X_420 $end
$var reg 1 a$ is_sb_sh_sw $end
$var reg 1 b$ is_lui_auipc_jal_jalr_addi_add_sub $end
$var reg 1 c$ is_slti_blt_slt $end
$var reg 1 d$ is_sltiu_bltu_sltu $end
$var reg 1 e$ is_beq_bne_blt_bge_bltu_bgeu $end
$var reg 1 f$ is_lbu_lhu_lw $end
$var reg 1 g$ is_alu_reg_imm $end
$var reg 1 h$ is_alu_reg_reg $end
$var reg 1 i$ is_compare $end
$var wire 1 j$ is_rdcycle_rdcycleh_rdinstr_rdinstrh $end
$var wire 1 k$ \:X_248 $end
$var wire 1 l$ \:X_249 $end
$var wire 1 m$ \:X_250 $end
$var wire 1 n$ \:X_251 $end
$var wire 1 o$ \:X_252 $end
$var wire 1 p$ \:X_253 $end
$var wire 1 q$ \:X_254 $end
$var wire 1 r$ \:X_255 $end
$var wire 1 s$ \:X_256 $end
$var wire 1 t$ clk $end
$upscope $end
$var wire 1 u$ mem_ready $end
$var wire 32 v$ mem_rdata [31:0] $end
$var wire 1 w$ reset $end
$var wire 1 x$ rvfi_valid $end
$var wire 32 y$ rvfi_insn [31:0] $end
$var wire 1 z$ clock $end
$upscope $end
$scope module checker_inst $end
$scope module insn_spec $end
$var wire 1 {$ rvfi_valid $end
$var wire 32 |$ rvfi_insn [31:0] $end
$var wire 1 }$ spec_valid $end
$var wire 32 ~$ insn_padding [31:0] $end
$var wire 7 !% insn_funct7 [6:0] $end
$var wire 3 "% insn_funct3 [2:0] $end
$var wire 7 #% insn_opcode [6:0] $end
$upscope $end
$var wire 1 $% reset $end
$var wire 1 %% check $end
$var wire 1 &% rvfi_valid $end
$var wire 32 '% rvfi_insn [31:0] $end
$var wire 1 (% spec_valid $end
$var wire 1 )% valid $end
$var wire 1 *% clock $end
$upscope $end
$var wire 1 +% \:jasper_formal_reset $end
$var wire 32 ,% rvfi_insn [31:0] $end
$var wire 1 -% reset $end
$var wire 1 .% rvfi_valid $end
$var reg 8 /% cycle_reg [7:0] $end
$var wire 8 0% cycle [7:0] $end
$var wire 1 1% \:jasper_formal_clock $end
$var wire 1 2% clock $end
$upscope $end
$enddefinitions $end
#0
12%
1-%
b00000000 0%
#5
02%
#10
12%
b00000001 /%
#15
02%
#20
12%
#25
02%
#30
1!
0"
b00000010000000000100000000110011 #
b11111111111111111111111111111110 $
b00000000000000000000000000000011 %
0&
0'
b00000000000000000000000000000000 (
0)
0*
0+
0,
0-
0.
0/
00
b00000000000000000000000000000000 1
02
03
04
05
06
07
08
09
0:
0;
0<
0=
0>
0?
0@
0A
0B
0C
0D
0E
0F
0G
0H
0I
0J
0K
0L
0M
0N
0O
0P
0Q
0R
1S
1T
0U
b00000010000000000100000000110011 V
b11111111111111111111111111111110 W
b00000000000000000000000000000011 X
0Y
0Z
b00000000000000000000000000000000 [
0\
0]
0^
0_
0`
0a
b0000 b
0c
0d
1e
b00000000000000000000000000000000 f
b00000000000000000000000000000000 g
b00000000000000000000000000000000 h
b00000000000000000000000000000000 i
b00000000000000000000000000000000 j
b00000000000000000000000000000000 k
b00000000000000000000000000000000 l
b00000000000000000000000000000000 m
b00000000000000000000000000000000 n
b00000000000000000000000000000000 o
b01000000000000000000000000000000 p
b00000000000000000000000000000000 q
b00000000000000000000000000000000 r
b00000000000000000000000000000000 s
b00000000000000000000000000000000 t
b00000000000000000000000000000000 u
b00000000000000000000000000000000 v
b00000000000000000000000000000000 w
b00000000000000000000000000000000 x
b00000000000000000000000000000000 y
b00000000000000000000000000000000 z
b00000000000000000000000000000000 {
0|
b00000000000000000000000000000000 }
0~
1!!
1"!
1#!
1$!
1%!
1&!
1'!
1(!
1)!
1*!
1+!
1,!
1-!
1.!
1/!
10!
11!
12!
13!
14!
15!
16!
17!
18!
19!
1:!
1;!
0<!
0=!
0>!
b0000000000000000 ?!
b00000000000000000000000000000000 @!
b00000000000000000000000000000000 A!
b00000000000000000000000000000000 B!
b00000000000000000000000000000000 C!
b00000000000000000000000000000000 D!
b00000000000000000000000000000000 E!
b00000000000000000000000000000000 F!
b00000000000000000000000000000000 G!
b00000000000000000000000000000000 H!
b00000000000000000000000000000000 I!
b00000000000000000000000000000000 J!
1K!
1L!
0M!
b11111111111111111111111111111111 N!
b00000000000000000000000000000000 O!
b01000000000000000000000000000000 P!
0Q!
0R!
0S!
0T!
0U!
0V!
0W!
0X!
0Y!
0Z!
0[!
0\!
0]!
0^!
0_!
0`!
0a!
0b!
0c!
0d!
0e!
0f!
0g!
0h!
0i!
0j!
0k!
0l!
0m!
0n!
0o!
0p!
0q!
0r!
0s!
0t!
0u!
0v!
0w!
0x!
0y!
0z!
0{!
0|!
1}!
0~!
0!"
0""
0#"
0$"
0%"
0&"
0'"
0("
0)"
0*"
0+"
0,"
1-"
0."
0/"
00"
01"
02"
03"
04"
05"
b11111 6"
b11010 7"
b10100 8"
b00000000000000000001000000000001 9"
b00000000000000000000000000000000 :"
0;"
0<"
0="
b00000000000000010000000000000000 >"
0?"
0@"
b00000010000000000100000000110011 A"
b11111111111111111111111111111110 B"
b00000000000000000000000000000011 C"
0D"
b00000000000000000001100000001011 E"
0F"
0G"
1H"
0I"
0J"
0K"
0L"
0M"
0N"
b00000000000000000000000000000000 O"
0P"
0Q"
0R"
b00000000000000000000000000000000 S"
0T"
0U"
b00 V"
b01 W"
b00000000000000000000000000000001 X"
b01000000000000001000111000000000 Y"
0Z"
0["
0\"
0]"
0^"
0_"
0`"
b00000000000000000000000000000001 a"
b11111111111111111111111111110000 b"
b11111111111111111111111111111111 c"
0d"
0e"
0f"
0g"
0h"
0i"
0j"
0k"
b00001 l"
b1111 m"
0n"
0o"
b11111111111111111111111111111111 p"
b00000000000000000000000000000000 q"
0r"
0s"
0t"
0u"
0v"
0w"
0x"
0y"
0z"
b00000000000000000001100000001011 {"
0|"
0}"
0~"
b00000000000000000000000000000000 !#
b01000000 "#
b00 ##
0$#
0%#
0&#
0'#
0(#
0)#
1*#
1+#
1,#
1-#
1.#
0/#
00#
01#
02#
03#
04#
05#
06#
07#
08#
09#
0:#
0;#
0<#
0=#
0>#
0?#
0@#
0A#
0B#
0C#
0D#
0E#
b01000000000000001000111000000000 F#
b01000000000000001000111000000000 G#
0H#
0I#
0J#
1K#
1L#
0M#
0N#
0O#
0P#
0Q#
0R#
0S#
0T#
0U#
0V#
0W#
0X#
0Y#
0Z#
0[#
0\#
0]#
0^#
0_#
0`#
0a#
1b#
1c#
0d#
0e#
0f#
0g#
0h#
0i#
0j#
0k#
0l#
0m#
0n#
0o#
0p#
0q#
0r#
0s#
0t#
0u#
0v#
0w#
0x#
0y#
0z#
0{#
0|#
0}#
0~#
0!$
0"$
0#$
0$$
0%$
0&$
0'$
0($
0)$
0*$
1+$
1,$
1-$
1.$
1/$
b0000000000000000000000000000000000000000000000000000000000000000 0$
b0000000000000000000000000000000000000000000000000000000000000000 1$
b00000000000000000000000000000000 2$
b00000000000000000000000000000000 3$
b11111111111111111111111111111110 4$
b00000000000000000000000000000011 5$
b00000000000000000000000000000000 6$
b11111 7$
b11111111111111110000000000000011 8$
b00000000000000000001100000001011 9$
0:$
0;$
0<$
0=$
0>$
0?$
0@$
0A$
0B$
0C$
0D$
0E$
0F$
0G$
0H$
0I$
0J$
0K$
0L$
0M$
0N$
0O$
0P$
0Q$
0R$
0S$
0T$
0U$
0V$
0W$
0X$
0Y$
0Z$
0[$
0\$
0]$
0^$
0_$
0`$
0a$
1b$
0c$
0d$
0e$
0f$
0g$
1h$
0i$
1j$
0k$
0l$
0m$
0n$
0o$
0p$
0q$
0r$
0s$
1t$
0u$
b00000000000000010000000000000000 v$
0w$
0x$
b00000000000000000001100000001011 y$
1z$
0{$
b00000000000000000001100000001011 |$
0}$
b00000000000000000000000000000000 ~$
b0000000 !%
b001 "%
b0001011 #%
0$%
0%%
0&%
b00000000000000000001100000001011 '%
0(%
0)%
1*%
0+%
b00000000000000000001100000001011 ,%
0-%
0.%
b00000001 /%
b00000001 0%
11%
12%
#35
0S
0e
0t$
0z$
0*%
01%
02%
#40
1S
1e
0L!
b00000000000000000000000000000011 >"
1?"
1I"
b00 W"
b00000000000000000000000000000011 X"
1["
1h"
b11111 l"
b11111111111111111111111111111111 q"
b0000000000000000000000000000000000000000000000000000000000000001 0$
1t$
b00000000000000000000000000000011 v$
1z$
1*%
b00000010 /%
b00000010 0%
11%
12%
#45
0S
0e
0t$
0z$
0*%
01%
02%
#50
1S
1e
0!!
b01111111111111111111111111111111 N!
1="
b00000010010000111010000000001001 >"
0?"
b01 V"
b00000010010000111010000000001001 X"
1^"
b00000010010000111010000000001001 F#
b00000010010000111010000000001001 G#
1I#
1e#
b0000000000000000000000000000000000000000000000000000000000000010 0$
1t$
1u$
b00000010010000111010000000001001 v$
1z$
1*%
b00000011 /%
b00000011 0%
11%
12%
#55
0S
0e
0t$
0z$
0*%
01%
02%
#60
1S
1e
1!!
1=!
b0000001001000011 ?!
b11111111111111111111111111111111 N!
b00000000000000000000000000000000 P!
b00000 6"
b00000 7"
b00000 8"
b00000000000000000000000000000010 :"
1;"
b00000000000000000000000000000000 >"
b00 V"
b00000000000000000000000000000000 X"
b00000010010000111010000000001001 Y"
0["
0^"
1}"
0I#
0K#
0e#
b0000000000000000000000000000000000000000000000000000000000000011 0$
b00000010010000111010000000001001 8$
0h$
1t$
b00000000000000000000000000000000 v$
1z$
1*%
b00000100 /%
b00000100 0%
11%
12%
#65
0S
0e
0t$
0z$
0*%
01%
02%
#70
b00000010010000111010000000001001 #
1S
b00000010010000111010000000001001 V
1e
0!!
0"!
0#!
0$!
0%!
0&!
0'!
0(!
0)!
0*!
0+!
0,!
0-!
0.!
0/!
00!
01!
02!
03!
04!
05!
06!
07!
08!
09!
0:!
0;!
1<!
1>!
b00000000000000000000000000000010 @!
1M!
b00000000000000000000000000000010 N!
0}!
0-"
b00000000000000000000000000000010 9"
0;"
1<"
0="
1?"
b00000010010000111010000000001001 A"
1["
b00011111111111111111111111111111 c"
b00000 l"
b00000000000000000000000000000000 p"
1|"
0}"
1~"
1&#
b00000000000000000000001001000011 G#
0b#
0+$
0,$
0-$
0.$
0/$
b0000000000000000000000000000000000000000000000000000000000000100 0$
b0000000000000000000000000000000000000000000000000000000000000001 1$
b00000000000000000000000000000010 3$
b00000000000000001010000000001001 9$
0b$
0j$
1t$
0u$
1z$
1*%
b00000101 /%
b00000101 0%
11%
12%
#75
0S
0e
0t$
0z$
0*%
01%
02%
#80
1S
1e
0=!
0>!
1L!
0M!
b00000000000000000000000000000000 N!
0<"
1="
b00110001000000000000000000000011 >"
0?"
b00000000000000001010000000001001 E"
b01 V"
b00110001000000000000000000000011 X"
1^"
1f"
b00000000000000000000000000000001 p"
b00000000000000000000000000000000 q"
b00000000000000001010000000001001 {"
0|"
b00000000000000001010000000001001 !#
0&#
b00110001000000000000000000000011 F#
b00000000000000000011000100000000 G#
1I#
1e#
b0000000000000000000000000000000000000000000000000000000000000101 0$
b00000000000000000000000000000010 2$
1b$
1t$
1u$
b00110001000000000000000000000011 v$
b00000000000000001010000000001001 y$
1z$
b00000000000000001010000000001001 |$
b010 "%
b0001001 #%
b00000000000000001010000000001001 '%
1*%
b00000000000000001010000000001001 ,%
b00000110 /%
b00000110 0%
11%
12%
#85
0S
0e
0t$
0z$
0*%
01%
02%
#90
1S
1e
0<!
0L!
15"
b11111111111111111111110000000000 :"
1;"
b00000000000000000000000000000000 >"
b00 V"
b00000000000000000000000000000000 X"
b00000000000000000011000100000000 Y"
0["
0^"
b00000000000000000000000000000001 q"
1}"
b00000000000000000011000100000000 F#
0I#
0L#
0e#
b0000000000000000000000000000000000000000000000000000000000000110 0$
b00000000000000000011000100000000 8$
1t$
b00000000000000000000000000000000 v$
1z$
1*%
b00000111 /%
b00000111 0%
11%
12%
#95
0S
0e
0t$
0z$
0*%
01%
02%
