riscv_formal_verification/picorv32/rvfi_valid_and_new.vcd
$date Mon Feb 25 08:55:26 2019
 $end
$version JasperGold $end
$timescale 1 ns $end
$scope module rvfi_testbench $end
$scope module wrapper $end
$scope module uut $end
$scope module pcpi_mul $end
$scope module mult_76 $end
$var wire 66 ! out [65:0] $end
$upscope $end
$var wire 1 " resetn $end
$var wire 1 # pcpi_valid $end
$var wire 32 $ pcpi_insn [31:0] $end
$var wire 1 % instr_any_mul $end
$var wire 1 & pcpi_wr $end
$var wire 32 ' pcpi_rd [31:0] $end
$var wire 1 ( pcpi_wait $end
$var wire 1 ) pcpi_ready $end
$var wire 1 * instr_mul $end
$var wire 1 + instr_mulh $end
$var wire 1 , instr_mulhsu $end
$var wire 1 - instr_mulhu $end
$var wire 1 . instr_any_mulh $end
$var reg 1 / shift_out $end
$var reg 4 0 active [3:0] $end
$var reg 64 1 rd [63:0] $end
$var wire 1 2 pcpi_insn_valid $end
$var wire 1 3 clk $end
$upscope $end
$scope module pcpi_div $end
$var wire 1 4 resetn $end
$var wire 1 5 pcpi_valid $end
$var wire 32 6 pcpi_insn [31:0] $end
$var wire 32 7 pcpi_rs1 [31:0] $end
$var wire 32 8 pcpi_rs2 [31:0] $end
$var wire 1 9 instr_any_div_rem $end
$var reg 1 : pcpi_wr $end
$var reg 32 ; pcpi_rd [31:0] $end
$var reg 1 < pcpi_wait $end
$var reg 1 = pcpi_ready $end
$var reg 1 > instr_div $end
$var reg 1 ? instr_divu $end
$var reg 1 @ instr_rem $end
$var reg 1 A instr_remu $end
$var reg 1 B pcpi_wait_q $end
$var wire 1 C start $end
$var reg 32 D dividend [31:0] $end
$var reg 63 E divisor [62:0] $end
$var reg 32 F quotient [31:0] $end
$var reg 32 G quotient_msk [31:0] $end
$var reg 1 H running $end
$var reg 1 I outsign $end
$var wire 1 J \:X_3 $end
$var wire 1 K \:X_4 $end
$var wire 1 L \:X_0 $end
$var wire 1 M \:X_1 $end
$var wire 1 N \:X_2 $end
$var wire 1 O \:X_5 $end
$var wire 1 P \:X_6 $end
$var wire 1 Q \:X_7 $end
$var wire 1 R \:X_8 $end
$var wire 1 S \:X_9 $end
$var wire 1 T \:X_10 $end
$var wire 1 U \:X_11 $end
$var wire 1 V \:X_12 $end
$var wire 1 W \:X_13 $end
$var wire 1 X \:X_14 $end
$var wire 1 Y \:X_15 $end
$var wire 1 Z \:X_16 $end
$var wire 1 [ \:X_17 $end
$var wire 1 \ \:X_18 $end
$var wire 1 ] \:X_19 $end
$var wire 1 ^ \:X_20 $end
$var wire 1 _ \:X_21 $end
$var wire 1 ` \:X_22 $end
$var wire 1 a \:X_23 $end
$var wire 1 b \:X_24 $end
$var wire 1 c \:X_25 $end
$var wire 1 d \:X_26 $end
$var wire 1 e \:X_27 $end
$var wire 1 f \:X_28 $end
$var wire 1 g \:X_29 $end
$var wire 1 h \:X_30 $end
$var wire 1 i \:X_31 $end
$var wire 1 j clk $end
$upscope $end
$var wire 1 k \:X_357 $end
$var wire 1 l \:X_358 $end
$var wire 1 m \:X_359 $end
$var wire 1 n \:X_360 $end
$var wire 1 o \:X_361 $end
$var wire 1 p \:X_362 $end
$var wire 1 q \:X_363 $end
$var wire 1 r \:X_364 $end
$var wire 1 s \:X_365 $end
$var wire 1 t \:X_129 $end
$var wire 1 u \:X_130 $end
$var wire 1 v \:X_131 $end
$var wire 1 w \:X_132 $end
$var wire 1 x \:X_133 $end
$var wire 1 y \:X_134 $end
$var wire 1 z \:X_135 $end
$var wire 1 { \:X_136 $end
$var wire 1 | \:X_137 $end
$var wire 1 } \:X_138 $end
$var wire 1 ~ \:X_139 $end
$var wire 1 !! \:X_140 $end
$var wire 1 "! \:X_141 $end
$var wire 1 #! \:X_142 $end
$var wire 1 $! \:X_143 $end
$var wire 1 %! \:X_144 $end
$var wire 1 &! \:X_145 $end
$var wire 1 '! \:X_146 $end
$var wire 1 (! \:X_147 $end
$var wire 1 )! \:X_148 $end
$var wire 1 *! \:X_149 $end
$var wire 1 +! \:X_150 $end
$var wire 1 ,! \:X_151 $end
$var wire 1 -! \:X_152 $end
$var wire 1 .! \:X_153 $end
$var wire 1 /! \:X_154 $end
$var wire 1 0! \:X_155 $end
$var wire 1 1! \:X_156 $end
$var wire 1 2! \:X_157 $end
$var wire 1 3! \:X_158 $end
$var wire 1 4! \:X_159 $end
$var wire 1 5! \:X_160 $end
$var reg 2 6! mem_wordsize [1:0] $end
$var wire 32 7! mem_rdata_word [31:0] $end
$var reg 32 8! mem_rdata_q [31:0] $end
$var reg 1 9! mem_do_prefetch $end
$var reg 1 :! mem_do_rinst $end
$var reg 1 ;! mem_do_rdata $end
$var reg 1 <! mem_do_wdata $end
$var wire 1 =! mem_xfer $end
$var reg 1 >! mem_la_secondword $end
$var reg 1 ?! pcpi_timeout $end
$var reg 1 @! do_waitirq $end
$var wire 32 A! alu_out [31:0] $end
$var reg 32 B! alu_out_q [31:0] $end
$var wire 1 C! alu_out_0 $end
$var reg 1 D! prefetched_high_word $end
$var wire 1 E! clear_prefetched_high_word $end
$var reg 16 F! mem_16bit_buffer [15:0] $end
$var wire 32 G! mem_rdata_latched_noshuffle [31:0] $end
$var wire 32 H! mem_rdata_latched [31:0] $end
$var wire 1 I! mem_la_use_prefetched_high_word $end
$var wire 1 J! mem_done $end
$var reg 1 K! instr_lui $end
$var reg 1 L! instr_auipc $end
$var reg 1 M! instr_jal $end
$var reg 1 N! instr_jalr $end
$var reg 1 O! instr_beq $end
$var reg 1 P! instr_bne $end
$var reg 1 Q! instr_blt $end
$var reg 1 R! instr_bge $end
$var reg 1 S! instr_bltu $end
$var reg 1 T! instr_bgeu $end
$var reg 1 U! instr_lb $end
$var reg 1 V! instr_lh $end
$var reg 1 W! instr_lw $end
$var reg 1 X! instr_lbu $end
$var reg 1 Y! instr_lhu $end
$var reg 1 Z! instr_sb $end
$var reg 1 [! instr_sh $end
$var reg 1 \! instr_sw $end
$var reg 1 ]! instr_addi $end
$var reg 1 ^! instr_slti $end
$var reg 1 _! instr_sltiu $end
$var reg 1 `! instr_xori $end
$var reg 1 a! instr_ori $end
$var reg 1 b! instr_andi $end
$var reg 1 c! instr_slli $end
$var reg 1 d! instr_srli $end
$var reg 1 e! instr_srai $end
$var reg 1 f! instr_add $end
$var reg 1 g! instr_sub $end
$var reg 1 h! instr_sll $end
$var reg 1 i! instr_slt $end
$var reg 1 j! instr_sltu $end
$var reg 1 k! instr_xor $end
$var reg 1 l! instr_srl $end
$var reg 1 m! instr_sra $end
$var reg 1 n! instr_or $end
$var reg 1 o! instr_and $end
$var reg 1 p! instr_rdcycle $end
$var reg 1 q! instr_rdcycleh $end
$var reg 1 r! instr_rdinstr $end
$var reg 1 s! instr_rdinstrh $end
$var reg 1 t! instr_ecall_ebreak $end
$var reg 1 u! instr_getq $end
$var reg 1 v! instr_setq $end
$var reg 1 w! instr_retirq $end
$var reg 1 x! instr_maskirq $end
$var reg 1 y! instr_waitirq $end
$var reg 1 z! instr_timer $end
$var wire 1 {! instr_trap $end
$var wire 1 |! \:X_366 $end
$var wire 1 }! \:X_367 $end
$var wire 1 ~! \:X_368 $end
$var wire 1 !" \:X_369 $end
$var wire 1 "" \:X_370 $end
$var wire 1 #" \:X_371 $end
$var wire 1 $" \:X_372 $end
$var wire 1 %" \:X_373 $end
$var wire 1 &" \:X_374 $end
$var wire 1 '" \:X_375 $end
$var wire 1 (" \:X_376 $end
$var wire 1 )" \:X_377 $end
$var wire 1 *" \:X_378 $end
$var wire 1 +" \:X_379 $end
$var wire 1 ," \:X_380 $end
$var wire 1 -" \:X_381 $end
$var wire 1 ." \:X_382 $end
$var wire 1 /" \:X_383 $end
$var wire 1 0" \:X_384 $end
$var wire 1 1" \:X_385 $end
$var wire 1 2" \:X_386 $end
$var wire 1 3" \:X_387 $end
$var wire 1 4" \:X_388 $end
$var wire 1 5" \:X_389 $end
$var wire 1 6" \:X_390 $end
$var wire 1 7" \:X_391 $end
$var wire 1 8" \:X_392 $end
$var wire 1 9" \:X_393 $end
$var wire 1 :" \:X_394 $end
$var wire 1 ;" \:X_395 $end
$var wire 1 <" \:X_396 $end
$var wire 1 =" \:X_397 $end
$var wire 1 >" \:X_398 $end
$var wire 1 ?" \:X_399 $end
$var wire 1 @" \:X_400 $end
$var wire 1 A" \:X_401 $end
$var wire 1 B" \:X_402 $end
$var wire 1 C" \:X_403 $end
$var wire 1 D" \:X_404 $end
$var wire 1 E" \:X_405 $end
$var wire 1 F" \:X_406 $end
$var wire 1 G" \:X_407 $end
$var wire 1 H" \:X_408 $end
$var wire 1 I" \:X_409 $end
$var wire 1 J" \:X_410 $end
$var wire 1 K" \:X_411 $end
$var wire 1 L" \:X_412 $end
$var wire 1 M" \:X_413 $end
$var wire 1 N" \:X_414 $end
$var wire 1 O" \:X_415 $end
$var wire 1 P" \:X_416 $end
$var wire 1 Q" \:X_417 $end
$var wire 1 R" \:X_418 $end
$var wire 1 S" \:X_419 $end
$var wire 1 T" \:X_420 $end
$var wire 1 U" \:X_242 $end
$var wire 1 V" \:X_243 $end
$var wire 1 W" \:X_244 $end
$var wire 1 X" \:X_245 $end
$var wire 1 Y" \:X_246 $end
$var wire 1 Z" \:X_247 $end
$var wire 1 [" \:X_248 $end
$var wire 1 \" \:X_249 $end
$var wire 1 ]" \:X_250 $end
$var wire 1 ^" \:X_251 $end
$var wire 1 _" \:X_252 $end
$var wire 1 `" \:X_253 $end
$var wire 1 a" \:X_254 $end
$var wire 1 b" \:X_255 $end
$var wire 1 c" \:X_256 $end
$var wire 1 d" \:X_64 $end
$var wire 1 e" resetn $end
$var reg 1 f" trap $end
$var reg 1 g" mem_valid $end
$var wire 1 h" mem_ready $end
$var wire 32 i" mem_rdata [31:0] $end
$var wire 1 j" mem_la_read $end
$var reg 1 k" pcpi_valid $end
$var reg 32 l" pcpi_insn [31:0] $end
$var wire 32 m" pcpi_rs1 [31:0] $end
$var wire 32 n" pcpi_rs2 [31:0] $end
$var reg 1 o" rvfi_valid $end
$var reg 32 p" rvfi_insn [31:0] $end
$var reg 64 q" count_cycle [63:0] $end
$var reg 64 r" count_instr [63:0] $end
$var reg 32 s" reg_pc [31:0] $end
$var reg 32 t" reg_next_pc [31:0] $end
$var reg 32 u" reg_op1 [31:0] $end
$var reg 32 v" reg_op2 [31:0] $end
$var reg 32 w" reg_out [31:0] $end
$var reg 5 x" reg_sh [4:0] $end
$var wire 1 y" \:X_492 $end
$var wire 1 z" \:X_491 $end
$var wire 1 {" \:X_490 $end
$var wire 1 |" \:X_489 $end
$var wire 1 }" \:X_488 $end
$var wire 1 ~" \:X_487 $end
$var wire 1 !# \:X_486 $end
$var wire 1 "# \:X_485 $end
$var wire 1 ## \:X_484 $end
$var wire 1 $# \:X_483 $end
$var wire 1 %# \:X_482 $end
$var wire 1 &# \:X_481 $end
$var wire 1 '# \:X_480 $end
$var wire 1 (# \:X_479 $end
$var wire 1 )# \:X_478 $end
$var wire 1 *# \:X_477 $end
$var wire 1 +# \:X_476 $end
$var wire 1 ,# \:X_475 $end
$var wire 1 -# \:X_474 $end
$var wire 1 .# \:X_473 $end
$var wire 1 /# \:X_472 $end
$var wire 1 0# \:X_471 $end
$var wire 1 1# \:X_470 $end
$var wire 1 2# \:X_469 $end
$var wire 1 3# \:X_468 $end
$var wire 1 4# \:X_467 $end
$var wire 1 5# \:X_466 $end
$var wire 1 6# \:X_465 $end
$var wire 1 7# \:X_464 $end
$var wire 1 8# \:X_463 $end
$var wire 1 9# \:X_462 $end
$var wire 1 :# \:X_461 $end
$var reg 32 ;# decoded_imm_uj [31:0] $end
$var reg 1 <# decoder_trigger $end
$var reg 1 =# decoder_trigger_q $end
$var reg 1 ># decoder_pseudo_trigger $end
$var reg 1 ?# decoder_pseudo_trigger_q $end
$var reg 1 @# compressed_instr $end
$var reg 5 A# decoded_rd [4:0] $end
$var reg 5 B# decoded_rs1 [4:0] $end
$var reg 5 C# decoded_rs2 [4:0] $end
$var reg 32 D# decoded_imm [31:0] $end
$var reg 1 E# is_lui_auipc_jal $end
$var reg 1 F# is_lb_lh_lw_lbu_lhu $end
$var reg 1 G# is_slli_srli_srai $end
$var reg 1 H# is_jalr_addi_slti_sltiu_xori_ori_andi $end
$var reg 1 I# is_sb_sh_sw $end
$var reg 1 J# is_lui_auipc_jal_jalr_addi_add_sub $end
$var reg 1 K# is_slti_blt_slt $end
$var reg 1 L# is_sltiu_bltu_sltu $end
$var reg 1 M# is_beq_bne_blt_bge_bltu_bgeu $end
$var reg 1 N# is_lbu_lhu_lw $end
$var reg 1 O# is_alu_reg_imm $end
$var reg 1 P# is_alu_reg_reg $end
$var reg 1 Q# is_compare $end
$var wire 1 R# is_rdcycle_rdcycleh_rdinstr_rdinstrh $end
$var reg 32 S# q_insn_opcode [31:0] $end
$var reg 1 T# dbg_next $end
$var wire 1 U# launch_next_insn $end
$var reg 1 V# dbg_valid_insn $end
$var reg 32 W# cached_insn_opcode [31:0] $end
$var reg 8 X# cpu_state [7:0] $end
$var reg 2 Y# irq_state [1:0] $end
$var reg 1 Z# latched_store $end
$var reg 1 [# latched_stalu $end
$var reg 1 \# latched_branch $end
$var reg 1 ]# latched_compr $end
$var reg 1 ^# latched_is_lu $end
$var reg 1 _# latched_is_lh $end
$var reg 1 `# latched_is_lb $end
$var reg 5 a# latched_rd [4:0] $end
$var reg 4 b# pcpi_timeout_counter [3:0] $end
$var reg 32 c# next_insn_opcode [31:0] $end
$var wire 32 d# dbg_insn_opcode [31:0] $end
$var reg 1 e# mem_la_firstword_reg $end
$var reg 1 f# last_mem_valid $end
$var wire 1 g# mem_la_firstword $end
$var wire 32 h# next_pc [31:0] $end
$var reg 32 i# \cpuregs[0] [31:0] $end
$var reg 32 j# \cpuregs[1] [31:0] $end
$var reg 32 k# \cpuregs[2] [31:0] $end
$var reg 32 l# \cpuregs[3] [31:0] $end
$var reg 32 m# \cpuregs[4] [31:0] $end
$var reg 32 n# \cpuregs[5] [31:0] $end
$var reg 32 o# \cpuregs[6] [31:0] $end
$var reg 32 p# \cpuregs[7] [31:0] $end
$var reg 32 q# \cpuregs[8] [31:0] $end
$var reg 32 r# \cpuregs[9] [31:0] $end
$var reg 32 s# \cpuregs[10] [31:0] $end
$var reg 32 t# \cpuregs[11] [31:0] $end
$var reg 32 u# \cpuregs[12] [31:0] $end
$var reg 32 v# \cpuregs[13] [31:0] $end
$var reg 32 w# \cpuregs[14] [31:0] $end
$var reg 32 x# \cpuregs[15] [31:0] $end
$var reg 32 y# \cpuregs[16] [31:0] $end
$var reg 32 z# \cpuregs[17] [31:0] $end
$var reg 32 {# \cpuregs[18] [31:0] $end
$var reg 32 |# \cpuregs[19] [31:0] $end
$var reg 32 }# \cpuregs[20] [31:0] $end
$var reg 32 ~# \cpuregs[21] [31:0] $end
$var reg 32 !$ \cpuregs[22] [31:0] $end
$var reg 32 "$ \cpuregs[23] [31:0] $end
$var reg 32 #$ \cpuregs[24] [31:0] $end
$var reg 32 $$ \cpuregs[25] [31:0] $end
$var reg 32 %$ \cpuregs[26] [31:0] $end
$var reg 32 &$ \cpuregs[27] [31:0] $end
$var reg 32 '$ \cpuregs[28] [31:0] $end
$var reg 32 ($ \cpuregs[29] [31:0] $end
$var reg 32 )$ \cpuregs[30] [31:0] $end
$var reg 32 *$ \cpuregs[31] [31:0] $end
$var wire 1 +$ pcpi_mul_wr $end
$var wire 32 ,$ pcpi_mul_rd [31:0] $end
$var wire 1 -$ pcpi_mul_wait $end
$var wire 1 .$ pcpi_mul_ready $end
$var wire 1 /$ pcpi_div_wr $end
$var wire 32 0$ pcpi_div_rd [31:0] $end
$var wire 1 1$ pcpi_div_wait $end
$var wire 1 2$ pcpi_div_ready $end
$var wire 1 3$ pcpi_int_wr $end
$var wire 32 4$ pcpi_int_rd [31:0] $end
$var wire 1 5$ pcpi_int_wait $end
$var wire 1 6$ pcpi_int_ready $end
$var reg 2 7$ mem_state [1:0] $end
$var wire 32 8$ alu_add_sub [31:0] $end
$var wire 32 9$ alu_shl [31:0] $end
$var wire 32 :$ alu_shr [31:0] $end
$var wire 1 ;$ alu_eq $end
$var wire 1 <$ alu_ltu $end
$var wire 1 =$ alu_lts $end
$var reg 1 >$ clear_prefetched_high_word_q $end
$var wire 1 ?$ cpuregs_write $end
$var wire 32 @$ cpuregs_wrdata [31:0] $end
$var wire 32 A$ cpuregs_rs1 [31:0] $end
$var wire 32 B$ cpuregs_rs2 [31:0] $end
$var wire 1 C$ \:X_32 $end
$var wire 1 D$ \:X_33 $end
$var wire 1 E$ \:X_34 $end
$var wire 1 F$ \:X_35 $end
$var wire 1 G$ \:X_36 $end
$var wire 1 H$ \:X_37 $end
$var wire 1 I$ \:X_38 $end
$var wire 1 J$ \:X_39 $end
$var wire 1 K$ \:X_40 $end
$var wire 1 L$ \:X_41 $end
$var wire 1 M$ \:X_42 $end
$var wire 1 N$ \:X_43 $end
$var wire 1 O$ \:X_44 $end
$var wire 1 P$ \:X_45 $end
$var wire 1 Q$ \:X_46 $end
$var wire 1 R$ \:X_47 $end
$var wire 1 S$ \:X_48 $end
$var wire 1 T$ \:X_49 $end
$var wire 1 U$ \:X_50 $end
$var wire 1 V$ \:X_51 $end
$var wire 1 W$ \:X_52 $end
$var wire 1 X$ \:X_53 $end
$var wire 1 Y$ \:X_54 $end
$var wire 1 Z$ \:X_55 $end
$var wire 1 [$ \:X_56 $end
$var wire 1 \$ \:X_57 $end
$var wire 1 ]$ \:X_58 $end
$var wire 1 ^$ \:X_59 $end
$var wire 1 _$ \:X_60 $end
$var wire 1 `$ \:X_61 $end
$var wire 1 a$ \:X_62 $end
$var wire 1 b$ \:X_63 $end
$var wire 1 c$ \:X_220 $end
$var wire 1 d$ \:X_221 $end
$var wire 1 e$ \:X_222 $end
$var wire 1 f$ \:X_223 $end
$var wire 1 g$ \:X_224 $end
$var wire 1 h$ \:X_225 $end
$var wire 1 i$ \:X_226 $end
$var wire 1 j$ \:X_227 $end
$var wire 1 k$ \:X_228 $end
$var wire 1 l$ \:X_229 $end
$var wire 1 m$ \:X_230 $end
$var wire 1 n$ \:X_231 $end
$var wire 1 o$ \:X_232 $end
$var wire 1 p$ \:X_233 $end
$var wire 1 q$ \:X_234 $end
$var wire 1 r$ \:X_235 $end
$var wire 1 s$ \:X_236 $end
$var wire 1 t$ \:X_237 $end
$var wire 1 u$ \:X_238 $end
$var wire 1 v$ \:X_239 $end
$var wire 1 w$ \:X_240 $end
$var wire 1 x$ \:X_241 $end
$var wire 1 y$ clk $end
$upscope $end
$var wire 1 z$ reset $end
$var wire 1 {$ rvfi_valid $end
$var wire 32 |$ rvfi_insn [31:0] $end
$var wire 1 }$ mem_ready $end
$var wire 32 ~$ mem_rdata [31:0] $end
$var wire 1 !% clock $end
$upscope $end
$scope module checker_inst $end
$scope module insn_spec $end
$var wire 1 "% spec_valid $end
$var wire 32 #% insn_padding [31:0] $end
$var wire 7 $% insn_funct7 [6:0] $end
$var wire 3 %% insn_funct3 [2:0] $end
$var wire 7 &% insn_opcode [6:0] $end
$var wire 1 '% rvfi_valid $end
$var wire 32 (% rvfi_insn [31:0] $end
$upscope $end
$var wire 1 )% reset $end
$var wire 1 *% check $end
$var wire 1 +% valid $end
$var wire 1 ,% rvfi_valid $end
$var wire 32 -% rvfi_insn [31:0] $end
$var wire 1 .% spec_valid $end
$var wire 1 /% clock $end
$upscope $end
$var wire 32 0% rvfi_insn [31:0] $end
$var reg 8 1% cycle_reg [7:0] $end
$var wire 8 2% cycle [7:0] $end
$var wire 1 3% \:jasper_formal_reset $end
$var wire 1 4% reset $end
$var wire 1 5% rvfi_valid $end
$var wire 1 6% \:jasper_formal_clock $end
$var wire 1 7% clock $end
$upscope $end
$enddefinitions $end
#0
17%
14%
b00000000 2%
#5
07%
#10
17%
b00000001 1%
#15
07%
#20
17%
#25
07%
#30
b000000000000000000000000000000000000000000000000000000000000000000 !
1"
0#
b00000010000000000100000000110011 $
0%
0&
b00000000000000000000000000000000 '
0(
0)
0*
0+
0,
0-
0.
0/
b0000 0
b0000000000000000000000000000000000000000000000000000000000000000 1
02
13
14
05
b00000010000000000100000000110011 6
b00000011100110111111111111111011 7
b00000100100111000000010000001100 8
09
0:
b00000000000000000000000000000000 ;
0<
0=
0>
0?
0@
0A
0B
0C
b00000000000000000000000000000000 D
b000000000000000000000000000010000000000000000000000000000000100 E
b11111111111111111111111111111111 F
b00000000000000000000000000000000 G
0H
1I
0J
0K
0L
0M
0N
0O
0P
0Q
0R
0S
0T
0U
0V
0W
0X
0Y
0Z
0[
0\
0]
0^
0_
0`
0a
0b
0c
0d
0e
0f
0g
0h
0i
1j
0k
0l
0m
0n
0o
0p
0q
0r
0s
1t
1u
1v
1w
1x
1y
1z
1{
1|
1}
1~
1!!
1"!
1#!
1$!
1%!
1&!
0'!
1(!
1)!
1*!
1+!
1,!
1-!
1.!
1/!
10!
11!
12!
13!
14!
15!
b01 6!
b00000000000000001000000000000000 7!
b11000000001000000000001000001010 8!
09!
0:!
0;!
0<!
0=!
0>!
0?!
0@!
b00000000000000000000000000000000 A!
b00000000000000000000000000000000 B!
0C!
0D!
0E!
b0000000000000000 F!
b11000000001000000000001000001010 G!
b11000000001000000000001000001010 H!
0I!
0J!
0K!
0L!
0M!
0N!
0O!
0P!
0Q!
0R!
0S!
0T!
0U!
0V!
0W!
0X!
0Y!
0Z!
0[!
0\!
0]!
0^!
0_!
0`!
0a!
0b!
0c!
0d!
0e!
0f!
0g!
0h!
0i!
0j!
0k!
0l!
0m!
0n!
0o!
0p!
0q!
0r!
0s!
1t!
0u!
0v!
0w!
0x!
0y!
0z!
1{!
0|!
0}!
0~!
0!"
0""
0#"
0$"
0%"
0&"
0'"
0("
0)"
0*"
0+"
0,"
0-"
0."
0/"
00"
01"
02"
03"
04"
05"
06"
07"
08"
09"
0:"
0;"
0<"
0="
0>"
0?"
0@"
0A"
0B"
0C"
0D"
0E"
0F"
0G"
0H"
0I"
0J"
0K"
0L"
0M"
0N"
0O"
0P"
0Q"
0R"
0S"
0T"
0U"
0V"
0W"
0X"
0Y"
1Z"
0["
0\"
0]"
0^"
0_"
0`"
1a"
0b"
0c"
0d"
1e"
0f"
0g"
0h"
b10000000000000000000000000000011 i"
0j"
0k"
b00000010000000000100000000110011 l"
b00000011100110111111111111111011 m"
b00000100100111000000010000001100 n"
0o"
b00000000111111111000000000000000 p"
b0000000000000000000000000000000000000000000000000000000000000000 q"
b0000000000000000000000000000000000000000000000000000000000000000 r"
b00000000000000000000000000000000 s"
b00000000000000000000000000000000 t"
b00000011100110111111111111111011 u"
b00000100100111000000010000001100 v"
b00000000000000000000000000000000 w"
b11111 x"
0y"
0z"
0{"
0|"
0}"
0~"
0!#
0"#
0##
0$#
0%#
0&#
0'#
0(#
0)#
0*#
0+#
0,#
0-#
0.#
0/#
00#
01#
02#
03#
04#
05#
06#
07#
08#
09#
0:#
b00000000000000000000000000000000 ;#
0<#
0=#
0>#
0?#
0@#
b11110 A#
b11101 B#
b00001 C#
b11111100011100110100000000000111 D#
1E#
1F#
0G#
0H#
1I#
0J#
0K#
0L#
0M#
0N#
1O#
1P#
0Q#
0R#
b00000000111111111000000000000000 S#
0T#
0U#
0V#
b00000000000000000000000000000000 W#
b01000000 X#
b00 Y#
0Z#
0[#
0\#
0]#
0^#
0_#
0`#
b00001 a#
b1111 b#
b11111111111111110000000000000011 c#
b00000000111111111000000000000000 d#
0e#
0f#
0g#
b00000000000000000000000000000000 h#
b00000000000000000000000000000000 i#
b00000000000000010000000000000000 j#
b00000000000000000000000000000000 k#
b00000000000000000000000000000000 l#
b00000000000000010000000000000000 m#
b00000000000000010000000000000000 n#
b00000000000000000000000000000000 o#
b00000000000000000000000000000000 p#
b00000000000000010000000000000000 q#
b00000000000000010000000000000000 r#
b00000000000000010000000000000000 s#
b00000000000000000000000000000000 t#
b00000000000000010000000000000000 u#
b00000000000000010000000000000000 v#
b00000000000000010000000000000000 w#
b00000000000000000000000000000000 x#
b00000000000000000000000000000000 y#
b00000000000000000000000000000000 z#
b00000000000000000000000000000000 {#
b00000000000000000000000000000000 |#
b00000000000000000000000000000000 }#
b00000000000000000000000000000000 ~#
b00000000000000000000000000000000 !$
b00000000000000000000000000000000 "$
b00000000000000000000000000000000 #$
b00000000000000000000000000000000 $$
b00000000000000000000000000000000 %$
b00000000000000000000000000000000 &$
b00000000000000000000000000000000 '$
b00000000000000000000000000000000 ($
b00000000000000000000000000000000 )$
b00000000000000000000000000000000 *$
0+$
b00000000000000000000000000000000 ,$
0-$
0.$
0/$
b00000000000000000000000000000000 0$
01$
02$
03$
b00000000000000000000000000000000 4$
05$
06$
b00 7$
b00001000001110000000010000000111 8$
b10111111111111111011000000000000 9$
b00000000000000000011100110111111 :$
0;$
1<$
1=$
1>$
0?$
b11111111111111111011111111111111 @$
b00000000000000000000000000000000 A$
b00000000000000010000000000000000 B$
0C$
0D$
0E$
0F$
0G$
0H$
0I$
0J$
0K$
0L$
0M$
0N$
0O$
0P$
0Q$
0R$
0S$
0T$
0U$
0V$
0W$
0X$
0Y$
0Z$
0[$
0\$
0]$
0^$
0_$
0`$
0a$
0b$
1c$
1d$
1e$
1f$
1g$
0h$
0i$
0j$
0k$
0l$
0m$
0n$
0o$
0p$
0q$
0r$
1s$
0t$
0u$
0v$
0w$
1x$
1y$
0z$
0{$
b00000000111111111000000000000000 |$
0}$
b10000000000000000000000000000011 ~$
1!%
0"%
b00000000000000000000000000000000 #%
b0000000 $%
b000 %%
b0000000 &%
0'%
b00000000111111111000000000000000 (%
0)%
0*%
0+%
0,%
b00000000111111111000000000000000 -%
0.%
1/%
b00000000111111111000000000000000 0%
b00000001 1%
b00000001 2%
03%
04%
05%
16%
17%
#35
03
0j
0y$
0!%
0/%
06%
07%
#40
13
b000000000000000000000000000001000000000000000000000000000000010 E
1j
1'!
0/!
00!
01!
02!
03!
04!
05!
b00 6!
b00000000000000000000000000000011 7!
1:!
0Z"
1\"
0a"
b00000000000000000000000000000011 i"
1j"
b0000000000000000000000000000000000000000000000000000000000000001 q"
b00000000000100001000001000000100 w"
0E#
b11110 a#
0>$
b11111111111111111111111110000000 @$
0s$
0x$
1y$
b00000000000000000000000000000011 ~$
1!%
1/%
b00000010 1%
b00000010 2%
16%
17%
#45
03
0j
0y$
0!%
0/%
06%
07%
#50
13
b000000000000000000000000000000100000000000000000000000000000001 E
1j
1/!
10!
11!
12!
13!
14!
15!
b00000000000000100000010001100011 7!
1=!
b00000000000000100000010001100011 G!
b00000000000000100000010001100011 H!
1J!
0\"
1g"
1h"
b00000000000000100000010001100011 i"
0j"
b0000000000000000000000000000000000000000000000000000000000000010 q"
b00000000000000000000000010000000 w"
b01 7$
b11111111111111111111111111111111 @$
1y$
1}$
b00000000000000100000010001100011 ~$
1!%
1/%
b00000011 1%
b00000011 2%
16%
17%
#55
03
0j
0y$
0!%
0/%
06%
07%
#60
13
b000000000000000000000000000000010000000000000000000000000000000 E
1j
0*!
b00000000000000000000000000000011 7!
b00000000000000100000010001100011 8!
0:!
0=!
0J!
1a"
0g"
b00000000000000000000000000000011 i"
b0000000000000000000000000000000000000000000000000000000000000011 q"
b00000000000000000000000000000000 w"
b00000000000000100000000000000000 ;#
1<#
b01000 A#
b00100 B#
b00000 C#
0F#
0I#
1M#
0O#
0P#
1U#
b00000000000000100000010001100011 c#
b00 7$
b11111111111111111111011111111111 @$
b00000000000000010000000000000000 A$
b00000000000000000000000000000000 B$
1y$
b00000000000000000000000000000011 ~$
1!%
1/%
b00000100 1%
b00000100 2%
16%
17%
#65
03
0j
0y$
0!%
0/%
06%
07%
#70
b00000000000000100000010001100011 $
13
b00000000000000100000010001100011 6
b000000000000000000000000000000001000000000000000000000000000000 E
1j
1*!
04!
19!
1O!
0t!
0{!
0a"
0h"
1j"
b00000000000000100000010001100011 l"
b0000000000000000000000000000000000000000000000000000000000000100 q"
b0000000000000000000000000000000000000000000000000000000000000001 r"
b00000000000000000000000000000100 t"
b00000000000000000000000000000100 w"
0<#
1=#
b00000000000000000000000000001000 D#
1T#
0U#
1V#
b00100000 X#
b01000 a#
b00000000000000100000010001100011 d#
b00000000000000000000000000000100 h#
b11111111111111111111111111111101 @$
1y$
0}$
1!%
1/%
b00000101 1%
b00000101 2%
16%
17%
#75
03
0j
0y$
0!%
0/%
06%
07%
#80
13
b00000000000000010000000000000000 7
b00000000000000000000000000000000 8
b000000000000000000000000000000000100000000000000000000000000000 E
1j
0t
0u
0v
0w
0x
0y
0z
0{
0|
0}
0~
0!!
0"!
0#!
0$!
0%!
0&!
0'!
0(!
0)!
0*!
0+!
0,!
0-!
0.!
0/!
00!
01!
02!
03!
05!
b00000000000000000000000000000000 7!
1:!
1=!
b00000000000000000000000000000000 G!
b00000000000000000000000000000000 H!
1J!
1g"
1h"
b00000000000000000000000000000000 i"
0j"
b00000000000000010000000000000000 m"
b00000000000000000000000000000000 n"
b00000000000000100000010001100011 p"
b0000000000000000000000000000000000000000000000000000000000000101 q"
b00000000000000010000000000000000 u"
b00000000000000000000000000000000 v"
b00000000000000000000000000000000 w"
b00000 x"
0=#
1Q#
b00000000000000100000010001100011 S#
0T#
b00000000000000100000010001100011 W#
b00001000 X#
b01 7$
b00000000000000010000000000000000 8$
b00000000000000010000000000000000 9$
b00000000000000010000000000000000 :$
0<$
0=$
b00000000000000000000000000000000 @$
1y$
b00000000000000100000010001100011 |$
1}$
b00000000000000000000000000000000 ~$
1!%
b1100011 &%
b00000000000000100000010001100011 (%
b00000000000000100000010001100011 -%
1/%
b00000000000000100000010001100011 0%
b00000110 1%
b00000110 2%
16%
17%
#85
03
0j
0y$
0!%
0/%
06%
07%
