riscv_formal_verification/picorv32/rvfi_valid_c_swsp_new.vcd
$date Tue Feb 26 19:32:27 2019
 $end
$version JasperGold $end
$timescale 1 ns $end
$scope module rvfi_testbench $end
$scope module wrapper $end
$scope module uut $end
$scope module pcpi_div $end
$var wire 32 ! pcpi_insn [31:0] $end
$var wire 32 " pcpi_rs1 [31:0] $end
$var wire 32 # pcpi_rs2 [31:0] $end
$var wire 1 $ instr_any_div_rem $end
$var reg 1 % pcpi_wr $end
$var reg 32 & pcpi_rd [31:0] $end
$var reg 1 ' pcpi_wait $end
$var reg 1 ( pcpi_ready $end
$var reg 1 ) instr_div $end
$var reg 1 * instr_divu $end
$var reg 1 + instr_rem $end
$var reg 1 , instr_remu $end
$var reg 1 - pcpi_wait_q $end
$var wire 1 . start $end
$var reg 32 / quotient_msk [31:0] $end
$var reg 1 0 running $end
$var wire 1 1 \:X_0 $end
$var wire 1 2 \:X_1 $end
$var wire 1 3 \:X_2 $end
$var wire 1 4 \:X_5 $end
$var wire 1 5 \:X_6 $end
$var wire 1 6 \:X_7 $end
$var wire 1 7 \:X_8 $end
$var wire 1 8 \:X_9 $end
$var wire 1 9 \:X_10 $end
$var wire 1 : \:X_11 $end
$var wire 1 ; \:X_12 $end
$var wire 1 < \:X_13 $end
$var wire 1 = \:X_14 $end
$var wire 1 > \:X_15 $end
$var wire 1 ? \:X_16 $end
$var wire 1 @ \:X_17 $end
$var wire 1 A \:X_18 $end
$var wire 1 B \:X_19 $end
$var wire 1 C \:X_20 $end
$var wire 1 D \:X_21 $end
$var wire 1 E \:X_22 $end
$var wire 1 F \:X_23 $end
$var wire 1 G \:X_24 $end
$var wire 1 H \:X_25 $end
$var wire 1 I \:X_26 $end
$var wire 1 J \:X_27 $end
$var wire 1 K \:X_28 $end
$var wire 1 L \:X_29 $end
$var wire 1 M \:X_30 $end
$var wire 1 N \:X_31 $end
$var wire 1 O \:X_3 $end
$var wire 1 P \:X_4 $end
$var wire 1 Q resetn $end
$var wire 1 R pcpi_valid $end
$var wire 1 S clk $end
$upscope $end
$scope module pcpi_mul $end
$var wire 32 T pcpi_rs1 [31:0] $end
$var wire 32 U pcpi_rs2 [31:0] $end
$var wire 1 V instr_any_mul $end
$var wire 1 W pcpi_wr $end
$var wire 32 X pcpi_rd [31:0] $end
$var wire 1 Y pcpi_wait $end
$var wire 1 Z pcpi_ready $end
$var wire 1 [ instr_mul $end
$var wire 1 \ instr_mulh $end
$var wire 1 ] instr_mulhsu $end
$var wire 1 ^ instr_mulhu $end
$var reg 4 _ active [3:0] $end
$var wire 1 ` pcpi_insn_valid $end
$var wire 1 a \:X_3556 $end
$var wire 1 b resetn $end
$var wire 1 c pcpi_valid $end
$var wire 32 d pcpi_insn [31:0] $end
$var wire 1 e clk $end
$upscope $end
$var reg 1 f latched_is_lb $end
$var reg 5 g latched_rd [4:0] $end
$var reg 4 h pcpi_timeout_counter [3:0] $end
$var wire 32 i alu_add_sub [31:0] $end
$var wire 32 j alu_shl [31:0] $end
$var wire 32 k alu_shr [31:0] $end
$var wire 1 l alu_eq $end
$var wire 1 m alu_ltu $end
$var wire 1 n alu_lts $end
$var reg 1 o clear_prefetched_high_word_q $end
$var wire 1 p cpuregs_write $end
$var wire 32 q cpuregs_wrdata [31:0] $end
$var wire 32 r cpuregs_rs1 [31:0] $end
$var wire 32 s cpuregs_rs2 [31:0] $end
$var reg 32 t reg_pc [31:0] $end
$var reg 32 u reg_next_pc [31:0] $end
$var reg 32 v reg_op1 [31:0] $end
$var reg 32 w reg_op2 [31:0] $end
$var reg 32 x reg_out [31:0] $end
$var reg 5 y reg_sh [4:0] $end
$var reg 32 z next_insn_opcode [31:0] $end
$var wire 32 { dbg_insn_opcode [31:0] $end
$var wire 1 | \:X_158 $end
$var wire 1 } \:X_159 $end
$var wire 1 ~ \:X_160 $end
$var wire 32 !! mem_rdata_word [31:0] $end
$var reg 32 "! mem_rdata_q [31:0] $end
$var reg 1 #! mem_do_prefetch $end
$var reg 1 $! mem_do_rinst $end
$var reg 1 %! mem_do_rdata $end
$var reg 1 &! mem_do_wdata $end
$var wire 1 '! mem_xfer $end
$var reg 1 (! mem_la_secondword $end
$var wire 1 )! mem_done $end
$var reg 1 *! instr_lui $end
$var reg 1 +! instr_auipc $end
$var reg 1 ,! instr_jal $end
$var reg 1 -! instr_jalr $end
$var reg 1 .! instr_beq $end
$var reg 1 /! instr_bne $end
$var reg 1 0! instr_blt $end
$var wire 1 1! \:X_61 $end
$var wire 1 2! \:X_62 $end
$var wire 1 3! \:X_63 $end
$var wire 1 4! \:X_492 $end
$var wire 1 5! \:X_491 $end
$var wire 1 6! \:X_490 $end
$var wire 1 7! \:X_489 $end
$var wire 1 8! \:X_488 $end
$var wire 1 9! \:X_487 $end
$var wire 1 :! \:X_486 $end
$var wire 1 ;! \:X_485 $end
$var wire 1 <! \:X_484 $end
$var wire 1 =! \:X_483 $end
$var wire 1 >! \:X_482 $end
$var wire 1 ?! \:X_481 $end
$var wire 1 @! \:X_480 $end
$var wire 1 A! \:X_32 $end
$var wire 1 B! \:X_33 $end
$var wire 1 C! \:X_34 $end
$var wire 1 D! \:X_35 $end
$var wire 1 E! \:X_36 $end
$var wire 1 F! \:X_37 $end
$var wire 1 G! \:X_38 $end
$var wire 1 H! \:X_39 $end
$var wire 1 I! \:X_40 $end
$var wire 1 J! \:X_41 $end
$var wire 1 K! \:X_42 $end
$var wire 1 L! \:X_43 $end
$var wire 1 M! \:X_44 $end
$var wire 1 N! \:X_129 $end
$var wire 1 O! \:X_130 $end
$var wire 1 P! \:X_131 $end
$var wire 1 Q! \:X_132 $end
$var wire 1 R! \:X_133 $end
$var wire 1 S! \:X_134 $end
$var wire 1 T! \:X_135 $end
$var wire 1 U! \:X_136 $end
$var wire 1 V! \:X_137 $end
$var wire 1 W! \:X_138 $end
$var wire 1 X! \:X_139 $end
$var wire 1 Y! \:X_45 $end
$var wire 1 Z! \:X_46 $end
$var wire 1 [! \:X_47 $end
$var wire 1 \! \:X_48 $end
$var wire 1 ]! \:X_49 $end
$var wire 1 ^! \:X_50 $end
$var wire 1 _! \:X_51 $end
$var wire 1 `! \:X_52 $end
$var wire 1 a! \:X_53 $end
$var wire 1 b! \:X_54 $end
$var wire 1 c! \:X_55 $end
$var wire 1 d! \:X_56 $end
$var wire 1 e! \:X_57 $end
$var wire 1 f! \:X_58 $end
$var wire 1 g! \:X_59 $end
$var wire 1 h! \:X_60 $end
$var wire 1 i! \:X_241 $end
$var wire 1 j! \:X_242 $end
$var wire 1 k! \:X_243 $end
$var wire 1 l! \:X_244 $end
$var wire 1 m! \:X_245 $end
$var wire 1 n! \:X_246 $end
$var wire 1 o! \:X_247 $end
$var wire 1 p! \:X_248 $end
$var wire 1 q! \:X_249 $end
$var wire 1 r! \:X_250 $end
$var wire 1 s! \:X_251 $end
$var wire 1 t! \:X_252 $end
$var wire 1 u! \:X_253 $end
$var wire 1 v! \:X_254 $end
$var wire 1 w! \:X_255 $end
$var wire 1 x! \:X_256 $end
$var wire 1 y! \:X_140 $end
$var wire 1 z! \:X_141 $end
$var wire 1 {! \:X_142 $end
$var wire 1 |! \:X_143 $end
$var wire 1 }! \:X_144 $end
$var wire 1 ~! \:X_145 $end
$var wire 1 !" \:X_146 $end
$var wire 1 "" \:X_147 $end
$var wire 1 #" \:X_148 $end
$var wire 1 $" \:X_149 $end
$var wire 1 %" \:X_150 $end
$var wire 1 &" \:X_151 $end
$var wire 1 '" \:X_152 $end
$var wire 1 (" \:X_153 $end
$var wire 1 )" \:X_154 $end
$var wire 1 *" \:X_155 $end
$var wire 1 +" \:X_156 $end
$var wire 1 ," \:X_157 $end
$var wire 1 -" \:X_357 $end
$var wire 1 ." \:X_358 $end
$var wire 1 /" \:X_359 $end
$var wire 1 0" \:X_360 $end
$var wire 1 1" \:X_361 $end
$var reg 1 2" mem_la_firstword_reg $end
$var reg 1 3" last_mem_valid $end
$var wire 1 4" mem_la_firstword $end
$var wire 32 5" next_pc [31:0] $end
$var reg 32 6" \cpuregs[0] [31:0] $end
$var reg 32 7" \cpuregs[1] [31:0] $end
$var reg 32 8" \cpuregs[2] [31:0] $end
$var reg 32 9" \cpuregs[3] [31:0] $end
$var reg 32 :" q_insn_opcode [31:0] $end
$var reg 1 ;" dbg_next $end
$var wire 1 <" launch_next_insn $end
$var reg 1 =" dbg_valid_insn $end
$var reg 32 >" cached_insn_opcode [31:0] $end
$var reg 1 ?" instr_rdinstr $end
$var reg 1 @" instr_rdinstrh $end
$var reg 1 A" instr_ecall_ebreak $end
$var reg 1 B" instr_getq $end
$var reg 1 C" instr_setq $end
$var reg 1 D" instr_retirq $end
$var reg 1 E" instr_maskirq $end
$var reg 1 F" instr_waitirq $end
$var reg 1 G" instr_timer $end
$var wire 1 H" instr_trap $end
$var reg 5 I" decoded_rd [4:0] $end
$var reg 5 J" decoded_rs1 [4:0] $end
$var reg 5 K" decoded_rs2 [4:0] $end
$var reg 32 L" decoded_imm [31:0] $end
$var reg 32 M" decoded_imm_uj [31:0] $end
$var reg 1 N" decoder_trigger $end
$var reg 1 O" compressed_instr $end
$var reg 1 P" is_lui_auipc_jal $end
$var reg 1 Q" is_lb_lh_lw_lbu_lhu $end
$var reg 1 R" is_slli_srli_srai $end
$var reg 1 S" is_jalr_addi_slti_sltiu_xori_ori_andi $end
$var reg 1 T" is_sb_sh_sw $end
$var reg 1 U" rvfi_valid $end
$var reg 32 V" rvfi_insn [31:0] $end
$var reg 8 W" cpu_state [7:0] $end
$var reg 2 X" irq_state [1:0] $end
$var reg 1 Y" latched_store $end
$var reg 1 Z" latched_stalu $end
$var reg 1 [" latched_branch $end
$var reg 1 \" latched_compr $end
$var reg 1 ]" latched_is_lu $end
$var reg 1 ^" latched_is_lh $end
$var reg 32 _" \cpuregs[18] [31:0] $end
$var reg 32 `" \cpuregs[19] [31:0] $end
$var reg 32 a" \cpuregs[20] [31:0] $end
$var reg 32 b" \cpuregs[21] [31:0] $end
$var reg 32 c" \cpuregs[22] [31:0] $end
$var reg 32 d" \cpuregs[23] [31:0] $end
$var reg 32 e" \cpuregs[24] [31:0] $end
$var reg 32 f" \cpuregs[25] [31:0] $end
$var reg 32 g" \cpuregs[26] [31:0] $end
$var reg 32 h" \cpuregs[27] [31:0] $end
$var reg 32 i" \cpuregs[28] [31:0] $end
$var reg 32 j" \cpuregs[29] [31:0] $end
$var reg 32 k" \cpuregs[30] [31:0] $end
$var reg 32 l" \cpuregs[31] [31:0] $end
$var wire 32 m" mem_rdata [31:0] $end
$var wire 1 n" mem_la_read $end
$var reg 1 o" pcpi_valid $end
$var reg 32 p" pcpi_insn [31:0] $end
$var wire 32 q" pcpi_rs1 [31:0] $end
$var wire 32 r" pcpi_rs2 [31:0] $end
$var reg 1 s" is_lui_auipc_jal_jalr_addi_add_sub $end
$var reg 1 t" is_slti_blt_slt $end
$var reg 1 u" is_sltiu_bltu_sltu $end
$var reg 1 v" is_beq_bne_blt_bge_bltu_bgeu $end
$var reg 1 w" is_lbu_lhu_lw $end
$var reg 1 x" is_alu_reg_imm $end
$var reg 1 y" is_alu_reg_reg $end
$var reg 1 z" is_compare $end
$var wire 1 {" is_rdcycle_rdcycleh_rdinstr_rdinstrh $end
$var reg 32 |" \cpuregs[4] [31:0] $end
$var reg 32 }" \cpuregs[5] [31:0] $end
$var reg 32 ~" \cpuregs[6] [31:0] $end
$var reg 32 !# \cpuregs[7] [31:0] $end
$var reg 32 "# \cpuregs[8] [31:0] $end
$var reg 32 ## \cpuregs[9] [31:0] $end
$var reg 32 $# \cpuregs[10] [31:0] $end
$var reg 32 %# \cpuregs[11] [31:0] $end
$var reg 32 &# \cpuregs[12] [31:0] $end
$var reg 32 '# \cpuregs[13] [31:0] $end
$var reg 32 (# \cpuregs[14] [31:0] $end
$var reg 32 )# \cpuregs[15] [31:0] $end
$var reg 32 *# \cpuregs[16] [31:0] $end
$var reg 32 +# \cpuregs[17] [31:0] $end
$var reg 1 ,# instr_bge $end
$var reg 1 -# instr_bltu $end
$var reg 1 .# instr_bgeu $end
$var reg 1 /# instr_lb $end
$var reg 1 0# instr_lh $end
$var reg 1 1# instr_lw $end
$var reg 1 2# instr_lbu $end
$var reg 1 3# instr_lhu $end
$var reg 1 4# instr_sb $end
$var reg 1 5# instr_sh $end
$var reg 1 6# instr_sw $end
$var reg 1 7# instr_addi $end
$var reg 1 8# instr_slti $end
$var reg 1 9# instr_sltiu $end
$var reg 1 :# instr_xori $end
$var reg 1 ;# instr_ori $end
$var wire 1 <# \:X_64 $end
$var wire 1 =# \:X_362 $end
$var wire 1 ># \:X_363 $end
$var wire 1 ?# \:X_364 $end
$var wire 1 @# \:X_365 $end
$var wire 1 A# \:X_366 $end
$var wire 1 B# \:X_367 $end
$var wire 1 C# \:X_368 $end
$var wire 1 D# \:X_369 $end
$var wire 1 E# \:X_370 $end
$var wire 1 F# \:X_371 $end
$var wire 1 G# \:X_372 $end
$var wire 1 H# \:X_373 $end
$var wire 1 I# \:X_374 $end
$var wire 1 J# \:X_375 $end
$var wire 1 K# \:X_376 $end
$var wire 1 L# \:X_377 $end
$var wire 1 M# \:X_378 $end
$var wire 1 N# \:X_379 $end
$var wire 1 O# \:X_479 $end
$var wire 1 P# \:X_478 $end
$var wire 1 Q# \:X_477 $end
$var wire 1 R# \:X_476 $end
$var wire 1 S# \:X_475 $end
$var wire 1 T# \:X_474 $end
$var wire 1 U# \:X_473 $end
$var wire 1 V# \:X_472 $end
$var wire 1 W# \:X_471 $end
$var wire 1 X# \:X_470 $end
$var wire 1 Y# \:X_469 $end
$var wire 1 Z# \:X_468 $end
$var wire 1 [# \:X_467 $end
$var wire 1 \# \:X_466 $end
$var wire 1 ]# \:X_465 $end
$var wire 1 ^# \:X_464 $end
$var wire 1 _# \:X_463 $end
$var wire 1 `# \:X_462 $end
$var wire 1 a# \:X_461 $end
$var wire 1 b# \:X_224 $end
$var wire 1 c# \:X_225 $end
$var wire 1 d# \:X_226 $end
$var wire 1 e# \:X_227 $end
$var wire 1 f# \:X_228 $end
$var wire 1 g# \:X_229 $end
$var wire 1 h# \:X_230 $end
$var wire 1 i# \:X_231 $end
$var wire 1 j# \:X_232 $end
$var wire 1 k# \:X_233 $end
$var wire 1 l# \:X_234 $end
$var wire 1 m# \:X_235 $end
$var wire 1 n# \:X_236 $end
$var wire 1 o# \:X_237 $end
$var wire 1 p# \:X_238 $end
$var wire 1 q# \:X_239 $end
$var wire 1 r# \:X_240 $end
$var wire 1 s# \:X_220 $end
$var wire 1 t# \:X_221 $end
$var wire 1 u# \:X_222 $end
$var wire 1 v# \:X_223 $end
$var wire 1 w# \:X_417 $end
$var wire 1 x# \:X_418 $end
$var wire 1 y# \:X_419 $end
$var wire 1 z# \:X_420 $end
$var wire 1 {# pcpi_mul_wr $end
$var wire 32 |# pcpi_mul_rd [31:0] $end
$var wire 1 }# pcpi_mul_wait $end
$var wire 1 ~# pcpi_mul_ready $end
$var wire 1 !$ pcpi_div_wr $end
$var wire 32 "$ pcpi_div_rd [31:0] $end
$var wire 1 #$ pcpi_div_wait $end
$var wire 1 $$ pcpi_div_ready $end
$var wire 1 %$ pcpi_int_wr $end
$var wire 32 &$ pcpi_int_rd [31:0] $end
$var wire 1 '$ pcpi_int_wait $end
$var wire 1 ($ pcpi_int_ready $end
$var reg 2 )$ mem_state [1:0] $end
$var reg 2 *$ mem_wordsize [1:0] $end
$var wire 1 +$ resetn $end
$var reg 1 ,$ trap $end
$var reg 1 -$ mem_valid $end
$var wire 1 .$ mem_ready $end
$var reg 1 /$ pcpi_timeout $end
$var reg 1 0$ do_waitirq $end
$var wire 32 1$ alu_out [31:0] $end
$var reg 32 2$ alu_out_q [31:0] $end
$var wire 1 3$ alu_out_0 $end
$var reg 1 4$ prefetched_high_word $end
$var wire 1 5$ clear_prefetched_high_word $end
$var reg 16 6$ mem_16bit_buffer [15:0] $end
$var wire 32 7$ mem_rdata_latched_noshuffle [31:0] $end
$var wire 32 8$ mem_rdata_latched [31:0] $end
$var wire 1 9$ mem_la_use_prefetched_high_word $end
$var reg 1 :$ decoder_trigger_q $end
$var reg 1 ;$ decoder_pseudo_trigger $end
$var reg 1 <$ decoder_pseudo_trigger_q $end
$var reg 1 =$ instr_andi $end
$var reg 1 >$ instr_slli $end
$var reg 1 ?$ instr_srli $end
$var reg 1 @$ instr_srai $end
$var reg 1 A$ instr_add $end
$var reg 1 B$ instr_sub $end
$var reg 1 C$ instr_sll $end
$var reg 1 D$ instr_slt $end
$var reg 1 E$ instr_sltu $end
$var reg 1 F$ instr_xor $end
$var reg 1 G$ instr_srl $end
$var reg 1 H$ instr_sra $end
$var reg 1 I$ instr_or $end
$var reg 1 J$ instr_and $end
$var reg 1 K$ instr_rdcycle $end
$var reg 1 L$ instr_rdcycleh $end
$var reg 64 M$ count_cycle [63:0] $end
$var reg 64 N$ count_instr [63:0] $end
$var wire 1 O$ \:X_380 $end
$var wire 1 P$ \:X_381 $end
$var wire 1 Q$ \:X_382 $end
$var wire 1 R$ \:X_383 $end
$var wire 1 S$ \:X_384 $end
$var wire 1 T$ \:X_385 $end
$var wire 1 U$ \:X_386 $end
$var wire 1 V$ \:X_387 $end
$var wire 1 W$ \:X_388 $end
$var wire 1 X$ \:X_389 $end
$var wire 1 Y$ \:X_390 $end
$var wire 1 Z$ \:X_391 $end
$var wire 1 [$ \:X_392 $end
$var wire 1 \$ \:X_393 $end
$var wire 1 ]$ \:X_394 $end
$var wire 1 ^$ \:X_395 $end
$var wire 1 _$ \:X_396 $end
$var wire 1 `$ \:X_397 $end
$var wire 1 a$ \:X_398 $end
$var wire 1 b$ \:X_399 $end
$var wire 1 c$ \:X_400 $end
$var wire 1 d$ \:X_401 $end
$var wire 1 e$ \:X_402 $end
$var wire 1 f$ \:X_403 $end
$var wire 1 g$ \:X_404 $end
$var wire 1 h$ \:X_405 $end
$var wire 1 i$ \:X_406 $end
$var wire 1 j$ \:X_407 $end
$var wire 1 k$ \:X_408 $end
$var wire 1 l$ \:X_409 $end
$var wire 1 m$ \:X_410 $end
$var wire 1 n$ \:X_411 $end
$var wire 1 o$ \:X_412 $end
$var wire 1 p$ \:X_413 $end
$var wire 1 q$ \:X_414 $end
$var wire 1 r$ \:X_415 $end
$var wire 1 s$ \:X_416 $end
$var wire 1 t$ clk $end
$upscope $end
$var wire 1 u$ reset $end
$var wire 1 v$ rvfi_valid $end
$var wire 32 w$ rvfi_insn [31:0] $end
$var wire 1 x$ mem_ready $end
$var wire 32 y$ mem_rdata [31:0] $end
$var wire 1 z$ clock $end
$upscope $end
$scope module checker_inst $end
$scope module insn_spec $end
$var wire 1 {$ rvfi_valid $end
$var wire 32 |$ rvfi_insn [31:0] $end
$var wire 3 }$ insn_funct3 [2:0] $end
$var wire 2 ~$ insn_opcode [1:0] $end
$var wire 1 !% spec_valid $end
$var wire 32 "% insn_padding [31:0] $end
$upscope $end
$var wire 1 #% spec_valid $end
$var wire 1 $% valid $end
$var wire 1 %% check $end
$var wire 1 &% rvfi_valid $end
$var wire 1 '% reset $end
$var wire 32 (% rvfi_insn [31:0] $end
$var wire 1 )% clock $end
$upscope $end
$var wire 1 *% \:jasper_formal_reset $end
$var reg 8 +% cycle_reg [7:0] $end
$var wire 8 ,% cycle [7:0] $end
$var wire 32 -% rvfi_insn [31:0] $end
$var wire 1 .% reset $end
$var wire 1 /% rvfi_valid $end
$var wire 1 0% \:jasper_formal_clock $end
$var wire 1 1% clock $end
$upscope $end
$enddefinitions $end
#0
11%
1.%
b00000000 ,%
#5
01%
#10
11%
b00000001 +%
#15
01%
#20
11%
#25
01%
#30
b00000010000000000100000000110011 !
b11111111111111111111111111111111 "
b00000000000000000000000000000000 #
0$
0%
b00000000000000000000000000000000 &
0'
0(
0)
0*
0+
0,
0-
0.
b00000000000000000000000000000000 /
00
01
02
03
04
05
06
07
08
09
0:
0;
0<
0=
0>
0?
0@
0A
0B
0C
0D
0E
0F
0G
0H
0I
0J
0K
0L
0M
0N
0O
0P
1Q
0R
1S
b11111111111111111111111111111111 T
b00000000000000000000000000000000 U
0V
0W
b00000000000000000000000000000000 X
0Y
0Z
0[
0\
0]
0^
b0000 _
0`
0a
1b
0c
b00000010000000000100000000110011 d
1e
0f
b00110 g
b1111 h
b11111111111111111111111111111111 i
b11111111111111111111111111111111 j
b11111111111111111111111111111111 k
0l
0m
1n
1o
0p
b11111111111111111111111111111111 q
b00000000000000000000000000000000 r
b11111111111111110000000000000000 s
b00000000000000000000000000000000 t
b00000000000000000000000000000000 u
b11111111111111111111111111111111 v
b00000000000000000000000000000000 w
b00000000000000000000000000000000 x
b11111 y
b00000000000000000000000000000000 z
b00000010000000000100000110001011 {
1|
1}
1~
b00000000000000000000000000000000 !!
b10000000000010000000001000000000 "!
0#!
0$!
0%!
0&!
0'!
0(!
0)!
0*!
0+!
1,!
0-!
0.!
0/!
00!
01!
02!
03!
04!
05!
06!
07!
08!
09!
0:!
0;!
0<!
0=!
0>!
0?!
0@!
0A!
0B!
0C!
0D!
0E!
0F!
0G!
0H!
0I!
0J!
0K!
0L!
0M!
1N!
1O!
1P!
1Q!
1R!
1S!
1T!
1U!
1V!
1W!
1X!
0Y!
0Z!
0[!
0\!
0]!
0^!
0_!
0`!
0a!
0b!
0c!
0d!
0e!
0f!
0g!
0h!
0i!
0j!
0k!
0l!
0m!
0n!
0o!
0p!
0q!
0r!
0s!
0t!
0u!
0v!
0w!
0x!
1y!
1z!
1{!
1|!
1}!
1~!
1!"
1""
1#"
1$"
1%"
1&"
1'"
1("
1)"
1*"
1+"
1,"
0-"
0."
0/"
00"
01"
02"
03"
04"
b00000000000000000000000000000000 5"
b00000000000000000000000000000000 6"
b11111111111111110000000000000000 7"
b00000000000000000000000000000000 8"
b00000000000000000000000000000000 9"
b00000010000000000100000110001011 :"
0;"
0<"
0="
b00000000000000000000000000000000 >"
0?"
1@"
0A"
0B"
0C"
0D"
0E"
0F"
0G"
0H"
b11111 I"
b11001 J"
b00001 K"
b00000000000000000000000000000011 L"
b00000000000000000000000000000000 M"
0N"
0O"
1P"
0Q"
0R"
0S"
1T"
0U"
b00000010000000000100000110001011 V"
b01000000 W"
b00 X"
0Y"
0Z"
0["
0\"
0]"
0^"
b00000000000000000000000000000000 _"
b00000000000000000000000000000000 `"
b00000000000000000000000000000000 a"
b00000000000000000000000000000000 b"
b00000000000000000000000000000000 c"
b00000000000000000000000000000000 d"
b00000000000000000000000000000000 e"
b00000000000000000000000000000000 f"
b00000000000000000000000000000000 g"
b00000000000000000000000000000000 h"
b00000000000000000000000000000000 i"
b00000000000000000000000000000000 j"
b00000000000000000000000000000000 k"
b00000000000000000000000000000000 l"
b00000000000000000000000000000000 m"
0n"
0o"
b00000010000000000100000000110011 p"
b11111111111111111111111111111111 q"
b00000000000000000000000000000000 r"
0s"
0t"
0u"
0v"
0w"
1x"
1y"
0z"
1{"
b00000000000000000000000000000000 |"
b00000000000000000000000000000000 }"
b00000000000000000000000000000000 ~"
b00000000000000000000000000000000 !#
b00000000000000000000000000000000 "#
b00000000000000000000000000000000 ##
b00000000000000000000000000000000 $#
b00000000000000000000000000000000 %#
b00000000000000000000000000000000 &#
b00000000000000000000000000000000 '#
b00000000000000000000000000000000 (#
b00000000000000000000000000000000 )#
b00000000000000000000000000000000 *#
b00000000000000000000000000000000 +#
0,#
0-#
0.#
0/#
00#
01#
02#
03#
04#
05#
06#
07#
08#
09#
0:#
0;#
0<#
0=#
0>#
0?#
0@#
0A#
0B#
0C#
0D#
0E#
0F#
0G#
0H#
0I#
0J#
0K#
0L#
0M#
0N#
0O#
0P#
0Q#
0R#
0S#
0T#
0U#
0V#
0W#
0X#
0Y#
0Z#
0[#
0\#
0]#
0^#
0_#
0`#
0a#
1b#
0c#
0d#
0e#
0f#
0g#
0h#
0i#
0j#
0k#
0l#
0m#
0n#
0o#
0p#
0q#
0r#
1s#
1t#
1u#
1v#
0w#
0x#
1y#
1z#
0{#
b00000000000000000000000000000000 |#
0}#
0~#
0!$
b00000000000000000000000000000000 "$
0#$
0$$
0%$
b00000000000000000000000000000000 &$
0'$
0($
b00 )$
b11 *$
1+$
0,$
0-$
0.$
0/$
00$
b00000000000000000000000000000000 1$
b00000000000000000000000000000000 2$
03$
04$
05$
b0000000000000000 6$
b10000000000010000000001000000000 7$
b10000000000010000000001000000000 8$
09$
0:$
0;$
0<$
0=$
0>$
0?$
0@$
0A$
0B$
0C$
0D$
0E$
0F$
0G$
0H$
0I$
0J$
0K$
0L$
b0000000000000000000000000000000000000000000000000000000000000000 M$
b0000000000000000000000000000000000000000000000000000000000000000 N$
0O$
0P$
0Q$
0R$
0S$
0T$
0U$
0V$
0W$
0X$
0Y$
0Z$
0[$
0\$
0]$
0^$
0_$
0`$
0a$
0b$
0c$
0d$
0e$
0f$
0g$
0h$
0i$
0j$
0k$
0l$
0m$
0n$
0o$
0p$
0q$
0r$
0s$
1t$
0u$
0v$
b00000010000000000100000110001011 w$
0x$
b00000000000000000000000000000000 y$
1z$
0{$
b00000010000000000100000110001011 |$
b010 }$
b11 ~$
0!%
b00000000000000000000001000000000 "%
0#%
0$%
0%%
0&%
0'%
b00000010000000000100000110001011 (%
1)%
0*%
b00000001 +%
b00000001 ,%
b00000010000000000100000110001011 -%
0.%
0/%
10%
11%
#35
0S
0e
0t$
0z$
0)%
00%
01%
#40
1S
1e
b11111 g
0o
b00000000000000000000000000000011 !!
1$!
b00000000000000000000000000000011 m"
1n"
1s"
b00 *$
b11111111111111111111111111111111 1$
b0000000000000000000000000000000000000000000000000000000000000001 M$
1e$
1t$
b00000000000000000000000000000011 y$
1z$
1)%
b00000010 +%
b00000010 ,%
10%
11%
#45
0S
0e
0t$
0z$
0)%
00%
01%
#50
1S
1e
b11011111111111111111111111111111 q
b00000000000100000000000001110011 !!
1'!
1)!
0P!
b00000000000100000000000001110011 m"
0n"
b01 )$
1-$
1.$
b11111111111111111111111111111111 2$
b00000000000100000000000001110011 7$
b00000000000100000000000001110011 8$
b0000000000000000000000000000000000000000000000000000000000000010 M$
1t$
1x$
b00000000000100000000000001110011 y$
1z$
1)%
b00000011 +%
b00000011 ,%
10%
11%
#55
0S
0e
0t$
0z$
0)%
00%
01%
#60
1S
1e
b11111111111111111111111111111111 q
b00000000000100000000000001110011 z
b00000000000000000000000000000011 !!
b00000000000100000000000001110011 "!
0$!
0'!
0)!
0,!
1P!
1<"
b00000 I"
b00000 J"
b00000000000000000000100000000000 M"
1N"
0T"
b00000000000000000000000000000011 m"
0x"
0y"
1<#
0z#
b00 )$
0-$
0.$
b0000000000000000000000000000000000000000000000000000000000000011 M$
0e$
1t$
0x$
b00000000000000000000000000000011 y$
1z$
1)%
b00000100 +%
b00000100 ,%
10%
11%
#65
0S
0e
0t$
0z$
0)%
00%
01%
#70
b00000000000100000000000001110011 !
1S
b00000000000100000000000001110011 d
1e
b00000 g
b11111111111111111111111111111001 q
b00000000000000000000000000000100 u
b00000000000100000000000001110011 {
0|
0}
1#!
b00000000000000000000000000000100 5"
1;"
0<"
1="
0@"
1A"
1H"
b00000000000000000000000000000001 L"
0N"
0P"
b00100000 W"
1n"
b00000000000100000000000001110011 p"
0s"
0{"
0<#
0y#
b00000000000000000000000000000000 1$
1:$
b0000000000000000000000000000000000000000000000000000000000000100 M$
b0000000000000000000000000000000000000000000000000000000000000001 N$
1t$
1z$
1)%
b00000101 +%
b00000101 ,%
10%
11%
#75
0S
0e
0t$
0z$
0)%
00%
01%
#80
b00000000000000000000000000000000 "
b11111111111111110000000000000000 #
1S
b00000000000000000000000000000000 T
b11111111111111110000000000000000 U
1e
b11111111111111110000000000000000 i
b00000000000000000000000000000000 j
b00000000000000000000000000000000 k
1m
0n
b00000000000000000000000000000000 q
b00000000000000000000000000000000 v
b11111111111111110000000000000000 w
b00000 y
0~
b00000000000000000110101100000000 !!
1'!
0N!
0O!
0P!
0Q!
0R!
0S!
0T!
0U!
0V!
0W!
0X!
0y!
0z!
0{!
0|!
0}!
0~!
0!"
0""
0#"
0$"
0%"
0&"
0'"
0("
0)"
0*"
0+"
0,"
b00000000000100000000000001110011 :"
0;"
b00000000000100000000000001110011 >"
b00000000000100000000000001110011 V"
b10000000 W"
b00000000000000000110101100000000 m"
0n"
b00000000000000000000000000000000 q"
b11111111111111110000000000000000 r"
b01 )$
1-$
1.$
b00000000000000000000000000000000 2$
b00000000000000000110101100000000 7$
b00000000000000000110101100000000 8$
0:$
b0000000000000000000000000000000000000000000000000000000000000101 M$
1t$
b00000000000100000000000001110011 w$
1x$
b00000000000000000110101100000000 y$
1z$
b00000000000100000000000001110011 |$
b000 }$
b00000000000000000000000000010000 "%
b00000000000100000000000001110011 (%
1)%
b00000110 +%
b00000110 ,%
b00000000000100000000000001110011 -%
10%
11%
#85
0S
0e
0t$
0z$
0)%
00%
01%
#90
1S
1e
b11111 y
b00000000000000000110101100000000 z
b00000000000000000110101100000000 "!
0'!
b11 )$
1,$
0-$
0.$
14$
b0000000000000000000000000000000000000000000000000000000000000110 M$
1t$
0x$
1z$
1)%
b00000111 +%
b00000111 ,%
10%
11%
#95
0S
0e
0t$
0z$
0)%
00%
01%
#100
1S
1e
0="
1U"
04$
b0000000000000000000000000000000000000000000000000000000000000111 M$
1t$
1v$
1z$
1{$
1$%
1&%
1)%
b00001000 +%
b00001000 ,%
1/%
10%
11%
