riscv_formal_verification/picorv32/rvfi_valid_srl_new.vcd
$date Mon Feb 25 17:18:37 2019
 $end
$version JasperGold $end
$timescale 1 ns $end
$scope module rvfi_testbench $end
$scope module wrapper $end
$scope module uut $end
$scope module pcpi_div $end
$var reg 32 ! pcpi_rd [31:0] $end
$var reg 1 " pcpi_wait $end
$var reg 1 # pcpi_ready $end
$var reg 1 $ instr_div $end
$var reg 1 % instr_divu $end
$var reg 1 & instr_rem $end
$var reg 1 ' instr_remu $end
$var reg 1 ( pcpi_wait_q $end
$var wire 1 ) start $end
$var reg 32 * quotient_msk [31:0] $end
$var reg 1 + running $end
$var wire 1 , \:X_3 $end
$var wire 1 - \:X_4 $end
$var wire 1 . \:X_0 $end
$var wire 1 / \:X_1 $end
$var wire 1 0 \:X_2 $end
$var wire 1 1 \:X_5 $end
$var wire 1 2 \:X_6 $end
$var wire 1 3 \:X_7 $end
$var wire 1 4 \:X_8 $end
$var wire 1 5 \:X_9 $end
$var wire 1 6 \:X_10 $end
$var wire 1 7 \:X_11 $end
$var wire 1 8 \:X_12 $end
$var wire 1 9 \:X_13 $end
$var wire 1 : \:X_14 $end
$var wire 1 ; \:X_15 $end
$var wire 1 < \:X_16 $end
$var wire 1 = \:X_17 $end
$var wire 1 > \:X_18 $end
$var wire 1 ? \:X_19 $end
$var wire 1 @ \:X_20 $end
$var wire 1 A \:X_21 $end
$var wire 1 B \:X_22 $end
$var wire 1 C \:X_23 $end
$var wire 1 D \:X_24 $end
$var wire 1 E \:X_25 $end
$var wire 1 F \:X_26 $end
$var wire 1 G \:X_27 $end
$var wire 1 H \:X_28 $end
$var wire 1 I \:X_29 $end
$var wire 1 J \:X_30 $end
$var wire 1 K \:X_31 $end
$var wire 1 L resetn $end
$var wire 1 M pcpi_valid $end
$var wire 32 N pcpi_insn [31:0] $end
$var wire 32 O pcpi_rs1 [31:0] $end
$var wire 32 P pcpi_rs2 [31:0] $end
$var wire 1 Q instr_any_div_rem $end
$var reg 1 R pcpi_wr $end
$var wire 1 S clk $end
$upscope $end
$scope module pcpi_mul $end
$var wire 1 T \:X_3556 $end
$var reg 4 U active [3:0] $end
$var wire 1 V pcpi_insn_valid $end
$var wire 1 W resetn $end
$var wire 1 X pcpi_valid $end
$var wire 32 Y pcpi_insn [31:0] $end
$var wire 32 Z pcpi_rs1 [31:0] $end
$var wire 32 [ pcpi_rs2 [31:0] $end
$var wire 1 \ instr_any_mul $end
$var wire 1 ] pcpi_wr $end
$var wire 32 ^ pcpi_rd [31:0] $end
$var wire 1 _ pcpi_wait $end
$var wire 1 ` pcpi_ready $end
$var wire 1 a instr_mul $end
$var wire 1 b instr_mulh $end
$var wire 1 c instr_mulhsu $end
$var wire 1 d instr_mulhu $end
$var wire 1 e clk $end
$upscope $end
$var reg 1 f decoder_trigger_q $end
$var reg 1 g decoder_pseudo_trigger $end
$var reg 1 h decoder_pseudo_trigger_q $end
$var reg 1 i compressed_instr $end
$var reg 1 j is_lui_auipc_jal $end
$var reg 1 k is_lb_lh_lw_lbu_lhu $end
$var reg 1 l is_slli_srli_srai $end
$var reg 1 m is_jalr_addi_slti_sltiu_xori_ori_andi $end
$var reg 1 n is_sb_sh_sw $end
$var reg 1 o is_lui_auipc_jal_jalr_addi_add_sub $end
$var reg 1 p is_slti_blt_slt $end
$var reg 1 q is_sltiu_bltu_sltu $end
$var reg 1 r is_beq_bne_blt_bge_bltu_bgeu $end
$var reg 1 s is_lbu_lhu_lw $end
$var reg 1 t is_alu_reg_imm $end
$var reg 1 u is_alu_reg_reg $end
$var reg 1 v is_compare $end
$var wire 1 w is_rdcycle_rdcycleh_rdinstr_rdinstrh $end
$var reg 1 x rvfi_valid $end
$var reg 32 y rvfi_insn [31:0] $end
$var reg 32 z q_insn_opcode [31:0] $end
$var reg 1 { dbg_next $end
$var wire 1 | launch_next_insn $end
$var reg 1 } dbg_valid_insn $end
$var reg 32 ~ cached_insn_opcode [31:0] $end
$var reg 8 !! cpu_state [7:0] $end
$var reg 2 "! irq_state [1:0] $end
$var reg 1 #! latched_store $end
$var reg 1 $! latched_stalu $end
$var reg 1 %! latched_branch $end
$var reg 1 &! latched_compr $end
$var reg 1 '! latched_is_lu $end
$var reg 1 (! latched_is_lh $end
$var reg 1 )! latched_is_lb $end
$var reg 5 *! latched_rd [4:0] $end
$var reg 4 +! pcpi_timeout_counter [3:0] $end
$var wire 32 ,! cpuregs_rs1 [31:0] $end
$var wire 32 -! cpuregs_rs2 [31:0] $end
$var wire 1 .! \:X_32 $end
$var wire 1 /! \:X_33 $end
$var wire 1 0! \:X_34 $end
$var wire 1 1! \:X_35 $end
$var wire 1 2! \:X_36 $end
$var wire 1 3! \:X_64 $end
$var reg 1 4! instr_lui $end
$var reg 1 5! instr_auipc $end
$var reg 1 6! instr_jal $end
$var reg 1 7! instr_jalr $end
$var reg 1 8! instr_beq $end
$var reg 1 9! instr_bne $end
$var reg 1 :! instr_blt $end
$var reg 1 ;! instr_bge $end
$var reg 1 <! instr_bltu $end
$var reg 1 =! instr_bgeu $end
$var reg 1 >! instr_lb $end
$var reg 1 ?! instr_lh $end
$var reg 1 @! instr_lw $end
$var reg 1 A! instr_lbu $end
$var reg 1 B! instr_lhu $end
$var reg 1 C! instr_sb $end
$var reg 1 D! instr_sh $end
$var reg 1 E! instr_sw $end
$var reg 1 F! instr_addi $end
$var reg 1 G! instr_slti $end
$var reg 1 H! instr_sltiu $end
$var reg 1 I! instr_xori $end
$var reg 1 J! instr_ori $end
$var reg 1 K! instr_andi $end
$var reg 1 L! instr_slli $end
$var reg 1 M! instr_srli $end
$var reg 1 N! instr_srai $end
$var reg 1 O! instr_add $end
$var wire 1 P! resetn $end
$var reg 1 Q! trap $end
$var reg 1 R! mem_valid $end
$var wire 1 S! mem_ready $end
$var wire 32 T! mem_rdata [31:0] $end
$var wire 1 U! mem_la_read $end
$var reg 1 V! pcpi_valid $end
$var reg 32 W! pcpi_insn [31:0] $end
$var wire 32 X! pcpi_rs1 [31:0] $end
$var wire 32 Y! pcpi_rs2 [31:0] $end
$var wire 1 Z! \:X_134 $end
$var wire 1 [! \:X_135 $end
$var wire 1 \! \:X_136 $end
$var wire 1 ]! \:X_137 $end
$var wire 1 ^! \:X_138 $end
$var wire 1 _! \:X_139 $end
$var wire 1 `! \:X_140 $end
$var wire 1 a! \:X_141 $end
$var wire 1 b! \:X_142 $end
$var wire 1 c! \:X_143 $end
$var wire 1 d! \:X_144 $end
$var wire 1 e! \:X_145 $end
$var wire 1 f! \:X_146 $end
$var wire 1 g! \:X_147 $end
$var wire 1 h! \:X_148 $end
$var wire 1 i! \:X_149 $end
$var wire 1 j! \:X_150 $end
$var wire 1 k! \:X_151 $end
$var wire 1 l! \:X_152 $end
$var wire 1 m! \:X_153 $end
$var wire 1 n! \:X_154 $end
$var wire 1 o! \:X_155 $end
$var wire 1 p! \:X_156 $end
$var wire 1 q! \:X_157 $end
$var wire 1 r! \:X_158 $end
$var wire 1 s! \:X_159 $end
$var wire 1 t! \:X_160 $end
$var wire 1 u! \:X_129 $end
$var wire 1 v! \:X_130 $end
$var wire 1 w! \:X_131 $end
$var wire 1 x! \:X_132 $end
$var wire 1 y! \:X_133 $end
$var wire 1 z! \:X_492 $end
$var wire 1 {! \:X_491 $end
$var wire 1 |! \:X_490 $end
$var wire 1 }! \:X_489 $end
$var wire 1 ~! \:X_488 $end
$var wire 1 !" \:X_487 $end
$var wire 1 "" \:X_486 $end
$var wire 1 #" \:X_485 $end
$var wire 1 $" \:X_484 $end
$var wire 1 %" \:X_483 $end
$var wire 1 &" \:X_482 $end
$var wire 1 '" \:X_481 $end
$var wire 1 (" \:X_480 $end
$var wire 1 )" \:X_479 $end
$var wire 1 *" \:X_478 $end
$var wire 1 +" \:X_477 $end
$var wire 1 ," \:X_476 $end
$var reg 64 -" count_cycle [63:0] $end
$var reg 64 ." count_instr [63:0] $end
$var reg 32 /" reg_pc [31:0] $end
$var reg 32 0" reg_next_pc [31:0] $end
$var reg 32 1" reg_op1 [31:0] $end
$var reg 32 2" reg_op2 [31:0] $end
$var reg 32 3" reg_out [31:0] $end
$var reg 5 4" reg_sh [4:0] $end
$var reg 32 5" next_insn_opcode [31:0] $end
$var wire 32 6" dbg_insn_opcode [31:0] $end
$var reg 1 7" mem_la_firstword_reg $end
$var reg 1 8" last_mem_valid $end
$var wire 1 9" mem_la_firstword $end
$var wire 32 :" next_pc [31:0] $end
$var wire 1 ;" \:X_357 $end
$var wire 1 <" \:X_358 $end
$var wire 1 =" \:X_359 $end
$var wire 1 >" \:X_360 $end
$var wire 1 ?" \:X_361 $end
$var wire 1 @" \:X_362 $end
$var wire 1 A" \:X_363 $end
$var wire 1 B" \:X_364 $end
$var wire 1 C" \:X_365 $end
$var wire 1 D" \:X_366 $end
$var wire 1 E" \:X_367 $end
$var wire 1 F" \:X_368 $end
$var wire 1 G" \:X_369 $end
$var wire 1 H" \:X_370 $end
$var wire 1 I" \:X_371 $end
$var wire 1 J" \:X_372 $end
$var wire 1 K" \:X_373 $end
$var wire 1 L" \:X_374 $end
$var wire 1 M" \:X_375 $end
$var wire 1 N" \:X_376 $end
$var wire 1 O" \:X_377 $end
$var wire 1 P" \:X_378 $end
$var wire 1 Q" \:X_379 $end
$var wire 1 R" \:X_380 $end
$var wire 1 S" \:X_381 $end
$var wire 1 T" \:X_382 $end
$var wire 1 U" \:X_37 $end
$var wire 1 V" \:X_38 $end
$var wire 1 W" \:X_39 $end
$var wire 1 X" \:X_40 $end
$var wire 1 Y" \:X_41 $end
$var wire 1 Z" \:X_42 $end
$var wire 1 [" \:X_43 $end
$var wire 1 \" \:X_44 $end
$var wire 1 ]" \:X_45 $end
$var wire 1 ^" \:X_46 $end
$var wire 1 _" \:X_47 $end
$var wire 1 `" \:X_48 $end
$var wire 1 a" \:X_49 $end
$var wire 1 b" \:X_50 $end
$var wire 1 c" \:X_51 $end
$var wire 1 d" \:X_52 $end
$var wire 1 e" \:X_53 $end
$var wire 1 f" \:X_54 $end
$var wire 1 g" \:X_55 $end
$var wire 1 h" \:X_56 $end
$var wire 1 i" \:X_57 $end
$var wire 1 j" \:X_58 $end
$var wire 1 k" \:X_59 $end
$var wire 1 l" \:X_60 $end
$var wire 1 m" \:X_61 $end
$var wire 1 n" \:X_62 $end
$var wire 1 o" \:X_63 $end
$var reg 32 p" \cpuregs[21] [31:0] $end
$var reg 32 q" \cpuregs[22] [31:0] $end
$var reg 32 r" \cpuregs[23] [31:0] $end
$var reg 32 s" \cpuregs[24] [31:0] $end
$var reg 32 t" \cpuregs[25] [31:0] $end
$var reg 32 u" \cpuregs[26] [31:0] $end
$var reg 32 v" \cpuregs[27] [31:0] $end
$var reg 32 w" \cpuregs[28] [31:0] $end
$var reg 32 x" \cpuregs[29] [31:0] $end
$var reg 32 y" \cpuregs[30] [31:0] $end
$var reg 32 z" \cpuregs[31] [31:0] $end
$var wire 1 {" pcpi_mul_wr $end
$var wire 32 |" pcpi_mul_rd [31:0] $end
$var wire 1 }" pcpi_mul_wait $end
$var wire 1 ~" pcpi_mul_ready $end
$var wire 1 !# pcpi_div_wr $end
$var wire 32 "# pcpi_div_rd [31:0] $end
$var wire 1 ## pcpi_div_wait $end
$var wire 1 $# pcpi_div_ready $end
$var wire 1 %# pcpi_int_wr $end
$var wire 32 &# pcpi_int_rd [31:0] $end
$var wire 1 '# pcpi_int_wait $end
$var wire 1 (# pcpi_int_ready $end
$var wire 32 )# alu_add_sub [31:0] $end
$var wire 32 *# alu_shl [31:0] $end
$var wire 32 +# alu_shr [31:0] $end
$var wire 1 ,# alu_eq $end
$var wire 1 -# alu_ltu $end
$var wire 1 .# alu_lts $end
$var reg 1 /# clear_prefetched_high_word_q $end
$var wire 1 0# cpuregs_write $end
$var wire 32 1# cpuregs_wrdata [31:0] $end
$var wire 1 2# \:X_475 $end
$var wire 1 3# \:X_474 $end
$var wire 1 4# \:X_473 $end
$var wire 1 5# \:X_472 $end
$var wire 1 6# \:X_471 $end
$var wire 1 7# \:X_470 $end
$var wire 1 8# \:X_469 $end
$var wire 1 9# \:X_468 $end
$var wire 1 :# \:X_467 $end
$var wire 1 ;# \:X_466 $end
$var wire 1 <# \:X_465 $end
$var wire 1 =# \:X_464 $end
$var wire 1 ># \:X_463 $end
$var wire 1 ?# \:X_462 $end
$var wire 1 @# \:X_461 $end
$var wire 1 A# \:X_383 $end
$var wire 1 B# \:X_384 $end
$var wire 1 C# \:X_385 $end
$var wire 1 D# \:X_386 $end
$var wire 1 E# \:X_387 $end
$var wire 1 F# \:X_388 $end
$var wire 1 G# \:X_389 $end
$var wire 1 H# \:X_390 $end
$var wire 1 I# \:X_391 $end
$var wire 1 J# \:X_392 $end
$var wire 1 K# \:X_393 $end
$var wire 1 L# \:X_394 $end
$var wire 1 M# \:X_395 $end
$var wire 1 N# \:X_396 $end
$var wire 1 O# \:X_397 $end
$var wire 1 P# \:X_398 $end
$var wire 1 Q# \:X_399 $end
$var wire 1 R# \:X_400 $end
$var wire 1 S# \:X_401 $end
$var wire 1 T# \:X_402 $end
$var wire 1 U# \:X_403 $end
$var wire 1 V# \:X_404 $end
$var wire 1 W# \:X_405 $end
$var wire 1 X# \:X_406 $end
$var wire 1 Y# \:X_407 $end
$var wire 1 Z# \:X_408 $end
$var wire 1 [# \:X_409 $end
$var wire 1 \# \:X_410 $end
$var wire 1 ]# \:X_411 $end
$var wire 1 ^# \:X_412 $end
$var wire 1 _# \:X_235 $end
$var wire 1 `# \:X_236 $end
$var wire 1 a# \:X_237 $end
$var wire 1 b# \:X_238 $end
$var wire 1 c# \:X_239 $end
$var wire 1 d# \:X_240 $end
$var wire 1 e# \:X_241 $end
$var wire 1 f# \:X_242 $end
$var wire 1 g# \:X_243 $end
$var wire 1 h# \:X_244 $end
$var wire 1 i# \:X_245 $end
$var wire 1 j# \:X_246 $end
$var wire 1 k# \:X_247 $end
$var wire 1 l# \:X_248 $end
$var wire 1 m# \:X_249 $end
$var wire 1 n# \:X_250 $end
$var wire 1 o# \:X_251 $end
$var wire 1 p# \:X_252 $end
$var wire 1 q# \:X_253 $end
$var wire 1 r# \:X_254 $end
$var wire 1 s# \:X_255 $end
$var wire 1 t# \:X_256 $end
$var reg 2 u# mem_state [1:0] $end
$var reg 2 v# mem_wordsize [1:0] $end
$var wire 32 w# mem_rdata_word [31:0] $end
$var reg 32 x# mem_rdata_q [31:0] $end
$var reg 1 y# mem_do_prefetch $end
$var reg 1 z# mem_do_rinst $end
$var reg 1 {# mem_do_rdata $end
$var reg 1 |# mem_do_wdata $end
$var wire 1 }# mem_xfer $end
$var reg 1 ~# mem_la_secondword $end
$var reg 1 !$ pcpi_timeout $end
$var reg 1 "$ do_waitirq $end
$var wire 32 #$ alu_out [31:0] $end
$var reg 32 $$ alu_out_q [31:0] $end
$var wire 1 %$ alu_out_0 $end
$var reg 1 &$ prefetched_high_word $end
$var wire 1 '$ clear_prefetched_high_word $end
$var reg 16 ($ mem_16bit_buffer [15:0] $end
$var wire 32 )$ mem_rdata_latched_noshuffle [31:0] $end
$var wire 32 *$ mem_rdata_latched [31:0] $end
$var wire 1 +$ mem_la_use_prefetched_high_word $end
$var wire 1 ,$ mem_done $end
$var reg 32 -$ \cpuregs[0] [31:0] $end
$var reg 32 .$ \cpuregs[1] [31:0] $end
$var reg 32 /$ \cpuregs[2] [31:0] $end
$var reg 32 0$ \cpuregs[3] [31:0] $end
$var reg 32 1$ \cpuregs[4] [31:0] $end
$var reg 32 2$ \cpuregs[5] [31:0] $end
$var reg 32 3$ \cpuregs[6] [31:0] $end
$var reg 32 4$ \cpuregs[7] [31:0] $end
$var reg 32 5$ \cpuregs[8] [31:0] $end
$var reg 32 6$ \cpuregs[9] [31:0] $end
$var reg 32 7$ \cpuregs[10] [31:0] $end
$var reg 32 8$ \cpuregs[11] [31:0] $end
$var reg 32 9$ \cpuregs[12] [31:0] $end
$var reg 32 :$ \cpuregs[13] [31:0] $end
$var reg 32 ;$ \cpuregs[14] [31:0] $end
$var reg 32 <$ \cpuregs[15] [31:0] $end
$var reg 32 =$ \cpuregs[16] [31:0] $end
$var reg 32 >$ \cpuregs[17] [31:0] $end
$var reg 32 ?$ \cpuregs[18] [31:0] $end
$var reg 32 @$ \cpuregs[19] [31:0] $end
$var reg 32 A$ \cpuregs[20] [31:0] $end
$var wire 1 B$ \:X_413 $end
$var wire 1 C$ \:X_414 $end
$var wire 1 D$ \:X_415 $end
$var wire 1 E$ \:X_416 $end
$var wire 1 F$ \:X_417 $end
$var wire 1 G$ \:X_418 $end
$var wire 1 H$ \:X_419 $end
$var wire 1 I$ \:X_420 $end
$var wire 1 J$ \:X_220 $end
$var wire 1 K$ \:X_221 $end
$var wire 1 L$ \:X_222 $end
$var wire 1 M$ \:X_223 $end
$var wire 1 N$ \:X_224 $end
$var wire 1 O$ \:X_225 $end
$var wire 1 P$ \:X_226 $end
$var wire 1 Q$ \:X_227 $end
$var wire 1 R$ \:X_228 $end
$var wire 1 S$ \:X_229 $end
$var wire 1 T$ \:X_230 $end
$var wire 1 U$ \:X_231 $end
$var wire 1 V$ \:X_232 $end
$var wire 1 W$ \:X_233 $end
$var wire 1 X$ \:X_234 $end
$var reg 1 Y$ instr_sub $end
$var reg 1 Z$ instr_sll $end
$var reg 1 [$ instr_slt $end
$var reg 1 \$ instr_sltu $end
$var reg 1 ]$ instr_xor $end
$var reg 1 ^$ instr_srl $end
$var reg 1 _$ instr_sra $end
$var reg 1 `$ instr_or $end
$var reg 1 a$ instr_and $end
$var reg 1 b$ instr_rdcycle $end
$var reg 1 c$ instr_rdcycleh $end
$var reg 1 d$ instr_rdinstr $end
$var reg 1 e$ instr_rdinstrh $end
$var reg 1 f$ instr_ecall_ebreak $end
$var reg 1 g$ instr_getq $end
$var reg 1 h$ instr_setq $end
$var reg 1 i$ instr_retirq $end
$var reg 1 j$ instr_maskirq $end
$var reg 1 k$ instr_waitirq $end
$var reg 1 l$ instr_timer $end
$var wire 1 m$ instr_trap $end
$var reg 5 n$ decoded_rd [4:0] $end
$var reg 5 o$ decoded_rs1 [4:0] $end
$var reg 5 p$ decoded_rs2 [4:0] $end
$var reg 32 q$ decoded_imm [31:0] $end
$var reg 32 r$ decoded_imm_uj [31:0] $end
$var reg 1 s$ decoder_trigger $end
$var wire 1 t$ clk $end
$upscope $end
$var wire 1 u$ reset $end
$var wire 1 v$ rvfi_valid $end
$var wire 32 w$ rvfi_insn [31:0] $end
$var wire 1 x$ mem_ready $end
$var wire 32 y$ mem_rdata [31:0] $end
$var wire 1 z$ clock $end
$upscope $end
$scope module checker_inst $end
$scope module insn_spec $end
$var wire 1 {$ rvfi_valid $end
$var wire 32 |$ rvfi_insn [31:0] $end
$var wire 1 }$ spec_valid $end
$var wire 32 ~$ insn_padding [31:0] $end
$var wire 7 !% insn_funct7 [6:0] $end
$var wire 3 "% insn_funct3 [2:0] $end
$var wire 7 #% insn_opcode [6:0] $end
$upscope $end
$var wire 1 $% spec_valid $end
$var wire 1 %% valid $end
$var wire 1 &% check $end
$var wire 1 '% rvfi_valid $end
$var wire 1 (% reset $end
$var wire 32 )% rvfi_insn [31:0] $end
$var wire 1 *% clock $end
$upscope $end
$var reg 8 +% cycle_reg [7:0] $end
$var wire 8 ,% cycle [7:0] $end
$var wire 1 -% \:jasper_formal_reset $end
$var wire 1 .% reset $end
$var wire 1 /% rvfi_valid $end
$var wire 32 0% rvfi_insn [31:0] $end
$var wire 1 1% \:jasper_formal_clock $end
$var wire 1 2% clock $end
$upscope $end
$enddefinitions $end
#0
12%
1.%
b00000000 ,%
#5
02%
#10
12%
b00000001 +%
#15
02%
#20
12%
#25
02%
#30
b00000000000000000000000000000000 !
0"
0#
0$
0%
0&
0'
0(
0)
b00000000000000000000000000000000 *
0+
0,
0-
0.
0/
00
01
02
03
04
05
06
07
08
09
0:
0;
0<
0=
0>
0?
0@
0A
0B
0C
0D
0E
0F
0G
0H
0I
0J
0K
1L
0M
b00000010000000000100000000110011 N
b11111111111111111111111111111110 O
b00000000000000000000000000000011 P
0Q
0R
1S
0T
b0000 U
0V
1W
0X
b00000010000000000100000000110011 Y
b11111111111111111111111111111110 Z
b00000000000000000000000000000011 [
0\
0]
b00000000000000000000000000000000 ^
0_
0`
0a
0b
0c
0d
1e
0f
0g
0h
1i
0j
0k
0l
0m
0n
1o
0p
0q
0r
0s
0t
1u
0v
1w
0x
b00000000000000000001100000001011 y
b00000000000000000001100000001011 z
0{
0|
0}
b00000000000000000000000000000000 ~
b01000000 !!
b00 "!
0#!
0$!
0%!
0&!
0'!
0(!
0)!
b00001 *!
b1111 +!
b00000000000000000000000000000000 ,!
b01000000000000000000000000000000 -!
0.!
0/!
00!
01!
02!
03!
04!
15!
16!
07!
08!
09!
0:!
0;!
0<!
0=!
0>!
0?!
0@!
0A!
0B!
0C!
0D!
0E!
0F!
0G!
0H!
0I!
0J!
0K!
1L!
0M!
1N!
0O!
1P!
0Q!
0R!
0S!
b00000000000000010000000000000000 T!
0U!
0V!
b00000010000000000100000000110011 W!
b11111111111111111111111111111110 X!
b00000000000000000000000000000011 Y!
1Z!
1[!
1\!
1]!
1^!
1_!
1`!
1a!
1b!
1c!
1d!
1e!
1f!
1g!
1h!
1i!
1j!
1k!
1l!
1m!
1n!
1o!
1p!
1q!
1r!
1s!
1t!
1u!
1v!
1w!
1x!
1y!
0z!
0{!
0|!
0}!
0~!
0!"
0""
0#"
0$"
0%"
0&"
0'"
0("
0)"
0*"
0+"
0,"
b0000000000000000000000000000000000000000000000000000000000000000 -"
b0000000000000000000000000000000000000000000000000000000000000000 ."
b00000000000000000000000000000000 /"
b00000000000000000000000000000000 0"
b11111111111111111111111111111110 1"
b00000000000000000000000000000011 2"
b00000000000000000000000000000000 3"
b11111 4"
b11111111111111110000000000000011 5"
b00000000000000000001100000001011 6"
07"
08"
09"
b00000000000000000000000000000000 :"
0;"
0<"
0="
0>"
0?"
0@"
0A"
0B"
0C"
0D"
0E"
0F"
0G"
0H"
0I"
0J"
0K"
0L"
0M"
0N"
0O"
0P"
0Q"
0R"
0S"
0T"
0U"
0V"
0W"
0X"
0Y"
0Z"
0["
0\"
0]"
0^"
0_"
0`"
0a"
0b"
0c"
0d"
0e"
0f"
0g"
0h"
0i"
0j"
0k"
0l"
0m"
0n"
0o"
b00000000000000000000000000000000 p"
b00000000000000000000000000000000 q"
b00000000000000000000000000000000 r"
b00000000000000000000000000000000 s"
b00000000000000000000000000000000 t"
b00000000000000000000000000000000 u"
b00000000000000000000000000000000 v"
b00000000000000000000000000000000 w"
b00000000000000000000000000000000 x"
b00000000000000000000000000000000 y"
b00000000000000000000000000000000 z"
0{"
b00000000000000000000000000000000 |"
0}"
0~"
0!#
b00000000000000000000000000000000 "#
0##
0$#
0%#
b00000000000000000000000000000000 &#
0'#
0(#
b00000000000000000000000000000001 )#
b11111111111111111111111111110000 *#
b11111111111111111111111111111111 +#
0,#
0-#
1.#
1/#
00#
b11111111111111111111111111111111 1#
02#
03#
04#
05#
06#
07#
08#
09#
0:#
0;#
0<#
0=#
0>#
0?#
0@#
0A#
0B#
0C#
0D#
0E#
0F#
0G#
0H#
0I#
0J#
0K#
0L#
0M#
0N#
0O#
0P#
0Q#
0R#
0S#
0T#
0U#
0V#
0W#
0X#
0Y#
0Z#
0[#
0\#
0]#
0^#
0_#
0`#
0a#
0b#
0c#
0d#
0e#
0f#
0g#
0h#
0i#
0j#
0k#
0l#
0m#
0n#
0o#
0p#
0q#
0r#
0s#
0t#
b00 u#
b01 v#
b00000000000000000000000000000001 w#
b01000000000000001000111000000000 x#
0y#
0z#
0{#
0|#
0}#
0~#
0!$
0"$
b11111111111111111111111111111111 #$
b00000000000000000000000000000000 $$
0%$
0&$
0'$
b0000000000000000 ($
b01000000000000001000111000000000 )$
b01000000000000001000111000000000 *$
0+$
0,$
b00000000000000000000000000000000 -$
b00000000000000000000000000000000 .$
b00000000000000000000000000000000 /$
b00000000000000000000000000000000 0$
b00000000000000000000000000000000 1$
b00000000000000000000000000000000 2$
b00000000000000000000000000000000 3$
b00000000000000000000000000000000 4$
b00000000000000000000000000000000 5$
b00000000000000000000000000000000 6$
b00000000000000000000000000000000 7$
b00000000000000000000000000000000 8$
b00000000000000000000000000000000 9$
b00000000000000000000000000000000 :$
b00000000000000000000000000000000 ;$
b00000000000000000000000000000000 <$
b00000000000000000000000000000000 =$
b00000000000000000000000000000000 >$
b00000000000000000000000000000000 ?$
b00000000000000000000000000000000 @$
b01000000000000000000000000000000 A$
0B$
0C$
0D$
0E$
0F$
0G$
0H$
0I$
1J$
1K$
1L$
1M$
1N$
0O$
0P$
0Q$
0R$
0S$
0T$
0U$
0V$
0W$
0X$
0Y$
0Z$
0[$
0\$
0]$
0^$
0_$
0`$
0a$
0b$
0c$
0d$
1e$
0f$
0g$
0h$
0i$
0j$
0k$
0l$
0m$
b11111 n$
b11010 o$
b10100 p$
b00000000000000000001000000000001 q$
b00000000000000000000000000000000 r$
0s$
1t$
0u$
0v$
b00000000000000000001100000001011 w$
0x$
b00000000000000010000000000000000 y$
1z$
0{$
b00000000000000000001100000001011 |$
0}$
b00000000000000000000000000000000 ~$
b0000000 !%
b001 "%
b0001011 #%
0$%
0%%
0&%
0'%
0(%
b00000000000000000001100000001011 )%
1*%
b00000001 +%
b00000001 ,%
0-%
0.%
0/%
b00000000000000000001100000001011 0%
11%
12%
#35
0S
0e
0t$
0z$
0*%
01%
02%
#40
1S
1e
1j
1&!
b11111 *!
b00000000000000000000000000000011 T!
1U!
b0000000000000000000000000000000000000000000000000000000000000001 -"
0/#
b00 v#
b00000000000000000000000000000011 w#
1z#
b11111111111111111111111111111111 $$
1t$
b00000000000000000000000000000011 y$
1z$
1*%
b00000010 +%
b00000010 ,%
11%
12%
#45
0S
0e
0t$
0z$
0*%
01%
02%
#50
1S
1e
1R!
1S!
b00000010010000111010000000001001 T!
0U!
0u!
b0000000000000000000000000000000000000000000000000000000000000010 -"
b01111111111111111111111111111111 1#
b01 u#
b00000010010000111010000000001001 w#
1}#
b00000010010000111010000000001001 )$
b00000010010000111010000000001001 *$
1,$
1t$
1x$
b00000010010000111010000000001001 y$
1z$
1*%
b00000011 +%
b00000011 ,%
11%
12%
#55
0S
0e
0t$
0z$
0*%
01%
02%
#60
1S
1e
0u
1|
b00000000000000000000000000000000 -!
05!
0R!
b00000000000000000000000000000000 T!
1u!
b0000000000000000000000000000000000000000000000000000000000000011 -"
b00000010010000111010000000001001 5"
b11111111111111111111111111111111 1#
b00 u#
b00000000000000000000000000000000 w#
b00000010010000111010000000001001 x#
0z#
0}#
1&$
b0000001001000011 ($
0,$
b00000 n$
b00000 o$
b00000 p$
b00000000000000000000000000000010 r$
1s$
1t$
b00000000000000000000000000000000 y$
1z$
1*%
b00000100 +%
b00000100 ,%
11%
12%
#65
0S
0e
0t$
0z$
0*%
01%
02%
#70
b00000010010000111010000000001001 N
1S
b00000010010000111010000000001001 Y
1e
1f
0o
0w
1{
0|
1}
1%!
b00000 *!
0L!
0N!
0S!
1U!
b00000010010000111010000000001001 W!
0Z!
0[!
0\!
0]!
0^!
0_!
0`!
0a!
0b!
0c!
0d!
0e!
0f!
0g!
0h!
0i!
0j!
0k!
0l!
0m!
0n!
0o!
0p!
0q!
0r!
0s!
0t!
0u!
0v!
0w!
0x!
0y!
b0000000000000000000000000000000000000000000000000000000000000100 -"
b0000000000000000000000000000000000000000000000000000000000000001 ."
b00000000000000000000000000000010 0"
b00000000000000001010000000001001 6"
19"
b00000000000000000000000000000010 :"
b00011111111111111111111111111111 +#
10#
b00000000000000000000000000000010 1#
1z#
b00000000000000000000000000000000 #$
1'$
b00000000000000000000001001000011 *$
0e$
b00000000000000000000000000000010 q$
0s$
1t$
0x$
1z$
1*%
b00000101 +%
b00000101 ,%
11%
12%
#75
0S
0e
0t$
0z$
0*%
01%
02%
#80
1S
1e
0f
1o
b00000000000000001010000000001001 y
b00000000000000001010000000001001 z
0{
b00000000000000001010000000001001 ~
0%!
1R!
1S!
b00110001000000000000000000000011 T!
0U!
b0000000000000000000000000000000000000000000000000000000000000101 -"
b00000000000000000000000000000010 /"
17"
1/#
00#
b00000000000000000000000000000000 1#
b01 u#
b00110001000000000000000000000011 w#
1}#
b00000000000000000000000000000001 #$
b00000000000000000000000000000000 $$
0&$
0'$
b00110001000000000000000000000011 )$
b00000000000000000011000100000000 *$
1,$
1t$
b00000000000000001010000000001001 w$
1x$
b00110001000000000000000000000011 y$
1z$
b00000000000000001010000000001001 |$
b010 "%
b0001001 #%
b00000000000000001010000000001001 )%
1*%
b00000110 +%
b00000110 ,%
b00000000000000001010000000001001 0%
11%
12%
#85
0S
0e
0t$
0z$
0*%
01%
02%
#90
1S
1e
1|
06!
0R!
b00000000000000000000000000000000 T!
b0000000000000000000000000000000000000000000000000000000000000110 -"
b00000000000000000011000100000000 5"
09"
0/#
b00 u#
b00000000000000000000000000000000 w#
b00000000000000000011000100000000 x#
0z#
0}#
b00000000000000000000000000000001 $$
b00000000000000000011000100000000 )$
0,$
1m$
b11111111111111111111110000000000 r$
1s$
1t$
b00000000000000000000000000000000 y$
1z$
1*%
b00000111 +%
b00000111 ,%
11%
12%
#95
0S
0e
0t$
0z$
0*%
01%
02%
