riscv_formal_verification/picorv32/rvfi_valid_lhu_new.vcd
$date Mon Feb 25 14:29:43 2019
 $end
$version JasperGold $end
$timescale 1 ns $end
$scope module rvfi_testbench $end
$scope module wrapper $end
$scope module uut $end
$scope module pcpi_div $end
$var wire 1 ! resetn $end
$var wire 1 " pcpi_valid $end
$var wire 32 # pcpi_insn [31:0] $end
$var wire 32 $ pcpi_rs1 [31:0] $end
$var wire 32 % pcpi_rs2 [31:0] $end
$var wire 1 & instr_any_div_rem $end
$var reg 1 ' pcpi_wr $end
$var reg 32 ( pcpi_rd [31:0] $end
$var reg 1 ) pcpi_wait $end
$var reg 1 * pcpi_ready $end
$var reg 1 + instr_div $end
$var reg 1 , instr_divu $end
$var reg 1 - instr_rem $end
$var reg 1 . instr_remu $end
$var reg 1 / pcpi_wait_q $end
$var wire 1 0 start $end
$var reg 32 1 quotient_msk [31:0] $end
$var reg 1 2 running $end
$var wire 1 3 \:X_3 $end
$var wire 1 4 \:X_4 $end
$var wire 1 5 \:X_0 $end
$var wire 1 6 \:X_1 $end
$var wire 1 7 \:X_2 $end
$var wire 1 8 \:X_5 $end
$var wire 1 9 \:X_6 $end
$var wire 1 : \:X_7 $end
$var wire 1 ; \:X_8 $end
$var wire 1 < \:X_9 $end
$var wire 1 = \:X_10 $end
$var wire 1 > \:X_11 $end
$var wire 1 ? \:X_12 $end
$var wire 1 @ \:X_13 $end
$var wire 1 A \:X_14 $end
$var wire 1 B \:X_15 $end
$var wire 1 C \:X_16 $end
$var wire 1 D \:X_17 $end
$var wire 1 E \:X_18 $end
$var wire 1 F \:X_19 $end
$var wire 1 G \:X_20 $end
$var wire 1 H \:X_21 $end
$var wire 1 I \:X_22 $end
$var wire 1 J \:X_23 $end
$var wire 1 K \:X_24 $end
$var wire 1 L \:X_25 $end
$var wire 1 M \:X_26 $end
$var wire 1 N \:X_27 $end
$var wire 1 O \:X_28 $end
$var wire 1 P \:X_29 $end
$var wire 1 Q \:X_30 $end
$var wire 1 R \:X_31 $end
$var wire 1 S clk $end
$upscope $end
$scope module pcpi_mul $end
$var wire 1 T \:X_3556 $end
$var wire 1 U resetn $end
$var wire 1 V pcpi_valid $end
$var wire 32 W pcpi_insn [31:0] $end
$var wire 32 X pcpi_rs1 [31:0] $end
$var wire 32 Y pcpi_rs2 [31:0] $end
$var wire 1 Z instr_any_mul $end
$var wire 1 [ pcpi_wr $end
$var wire 32 \ pcpi_rd [31:0] $end
$var wire 1 ] pcpi_wait $end
$var wire 1 ^ pcpi_ready $end
$var wire 1 _ instr_mul $end
$var wire 1 ` instr_mulh $end
$var wire 1 a instr_mulhsu $end
$var wire 1 b instr_mulhu $end
$var reg 4 c active [3:0] $end
$var wire 1 d pcpi_insn_valid $end
$var wire 1 e clk $end
$upscope $end
$var reg 32 f \cpuregs[12] [31:0] $end
$var reg 32 g \cpuregs[13] [31:0] $end
$var reg 32 h \cpuregs[14] [31:0] $end
$var reg 32 i \cpuregs[15] [31:0] $end
$var reg 32 j \cpuregs[16] [31:0] $end
$var reg 32 k \cpuregs[17] [31:0] $end
$var reg 32 l \cpuregs[18] [31:0] $end
$var reg 32 m \cpuregs[19] [31:0] $end
$var reg 32 n \cpuregs[20] [31:0] $end
$var reg 32 o \cpuregs[21] [31:0] $end
$var reg 32 p \cpuregs[22] [31:0] $end
$var reg 32 q \cpuregs[23] [31:0] $end
$var reg 32 r \cpuregs[24] [31:0] $end
$var reg 32 s \cpuregs[25] [31:0] $end
$var reg 32 t \cpuregs[26] [31:0] $end
$var reg 32 u \cpuregs[27] [31:0] $end
$var reg 32 v \cpuregs[28] [31:0] $end
$var reg 32 w \cpuregs[29] [31:0] $end
$var reg 32 x \cpuregs[30] [31:0] $end
$var reg 32 y \cpuregs[31] [31:0] $end
$var wire 1 z pcpi_mul_wr $end
$var wire 32 { pcpi_mul_rd [31:0] $end
$var wire 1 | pcpi_mul_wait $end
$var wire 1 } pcpi_mul_ready $end
$var wire 1 ~ pcpi_div_wr $end
$var wire 32 !! pcpi_div_rd [31:0] $end
$var wire 1 "! pcpi_div_wait $end
$var wire 1 #! pcpi_div_ready $end
$var wire 1 $! pcpi_int_wr $end
$var wire 32 %! pcpi_int_rd [31:0] $end
$var wire 1 &! pcpi_int_wait $end
$var wire 1 '! pcpi_int_ready $end
$var reg 2 (! mem_state [1:0] $end
$var reg 2 )! mem_wordsize [1:0] $end
$var wire 32 *! mem_rdata_word [31:0] $end
$var reg 32 +! mem_rdata_q [31:0] $end
$var reg 1 ,! mem_do_prefetch $end
$var reg 1 -! mem_do_rinst $end
$var reg 1 .! mem_do_rdata $end
$var reg 1 /! mem_do_wdata $end
$var wire 1 0! mem_xfer $end
$var reg 1 1! mem_la_secondword $end
$var reg 1 2! prefetched_high_word $end
$var wire 1 3! clear_prefetched_high_word $end
$var reg 16 4! mem_16bit_buffer [15:0] $end
$var wire 32 5! mem_rdata_latched_noshuffle [31:0] $end
$var wire 32 6! mem_rdata_latched [31:0] $end
$var reg 32 7! decoded_imm_uj [31:0] $end
$var reg 1 8! instr_getq $end
$var reg 1 9! instr_setq $end
$var reg 1 :! instr_retirq $end
$var reg 1 ;! instr_maskirq $end
$var reg 1 <! instr_waitirq $end
$var reg 1 =! instr_timer $end
$var wire 1 >! instr_trap $end
$var reg 5 ?! decoded_rd [4:0] $end
$var reg 5 @! decoded_rs1 [4:0] $end
$var reg 5 A! decoded_rs2 [4:0] $end
$var reg 32 B! decoded_imm [31:0] $end
$var reg 1 C! is_lb_lh_lw_lbu_lhu $end
$var reg 1 D! is_slli_srli_srai $end
$var reg 1 E! is_jalr_addi_slti_sltiu_xori_ori_andi $end
$var reg 1 F! is_sb_sh_sw $end
$var reg 1 G! is_lui_auipc_jal_jalr_addi_add_sub $end
$var reg 1 H! is_slti_blt_slt $end
$var reg 1 I! is_sltiu_bltu_sltu $end
$var reg 1 J! is_beq_bne_blt_bge_bltu_bgeu $end
$var reg 1 K! is_lbu_lhu_lw $end
$var reg 1 L! is_alu_reg_imm $end
$var reg 1 M! is_alu_reg_reg $end
$var reg 1 N! is_compare $end
$var wire 1 O! is_rdcycle_rdcycleh_rdinstr_rdinstrh $end
$var reg 32 P! q_insn_opcode [31:0] $end
$var reg 1 Q! decoder_trigger $end
$var reg 1 R! decoder_trigger_q $end
$var reg 1 S! decoder_pseudo_trigger $end
$var reg 1 T! decoder_pseudo_trigger_q $end
$var reg 1 U! compressed_instr $end
$var reg 1 V! is_lui_auipc_jal $end
$var wire 1 W! \:X_393 $end
$var wire 1 X! \:X_394 $end
$var wire 1 Y! \:X_395 $end
$var wire 1 Z! \:X_396 $end
$var wire 1 [! \:X_397 $end
$var wire 1 \! \:X_398 $end
$var wire 1 ]! \:X_399 $end
$var wire 1 ^! \:X_400 $end
$var wire 1 _! \:X_401 $end
$var wire 1 `! \:X_402 $end
$var wire 1 a! \:X_403 $end
$var wire 1 b! \:X_404 $end
$var wire 1 c! \:X_405 $end
$var wire 1 d! \:X_406 $end
$var wire 1 e! \:X_407 $end
$var wire 1 f! \:X_408 $end
$var wire 1 g! \:X_409 $end
$var wire 1 h! \:X_410 $end
$var wire 1 i! \:X_411 $end
$var wire 1 j! \:X_412 $end
$var wire 1 k! \:X_413 $end
$var wire 1 l! \:X_414 $end
$var wire 1 m! \:X_415 $end
$var wire 1 n! \:X_416 $end
$var wire 1 o! \:X_417 $end
$var wire 1 p! \:X_418 $end
$var wire 1 q! \:X_419 $end
$var wire 1 r! \:X_420 $end
$var wire 1 s! \:X_64 $end
$var wire 1 t! \:X_492 $end
$var wire 1 u! \:X_491 $end
$var wire 1 v! \:X_490 $end
$var wire 1 w! \:X_489 $end
$var wire 1 x! \:X_488 $end
$var wire 1 y! \:X_487 $end
$var wire 1 z! \:X_486 $end
$var wire 1 {! \:X_485 $end
$var wire 1 |! \:X_484 $end
$var wire 1 }! \:X_483 $end
$var wire 1 ~! \:X_482 $end
$var wire 1 !" \:X_481 $end
$var wire 1 "" \:X_480 $end
$var wire 1 #" \:X_479 $end
$var wire 1 $" \:X_478 $end
$var wire 1 %" \:X_477 $end
$var wire 1 &" \:X_476 $end
$var wire 1 '" \:X_475 $end
$var wire 1 (" \:X_474 $end
$var wire 1 )" \:X_473 $end
$var wire 1 *" \:X_472 $end
$var wire 1 +" \:X_471 $end
$var wire 1 ," \:X_470 $end
$var wire 1 -" \:X_469 $end
$var wire 1 ." \:X_468 $end
$var wire 1 /" \:X_467 $end
$var wire 1 0" \:X_466 $end
$var wire 1 1" \:X_465 $end
$var wire 1 2" \:X_464 $end
$var wire 1 3" \:X_463 $end
$var wire 1 4" \:X_462 $end
$var wire 1 5" \:X_461 $end
$var reg 64 6" count_cycle [63:0] $end
$var reg 64 7" count_instr [63:0] $end
$var reg 32 8" reg_pc [31:0] $end
$var reg 32 9" reg_next_pc [31:0] $end
$var reg 32 :" reg_op1 [31:0] $end
$var reg 32 ;" reg_op2 [31:0] $end
$var reg 32 <" reg_out [31:0] $end
$var reg 5 =" reg_sh [4:0] $end
$var reg 32 >" next_insn_opcode [31:0] $end
$var wire 32 ?" dbg_insn_opcode [31:0] $end
$var reg 1 @" mem_la_firstword_reg $end
$var reg 1 A" last_mem_valid $end
$var wire 1 B" mem_la_firstword $end
$var wire 32 C" next_pc [31:0] $end
$var reg 32 D" \cpuregs[0] [31:0] $end
$var reg 32 E" \cpuregs[1] [31:0] $end
$var reg 32 F" \cpuregs[2] [31:0] $end
$var reg 32 G" \cpuregs[3] [31:0] $end
$var reg 32 H" \cpuregs[4] [31:0] $end
$var reg 32 I" \cpuregs[5] [31:0] $end
$var reg 32 J" \cpuregs[6] [31:0] $end
$var reg 32 K" \cpuregs[7] [31:0] $end
$var reg 32 L" \cpuregs[8] [31:0] $end
$var reg 32 M" \cpuregs[9] [31:0] $end
$var reg 32 N" \cpuregs[10] [31:0] $end
$var reg 32 O" \cpuregs[11] [31:0] $end
$var wire 32 P" alu_add_sub [31:0] $end
$var wire 32 Q" alu_shl [31:0] $end
$var wire 32 R" alu_shr [31:0] $end
$var wire 1 S" alu_eq $end
$var wire 1 T" alu_ltu $end
$var wire 1 U" alu_lts $end
$var reg 1 V" clear_prefetched_high_word_q $end
$var wire 1 W" mem_la_use_prefetched_high_word $end
$var wire 1 X" mem_done $end
$var reg 1 Y" instr_lui $end
$var reg 1 Z" instr_auipc $end
$var reg 1 [" instr_jal $end
$var reg 1 \" instr_jalr $end
$var reg 1 ]" instr_beq $end
$var reg 1 ^" instr_bne $end
$var reg 1 _" instr_blt $end
$var reg 1 `" instr_bge $end
$var reg 1 a" instr_bltu $end
$var reg 1 b" instr_bgeu $end
$var reg 1 c" instr_lb $end
$var reg 1 d" instr_lh $end
$var reg 1 e" instr_lw $end
$var reg 1 f" instr_lbu $end
$var reg 1 g" instr_lhu $end
$var reg 1 h" instr_sb $end
$var reg 1 i" instr_sh $end
$var reg 1 j" instr_sw $end
$var reg 1 k" instr_addi $end
$var reg 1 l" instr_slti $end
$var reg 1 m" instr_sltiu $end
$var reg 1 n" instr_xori $end
$var reg 1 o" instr_ori $end
$var reg 1 p" instr_andi $end
$var reg 1 q" instr_slli $end
$var reg 1 r" instr_srli $end
$var reg 1 s" instr_srai $end
$var reg 1 t" instr_add $end
$var reg 1 u" instr_sub $end
$var reg 1 v" instr_sll $end
$var reg 1 w" instr_slt $end
$var reg 1 x" instr_sltu $end
$var reg 1 y" instr_xor $end
$var reg 1 z" instr_srl $end
$var reg 1 {" instr_sra $end
$var reg 1 |" instr_or $end
$var reg 1 }" instr_and $end
$var reg 1 ~" instr_rdcycle $end
$var reg 1 !# instr_rdcycleh $end
$var reg 1 "# instr_rdinstr $end
$var reg 1 ## instr_rdinstrh $end
$var reg 1 $# instr_ecall_ebreak $end
$var wire 1 %# \:X_129 $end
$var wire 1 &# \:X_130 $end
$var wire 1 '# \:X_131 $end
$var wire 1 (# \:X_132 $end
$var wire 1 )# \:X_133 $end
$var wire 1 *# \:X_134 $end
$var wire 1 +# \:X_135 $end
$var wire 1 ,# \:X_136 $end
$var wire 1 -# \:X_137 $end
$var wire 1 .# \:X_138 $end
$var wire 1 /# \:X_139 $end
$var wire 1 0# \:X_140 $end
$var wire 1 1# \:X_141 $end
$var wire 1 2# \:X_142 $end
$var wire 1 3# \:X_143 $end
$var wire 1 4# \:X_144 $end
$var wire 1 5# \:X_145 $end
$var wire 1 6# \:X_146 $end
$var wire 1 7# \:X_147 $end
$var wire 1 8# \:X_148 $end
$var wire 1 9# \:X_149 $end
$var wire 1 :# \:X_150 $end
$var wire 1 ;# \:X_151 $end
$var wire 1 <# \:X_152 $end
$var wire 1 =# \:X_153 $end
$var wire 1 ># \:X_154 $end
$var wire 1 ?# \:X_155 $end
$var wire 1 @# \:X_156 $end
$var wire 1 A# \:X_157 $end
$var wire 1 B# \:X_158 $end
$var wire 1 C# \:X_159 $end
$var wire 1 D# \:X_160 $end
$var wire 1 E# cpuregs_write $end
$var wire 32 F# cpuregs_wrdata [31:0] $end
$var wire 32 G# cpuregs_rs1 [31:0] $end
$var wire 32 H# cpuregs_rs2 [31:0] $end
$var wire 1 I# \:X_32 $end
$var wire 1 J# \:X_33 $end
$var wire 1 K# \:X_34 $end
$var wire 1 L# \:X_35 $end
$var wire 1 M# \:X_36 $end
$var wire 1 N# \:X_37 $end
$var wire 1 O# \:X_38 $end
$var wire 1 P# \:X_39 $end
$var wire 1 Q# \:X_40 $end
$var wire 1 R# \:X_41 $end
$var wire 1 S# \:X_42 $end
$var wire 1 T# \:X_43 $end
$var wire 1 U# \:X_44 $end
$var wire 1 V# \:X_45 $end
$var wire 1 W# \:X_46 $end
$var wire 1 X# \:X_47 $end
$var wire 1 Y# \:X_48 $end
$var wire 1 Z# \:X_49 $end
$var wire 1 [# \:X_50 $end
$var wire 1 \# \:X_51 $end
$var wire 1 ]# \:X_52 $end
$var wire 1 ^# \:X_53 $end
$var wire 1 _# \:X_54 $end
$var wire 1 `# \:X_55 $end
$var wire 1 a# \:X_56 $end
$var wire 1 b# \:X_57 $end
$var wire 1 c# \:X_58 $end
$var wire 1 d# \:X_59 $end
$var wire 1 e# \:X_60 $end
$var wire 1 f# \:X_61 $end
$var wire 1 g# \:X_62 $end
$var wire 1 h# \:X_63 $end
$var wire 1 i# resetn $end
$var reg 1 j# trap $end
$var reg 1 k# mem_valid $end
$var wire 1 l# mem_ready $end
$var wire 32 m# mem_rdata [31:0] $end
$var wire 1 n# mem_la_read $end
$var reg 1 o# pcpi_valid $end
$var reg 32 p# pcpi_insn [31:0] $end
$var wire 32 q# pcpi_rs1 [31:0] $end
$var wire 32 r# pcpi_rs2 [31:0] $end
$var reg 1 s# rvfi_valid $end
$var reg 32 t# rvfi_insn [31:0] $end
$var wire 1 u# \:X_357 $end
$var wire 1 v# \:X_358 $end
$var wire 1 w# \:X_359 $end
$var wire 1 x# \:X_360 $end
$var wire 1 y# \:X_361 $end
$var wire 1 z# \:X_362 $end
$var wire 1 {# \:X_363 $end
$var wire 1 |# \:X_364 $end
$var wire 1 }# \:X_365 $end
$var wire 1 ~# \:X_366 $end
$var wire 1 !$ \:X_367 $end
$var wire 1 "$ \:X_368 $end
$var wire 1 #$ \:X_369 $end
$var wire 1 $$ \:X_370 $end
$var wire 1 %$ \:X_371 $end
$var wire 1 &$ \:X_372 $end
$var wire 1 '$ \:X_373 $end
$var wire 1 ($ \:X_374 $end
$var wire 1 )$ \:X_375 $end
$var wire 1 *$ \:X_376 $end
$var wire 1 +$ \:X_377 $end
$var wire 1 ,$ \:X_378 $end
$var wire 1 -$ \:X_379 $end
$var wire 1 .$ \:X_380 $end
$var wire 1 /$ \:X_381 $end
$var wire 1 0$ \:X_382 $end
$var wire 1 1$ \:X_383 $end
$var wire 1 2$ \:X_384 $end
$var wire 1 3$ \:X_385 $end
$var wire 1 4$ \:X_386 $end
$var wire 1 5$ \:X_387 $end
$var wire 1 6$ \:X_388 $end
$var wire 1 7$ \:X_389 $end
$var wire 1 8$ \:X_390 $end
$var wire 1 9$ \:X_391 $end
$var wire 1 :$ \:X_392 $end
$var reg 1 ;$ dbg_next $end
$var wire 1 <$ launch_next_insn $end
$var reg 1 =$ dbg_valid_insn $end
$var reg 32 >$ cached_insn_opcode [31:0] $end
$var reg 8 ?$ cpu_state [7:0] $end
$var reg 2 @$ irq_state [1:0] $end
$var reg 1 A$ latched_store $end
$var reg 1 B$ latched_stalu $end
$var reg 1 C$ latched_branch $end
$var reg 1 D$ latched_compr $end
$var reg 1 E$ latched_is_lu $end
$var reg 1 F$ latched_is_lh $end
$var reg 1 G$ latched_is_lb $end
$var reg 5 H$ latched_rd [4:0] $end
$var reg 4 I$ pcpi_timeout_counter [3:0] $end
$var reg 1 J$ pcpi_timeout $end
$var reg 1 K$ do_waitirq $end
$var wire 32 L$ alu_out [31:0] $end
$var reg 32 M$ alu_out_q [31:0] $end
$var wire 1 N$ alu_out_0 $end
$var wire 1 O$ \:X_220 $end
$var wire 1 P$ \:X_221 $end
$var wire 1 Q$ \:X_222 $end
$var wire 1 R$ \:X_223 $end
$var wire 1 S$ \:X_224 $end
$var wire 1 T$ \:X_225 $end
$var wire 1 U$ \:X_226 $end
$var wire 1 V$ \:X_227 $end
$var wire 1 W$ \:X_228 $end
$var wire 1 X$ \:X_229 $end
$var wire 1 Y$ \:X_230 $end
$var wire 1 Z$ \:X_231 $end
$var wire 1 [$ \:X_232 $end
$var wire 1 \$ \:X_233 $end
$var wire 1 ]$ \:X_234 $end
$var wire 1 ^$ \:X_235 $end
$var wire 1 _$ \:X_236 $end
$var wire 1 `$ \:X_237 $end
$var wire 1 a$ \:X_238 $end
$var wire 1 b$ \:X_239 $end
$var wire 1 c$ \:X_240 $end
$var wire 1 d$ \:X_241 $end
$var wire 1 e$ \:X_242 $end
$var wire 1 f$ \:X_243 $end
$var wire 1 g$ \:X_244 $end
$var wire 1 h$ \:X_245 $end
$var wire 1 i$ \:X_246 $end
$var wire 1 j$ \:X_247 $end
$var wire 1 k$ \:X_248 $end
$var wire 1 l$ \:X_249 $end
$var wire 1 m$ \:X_250 $end
$var wire 1 n$ \:X_251 $end
$var wire 1 o$ \:X_252 $end
$var wire 1 p$ \:X_253 $end
$var wire 1 q$ \:X_254 $end
$var wire 1 r$ \:X_255 $end
$var wire 1 s$ \:X_256 $end
$var wire 1 t$ clk $end
$upscope $end
$var wire 1 u$ reset $end
$var wire 1 v$ rvfi_valid $end
$var wire 32 w$ rvfi_insn [31:0] $end
$var wire 1 x$ mem_ready $end
$var wire 32 y$ mem_rdata [31:0] $end
$var wire 1 z$ clock $end
$upscope $end
$scope module checker_inst $end
$scope module insn_spec $end
$var wire 1 {$ spec_valid $end
$var wire 32 |$ insn_padding [31:0] $end
$var wire 3 }$ insn_funct3 [2:0] $end
$var wire 7 ~$ insn_opcode [6:0] $end
$var wire 1 !% rvfi_valid $end
$var wire 32 "% rvfi_insn [31:0] $end
$upscope $end
$var wire 1 #% valid $end
$var wire 1 $% reset $end
$var wire 1 %% check $end
$var wire 1 &% rvfi_valid $end
$var wire 32 '% rvfi_insn [31:0] $end
$var wire 1 (% spec_valid $end
$var wire 1 )% clock $end
$upscope $end
$var wire 1 *% reset $end
$var wire 1 +% rvfi_valid $end
$var wire 32 ,% rvfi_insn [31:0] $end
$var reg 8 -% cycle_reg [7:0] $end
$var wire 8 .% cycle [7:0] $end
$var wire 1 /% \:jasper_formal_reset $end
$var wire 1 0% clock $end
$var wire 1 1% \:jasper_formal_clock $end
$upscope $end
$enddefinitions $end
#0
10%
1*%
b00000000 .%
#5
00%
#10
10%
b00000001 -%
#15
00%
#20
10%
#25
00%
#30
1!
0"
b00000010000000000100000000010011 #
b11111111111111111111111111111100 $
b00000000000000000000000000010001 %
0&
0'
b00000000000000000000000000000000 (
0)
0*
0+
0,
0-
0.
0/
00
b00000000000000000000000000000000 1
02
03
04
05
06
07
08
09
0:
0;
0<
0=
0>
0?
0@
0A
0B
0C
0D
0E
0F
0G
0H
0I
0J
0K
0L
0M
0N
0O
0P
0Q
0R
1S
0T
1U
0V
b00000010000000000100000000010011 W
b11111111111111111111111111111100 X
b00000000000000000000000000010001 Y
0Z
0[
b00000000000000000000000000000000 \
0]
0^
0_
0`
0a
0b
b0000 c
0d
1e
b00000000000000000000000000000000 f
b00000000000000000000000000000000 g
b00000000000000000000000000000000 h
b00000000000000000000000000000000 i
b00000000000000000000000000000000 j
b00000000000000000000000000000000 k
b00000000000000000000000000000000 l
b00000000000000000000000000000000 m
b00000000000000000000000000000000 n
b00000000000000000000000000000000 o
b00000000000000000000000000000000 p
b00000000000000000000000000000000 q
b00000000000000000000000000000000 r
b00000000000000000000000000000000 s
b00000000000000000000000000000000 t
b00000000000000000000000000000000 u
b00000000000000000000000000000000 v
b00000000000000000000000000000000 w
b00000000000000000000000000000000 x
b00000000000000000000000000000000 y
0z
b00000000000000000000000000000000 {
0|
0}
0~
b00000000000000000000000000000000 !!
0"!
0#!
0$!
b00000000000000000000000000000000 %!
0&!
0'!
b00 (!
b00 )!
b00000000000000000000000000000000 *!
b00000000000100000000000010110011 +!
0,!
0-!
0.!
0/!
00!
01!
02!
03!
b0000000000000000 4!
b00000000000100000000000010110011 5!
b00000000000100000000000010110011 6!
b00000000000100000000000000000000 7!
08!
09!
0:!
0;!
0<!
0=!
0>!
b11101 ?!
b00010 @!
b11111 A!
b00000000000000000000000000000111 B!
0C!
0D!
0E!
0F!
0G!
0H!
0I!
0J!
0K!
0L!
1M!
0N!
1O!
b00000000001000000000100000001011 P!
0Q!
0R!
0S!
0T!
0U!
0V!
0W!
0X!
0Y!
0Z!
0[!
0\!
0]!
0^!
0_!
0`!
0a!
0b!
0c!
0d!
0e!
0f!
0g!
0h!
0i!
0j!
0k!
0l!
0m!
0n!
0o!
0p!
0q!
0r!
0s!
0t!
0u!
0v!
0w!
0x!
0y!
0z!
0{!
0|!
0}!
0~!
0!"
0""
0#"
0$"
0%"
0&"
0'"
0("
0)"
0*"
0+"
0,"
0-"
0."
0/"
00"
01"
02"
03"
04"
05"
b0000000000000000000000000000000000000000000000000000000000000000 6"
b0000000000000000000000000000000000000000000000000000000000000000 7"
b00000000000000000000000000000000 8"
b00000000000000000000000000000000 9"
b11111111111111111111111111111100 :"
b00000000000000000000000000010001 ;"
b00000000000000000000000000000000 <"
b11111 ="
b11111111110111110000000000000011 >"
b00000000001000000000100000001011 ?"
0@"
0A"
0B"
b00000000000000000000000000000000 C"
b00000000000000000000000000000000 D"
b00000000000000000000000000000000 E"
b00000000000000000000000000000000 F"
b00000000000000000000000000000000 G"
b00000000000000000000000000000000 H"
b00000000000000000000000000000000 I"
b00000000000000000000000000000000 J"
b00000000000000000000000000000000 K"
b00000000000000000000000000000000 L"
b00000000000000000000000000000000 M"
b00000000000000000000000000000000 N"
b00000000000000000000000000000000 O"
b00000000000000000000000000001101 P"
b11111111111110000000000000000000 Q"
b00000000000000000111111111111111 R"
0S"
0T"
1U"
1V"
0W"
0X"
0Y"
1Z"
1["
0\"
0]"
0^"
0_"
0`"
0a"
0b"
0c"
0d"
0e"
0f"
0g"
0h"
0i"
0j"
0k"
0l"
0m"
0n"
0o"
0p"
0q"
0r"
0s"
0t"
0u"
0v"
0w"
0x"
0y"
0z"
0{"
0|"
0}"
0~"
0!#
0"#
1##
0$#
1%#
1&#
1'#
1(#
1)#
1*#
1+#
1,#
1-#
1.#
1/#
10#
11#
12#
13#
14#
15#
16#
17#
18#
19#
1:#
1;#
1<#
1=#
1>#
1?#
1@#
1A#
1B#
1C#
1D#
0E#
b11111111111111111111111111111111 F#
b00000000000000000000000000000000 G#
b00000000000000000000000000000000 H#
0I#
0J#
0K#
0L#
0M#
0N#
0O#
0P#
0Q#
0R#
0S#
0T#
0U#
0V#
0W#
0X#
0Y#
0Z#
0[#
0\#
0]#
0^#
0_#
0`#
0a#
0b#
0c#
0d#
0e#
0f#
0g#
0h#
1i#
0j#
0k#
0l#
b00000000000000000000000000000000 m#
0n#
0o#
b00000010000000000100000000010011 p#
b11111111111111111111111111111100 q#
b00000000000000000000000000010001 r#
0s#
b00000000001000000000100000001011 t#
0u#
0v#
0w#
0x#
0y#
0z#
0{#
0|#
0}#
0~#
0!$
0"$
0#$
0$$
0%$
0&$
0'$
0($
0)$
0*$
0+$
0,$
0-$
0.$
0/$
00$
01$
02$
03$
04$
05$
06$
07$
08$
09$
0:$
0;$
0<$
0=$
b00000000000000000000000000000000 >$
b01000000 ?$
b00 @$
0A$
0B$
0C$
0D$
0E$
0F$
0G$
b00011 H$
b1111 I$
0J$
0K$
b00000000000000000000000000000000 L$
b00000000000000000000000000000000 M$
0N$
1O$
1P$
1Q$
1R$
1S$
0T$
0U$
0V$
0W$
0X$
0Y$
0Z$
0[$
0\$
0]$
0^$
0_$
0`$
0a$
0b$
0c$
0d$
0e$
0f$
0g$
0h$
0i$
0j$
0k$
0l$
0m$
0n$
0o$
0p$
0q$
0r$
0s$
1t$
0u$
0v$
b00000000001000000000100000001011 w$
0x$
b00000000000000000000000000000000 y$
1z$
0{$
b00000000000000000000000000000000 |$
b000 }$
b0001011 ~$
0!%
b00000000001000000000100000001011 "%
0#%
0$%
0%%
0&%
b00000000001000000000100000001011 '%
0(%
1)%
0*%
0+%
b00000000001000000000100000001011 ,%
b00000001 -%
b00000001 .%
0/%
10%
11%
#35
0S
0e
0t$
0z$
0)%
00%
01%
#40
1S
1e
1-!
1G!
1V!
b0000000000000000000000000000000000000000000000000000000000000001 6"
0V"
1n#
b11101 H$
b00000000000000000000000000001101 L$
1t$
1z$
1)%
b00000010 -%
b00000010 .%
10%
11%
#45
0S
0e
0t$
0z$
0)%
00%
01%
#50
1S
1e
b01 (!
b00000010010000111010000000011001 *!
10!
b00000010010000111010000000011001 5!
b00000010010000111010000000011001 6!
b0000000000000000000000000000000000000000000000000000000000000010 6"
1X"
1k#
1l#
b00000010010000111010000000011001 m#
0n#
b00000000000000000000000000001101 M$
1t$
1x$
b00000010010000111010000000011001 y$
1z$
1)%
b00000011 -%
b00000011 .%
10%
11%
#55
0S
0e
0t$
0z$
0)%
00%
01%
#60
1S
1e
b00 (!
b00000000000000000000000000000100 *!
b00000010010000111010000000011001 +!
0-!
00!
12!
b0000001001000011 4!
b00000000000000000000000000000110 7!
b00000 ?!
b00000 @!
b00000 A!
0M!
1Q!
1U!
b0000000000000000000000000000000000000000000000000000000000000011 6"
b00000010010000111010000000011001 >"
0X"
0Z"
0B#
b11111111111111111111111111111011 F#
0k#
b00000000000000000000000000000100 m#
1<$
1t$
b00000000000000000000000000000100 y$
1z$
1)%
b00000100 -%
b00000100 .%
10%
11%
#65
0S
0e
0t$
0z$
0)%
00%
01%
#70
b00000010010000111010000000011001 #
1S
b00000010010000111010000000011001 W
1e
b00000000000000000000000000000000 *!
1-!
13!
b00000000000000000000001001000011 6!
b00000000000000000000000000000110 B!
0G!
0O!
0Q!
1R!
b0000000000000000000000000000000000000000000000000000000000000100 6"
b0000000000000000000000000000000000000000000000000000000000000001 7"
b00000000000000000000000000000110 9"
b00000000000000001010000000011001 ?"
1B"
b00000000000000000000000000000110 C"
0##
0%#
0&#
0'#
0(#
0)#
0*#
0+#
0,#
0-#
0.#
0/#
00#
01#
02#
03#
04#
05#
06#
07#
08#
09#
0:#
0;#
0<#
0=#
0>#
0?#
0@#
0A#
0C#
0D#
1E#
b00000000000000000000000000000010 F#
0l#
b00000000000000000000000000000000 m#
1n#
b00000010010000111010000000011001 p#
1;$
0<$
1=$
1C$
1D$
b00000 H$
b00000000000000000000000000000000 L$
1t$
0x$
b00000000000000000000000000000000 y$
1z$
1)%
b00000101 -%
b00000101 .%
10%
11%
#75
0S
0e
0t$
0z$
0)%
00%
01%
#80
1S
1e
b01 (!
b00100001010000100000000000000000 *!
10!
02!
03!
b00100001010000100000000000000000 5!
b00000000000000000010000101000010 6!
1G!
b00000000000000001010000000011001 P!
0R!
b0000000000000000000000000000000000000000000000000000000000000101 6"
b00000000000000000000000000000110 8"
1@"
1V"
1X"
0E#
b00000000000000000000000000000000 F#
1k#
1l#
b00100001010000100000000000000000 m#
0n#
b00000000000000001010000000011001 t#
0;$
b00000000000000001010000000011001 >$
0C$
b00000000000000000000000000001101 L$
b00000000000000000000000000000000 M$
1t$
b00000000000000001010000000011001 w$
1x$
b00100001010000100000000000000000 y$
1z$
b010 }$
b0011001 ~$
b00000000000000001010000000011001 "%
b00000000000000001010000000011001 '%
1)%
b00000000000000001010000000011001 ,%
b00000110 -%
b00000110 .%
10%
11%
#85
0S
0e
0t$
0z$
0)%
00%
01%
#90
1S
1e
b00 (!
b00000000000000000000000000000000 *!
b00000000000000000010000101000010 +!
0-!
00!
12!
b0010000101000010 4!
b00000000000000000010000101000010 5!
b00000000000000000000010010000000 7!
1>!
1Q!
b0000000000000000000000000000000000000000000000000000000000000110 6"
b00000000000000000010000101000010 >"
0B"
0V"
0X"
0["
0k#
b00000000000000000000000000000000 m#
1<$
b00000000000000000000000000001101 M$
1t$
b00000000000000000000000000000000 y$
1z$
1)%
b00000111 -%
b00000111 .%
10%
11%
#95
0S
0e
0t$
0z$
0)%
00%
01%
