riscv_formal_verification/picorv32/rvfi_valid_sra_new.vcd
$date Mon Feb 25 16:59:41 2019
 $end
$version JasperGold $end
$timescale 1 ns $end
$scope module rvfi_testbench $end
$scope module wrapper $end
$scope module uut $end
$scope module pcpi_div $end
$var wire 1 ! \:X_9 $end
$var wire 1 " \:X_10 $end
$var wire 1 # \:X_11 $end
$var wire 1 $ \:X_12 $end
$var wire 1 % \:X_13 $end
$var wire 1 & \:X_14 $end
$var wire 1 ' \:X_15 $end
$var wire 1 ( \:X_16 $end
$var wire 1 ) \:X_17 $end
$var wire 1 * \:X_18 $end
$var wire 1 + \:X_19 $end
$var wire 1 , \:X_20 $end
$var wire 1 - \:X_21 $end
$var wire 1 . \:X_22 $end
$var wire 1 / \:X_23 $end
$var wire 1 0 \:X_24 $end
$var wire 1 1 \:X_25 $end
$var wire 1 2 \:X_26 $end
$var wire 1 3 \:X_27 $end
$var wire 1 4 \:X_28 $end
$var wire 1 5 \:X_29 $end
$var wire 1 6 \:X_30 $end
$var wire 1 7 \:X_31 $end
$var reg 1 8 instr_remu $end
$var reg 1 9 pcpi_wait_q $end
$var wire 1 : start $end
$var reg 32 ; quotient_msk [31:0] $end
$var reg 1 < running $end
$var wire 1 = \:X_3 $end
$var wire 1 > \:X_4 $end
$var wire 1 ? \:X_0 $end
$var wire 1 @ \:X_1 $end
$var wire 1 A \:X_2 $end
$var wire 1 B \:X_5 $end
$var wire 1 C \:X_6 $end
$var wire 1 D \:X_7 $end
$var wire 1 E \:X_8 $end
$var wire 1 F resetn $end
$var wire 1 G pcpi_valid $end
$var wire 32 H pcpi_insn [31:0] $end
$var wire 32 I pcpi_rs1 [31:0] $end
$var wire 32 J pcpi_rs2 [31:0] $end
$var wire 1 K instr_any_div_rem $end
$var reg 1 L pcpi_wr $end
$var reg 32 M pcpi_rd [31:0] $end
$var reg 1 N pcpi_wait $end
$var reg 1 O pcpi_ready $end
$var reg 1 P instr_div $end
$var reg 1 Q instr_divu $end
$var reg 1 R instr_rem $end
$var wire 1 S clk $end
$upscope $end
$scope module pcpi_mul $end
$var wire 1 T \:X_3556 $end
$var wire 1 U resetn $end
$var wire 1 V pcpi_valid $end
$var wire 32 W pcpi_insn [31:0] $end
$var wire 32 X pcpi_rs1 [31:0] $end
$var wire 32 Y pcpi_rs2 [31:0] $end
$var wire 1 Z instr_any_mul $end
$var wire 1 [ pcpi_wr $end
$var wire 32 \ pcpi_rd [31:0] $end
$var wire 1 ] pcpi_wait $end
$var wire 1 ^ pcpi_ready $end
$var wire 1 _ instr_mul $end
$var wire 1 ` instr_mulh $end
$var wire 1 a instr_mulhsu $end
$var wire 1 b instr_mulhu $end
$var reg 4 c active [3:0] $end
$var wire 1 d pcpi_insn_valid $end
$var wire 1 e clk $end
$upscope $end
$var reg 32 f decoded_imm_uj [31:0] $end
$var reg 1 g decoder_trigger $end
$var reg 1 h decoder_trigger_q $end
$var reg 1 i decoder_pseudo_trigger $end
$var reg 1 j decoder_pseudo_trigger_q $end
$var reg 1 k compressed_instr $end
$var wire 1 l \:X_247 $end
$var wire 1 m \:X_248 $end
$var wire 1 n \:X_249 $end
$var wire 1 o \:X_250 $end
$var wire 1 p \:X_251 $end
$var wire 1 q \:X_252 $end
$var wire 1 r \:X_253 $end
$var wire 1 s \:X_254 $end
$var wire 1 t \:X_255 $end
$var wire 1 u \:X_256 $end
$var reg 1 v instr_blt $end
$var reg 1 w instr_bge $end
$var reg 1 x instr_bltu $end
$var reg 1 y instr_bgeu $end
$var reg 1 z instr_lb $end
$var reg 1 { instr_lh $end
$var reg 1 | instr_lw $end
$var reg 1 } instr_lbu $end
$var reg 1 ~ instr_lhu $end
$var reg 1 !! instr_sb $end
$var reg 1 "! instr_sh $end
$var reg 1 #! instr_sw $end
$var reg 1 $! instr_addi $end
$var reg 1 %! instr_slti $end
$var reg 1 &! instr_sltiu $end
$var reg 1 '! instr_xori $end
$var reg 1 (! instr_ori $end
$var reg 1 )! instr_andi $end
$var reg 1 *! instr_slli $end
$var reg 1 +! instr_srli $end
$var reg 1 ,! instr_srai $end
$var reg 1 -! instr_add $end
$var reg 1 .! instr_sub $end
$var reg 1 /! instr_sll $end
$var reg 1 0! instr_slt $end
$var reg 1 1! instr_sltu $end
$var reg 1 2! instr_xor $end
$var reg 1 3! instr_srl $end
$var wire 1 4! \:X_220 $end
$var wire 1 5! \:X_221 $end
$var wire 1 6! \:X_222 $end
$var wire 1 7! \:X_223 $end
$var wire 1 8! \:X_224 $end
$var wire 1 9! \:X_225 $end
$var wire 1 :! \:X_226 $end
$var wire 1 ;! \:X_227 $end
$var wire 1 <! \:X_228 $end
$var wire 1 =! \:X_229 $end
$var wire 1 >! \:X_230 $end
$var wire 1 ?! \:X_231 $end
$var wire 1 @! \:X_232 $end
$var wire 1 A! \:X_233 $end
$var wire 1 B! \:X_234 $end
$var wire 1 C! \:X_235 $end
$var wire 1 D! \:X_236 $end
$var wire 1 E! \:X_237 $end
$var wire 1 F! \:X_238 $end
$var wire 1 G! \:X_239 $end
$var wire 1 H! \:X_240 $end
$var wire 1 I! \:X_241 $end
$var wire 1 J! \:X_242 $end
$var wire 1 K! \:X_243 $end
$var wire 1 L! \:X_244 $end
$var wire 1 M! \:X_245 $end
$var wire 1 N! \:X_246 $end
$var wire 1 O! mem_ready $end
$var wire 32 P! mem_rdata [31:0] $end
$var wire 1 Q! mem_la_read $end
$var reg 1 R! pcpi_valid $end
$var reg 32 S! pcpi_insn [31:0] $end
$var wire 32 T! pcpi_rs1 [31:0] $end
$var wire 32 U! pcpi_rs2 [31:0] $end
$var reg 1 V! rvfi_valid $end
$var reg 32 W! rvfi_insn [31:0] $end
$var wire 1 X! \:X_373 $end
$var wire 1 Y! \:X_374 $end
$var wire 1 Z! \:X_375 $end
$var wire 1 [! \:X_376 $end
$var wire 1 \! \:X_377 $end
$var wire 1 ]! \:X_378 $end
$var wire 1 ^! \:X_379 $end
$var wire 1 _! \:X_380 $end
$var wire 1 `! \:X_381 $end
$var wire 1 a! \:X_382 $end
$var wire 1 b! \:X_383 $end
$var wire 1 c! \:X_384 $end
$var wire 1 d! \:X_385 $end
$var wire 1 e! \:X_386 $end
$var wire 1 f! \:X_387 $end
$var wire 1 g! \:X_388 $end
$var wire 1 h! \:X_389 $end
$var wire 1 i! \:X_390 $end
$var wire 1 j! \:X_391 $end
$var wire 1 k! \:X_392 $end
$var wire 1 l! \:X_393 $end
$var wire 1 m! \:X_394 $end
$var wire 1 n! \:X_395 $end
$var wire 1 o! \:X_396 $end
$var wire 1 p! \:X_397 $end
$var wire 1 q! \:X_398 $end
$var wire 1 r! \:X_399 $end
$var wire 1 s! \:X_400 $end
$var wire 1 t! \:X_401 $end
$var wire 1 u! \:X_402 $end
$var wire 1 v! \:X_403 $end
$var reg 1 w! latched_is_lu $end
$var reg 1 x! latched_is_lh $end
$var reg 1 y! latched_is_lb $end
$var reg 5 z! latched_rd [4:0] $end
$var reg 4 {! pcpi_timeout_counter [3:0] $end
$var reg 1 |! pcpi_timeout $end
$var reg 1 }! do_waitirq $end
$var wire 32 ~! alu_out [31:0] $end
$var wire 1 !" \:X_129 $end
$var wire 1 "" \:X_130 $end
$var wire 1 #" \:X_131 $end
$var wire 1 $" \:X_132 $end
$var wire 1 %" \:X_133 $end
$var wire 1 &" \:X_134 $end
$var wire 1 '" \:X_135 $end
$var wire 1 (" \:X_136 $end
$var wire 1 )" \:X_137 $end
$var wire 1 *" \:X_138 $end
$var wire 1 +" \:X_139 $end
$var wire 1 ," \:X_140 $end
$var wire 1 -" \:X_141 $end
$var wire 1 ." \:X_404 $end
$var wire 1 /" \:X_405 $end
$var wire 1 0" \:X_406 $end
$var wire 1 1" \:X_407 $end
$var wire 1 2" \:X_408 $end
$var wire 1 3" \:X_409 $end
$var wire 1 4" \:X_410 $end
$var wire 1 5" \:X_411 $end
$var wire 1 6" \:X_412 $end
$var wire 1 7" \:X_413 $end
$var wire 1 8" \:X_414 $end
$var wire 1 9" \:X_415 $end
$var wire 1 :" \:X_416 $end
$var wire 1 ;" \:X_417 $end
$var wire 1 <" \:X_418 $end
$var wire 1 =" \:X_419 $end
$var wire 1 >" \:X_420 $end
$var wire 1 ?" alu_ltu $end
$var wire 1 @" alu_lts $end
$var reg 1 A" clear_prefetched_high_word_q $end
$var wire 1 B" cpuregs_write $end
$var wire 32 C" cpuregs_wrdata [31:0] $end
$var wire 32 D" cpuregs_rs1 [31:0] $end
$var wire 32 E" cpuregs_rs2 [31:0] $end
$var wire 1 F" \:X_32 $end
$var wire 1 G" \:X_33 $end
$var wire 1 H" \:X_34 $end
$var wire 1 I" \:X_35 $end
$var wire 1 J" \:X_36 $end
$var wire 1 K" \:X_37 $end
$var wire 1 L" \:X_38 $end
$var wire 1 M" \:X_39 $end
$var wire 1 N" \:X_40 $end
$var wire 1 O" \:X_41 $end
$var wire 1 P" \:X_42 $end
$var wire 1 Q" \:X_43 $end
$var wire 1 R" \:X_44 $end
$var wire 1 S" \:X_45 $end
$var wire 1 T" \:X_46 $end
$var wire 1 U" \:X_47 $end
$var reg 32 V" \cpuregs[3] [31:0] $end
$var reg 32 W" \cpuregs[4] [31:0] $end
$var reg 32 X" \cpuregs[5] [31:0] $end
$var reg 32 Y" \cpuregs[6] [31:0] $end
$var reg 32 Z" \cpuregs[7] [31:0] $end
$var reg 32 [" \cpuregs[8] [31:0] $end
$var reg 32 \" \cpuregs[9] [31:0] $end
$var reg 32 ]" \cpuregs[10] [31:0] $end
$var reg 32 ^" \cpuregs[11] [31:0] $end
$var reg 32 _" \cpuregs[12] [31:0] $end
$var reg 32 `" \cpuregs[13] [31:0] $end
$var reg 32 a" \cpuregs[14] [31:0] $end
$var reg 32 b" \cpuregs[15] [31:0] $end
$var reg 32 c" \cpuregs[16] [31:0] $end
$var reg 32 d" \cpuregs[17] [31:0] $end
$var reg 32 e" \cpuregs[18] [31:0] $end
$var reg 32 f" \cpuregs[19] [31:0] $end
$var reg 32 g" \cpuregs[20] [31:0] $end
$var reg 32 h" \cpuregs[21] [31:0] $end
$var reg 32 i" \cpuregs[22] [31:0] $end
$var reg 32 j" \cpuregs[23] [31:0] $end
$var reg 32 k" \cpuregs[24] [31:0] $end
$var reg 32 l" \cpuregs[25] [31:0] $end
$var wire 1 m" \:X_64 $end
$var reg 1 n" instr_sra $end
$var reg 1 o" instr_or $end
$var reg 1 p" instr_and $end
$var reg 1 q" instr_rdcycle $end
$var reg 1 r" instr_rdcycleh $end
$var reg 1 s" instr_rdinstr $end
$var reg 1 t" instr_rdinstrh $end
$var reg 1 u" instr_ecall_ebreak $end
$var reg 1 v" instr_getq $end
$var reg 1 w" instr_setq $end
$var reg 1 x" instr_retirq $end
$var reg 1 y" instr_maskirq $end
$var reg 1 z" instr_waitirq $end
$var reg 1 {" instr_timer $end
$var wire 1 |" instr_trap $end
$var reg 5 }" decoded_rd [4:0] $end
$var reg 5 ~" decoded_rs1 [4:0] $end
$var reg 5 !# decoded_rs2 [4:0] $end
$var reg 32 "# decoded_imm [31:0] $end
$var reg 1 ## is_lui_auipc_jal $end
$var reg 1 $# is_lb_lh_lw_lbu_lhu $end
$var reg 1 %# is_slli_srli_srai $end
$var reg 1 &# is_jalr_addi_slti_sltiu_xori_ori_andi $end
$var reg 1 '# is_sb_sh_sw $end
$var reg 1 (# is_lui_auipc_jal_jalr_addi_add_sub $end
$var reg 1 )# is_slti_blt_slt $end
$var reg 1 *# is_sltiu_bltu_sltu $end
$var reg 32 +# q_insn_opcode [31:0] $end
$var reg 1 ,# dbg_next $end
$var wire 1 -# launch_next_insn $end
$var reg 1 .# dbg_valid_insn $end
$var reg 32 /# cached_insn_opcode [31:0] $end
$var reg 8 0# cpu_state [7:0] $end
$var reg 2 1# irq_state [1:0] $end
$var reg 1 2# latched_store $end
$var reg 1 3# latched_stalu $end
$var reg 1 4# latched_branch $end
$var reg 1 5# latched_compr $end
$var reg 32 6# reg_op2 [31:0] $end
$var reg 32 7# reg_out [31:0] $end
$var reg 5 8# reg_sh [4:0] $end
$var reg 32 9# next_insn_opcode [31:0] $end
$var wire 32 :# dbg_insn_opcode [31:0] $end
$var reg 1 ;# mem_la_firstword_reg $end
$var reg 1 <# last_mem_valid $end
$var wire 1 =# mem_la_firstword $end
$var wire 32 ># next_pc [31:0] $end
$var reg 32 ?# \cpuregs[0] [31:0] $end
$var reg 32 @# \cpuregs[1] [31:0] $end
$var reg 32 A# \cpuregs[2] [31:0] $end
$var wire 1 B# \:X_491 $end
$var wire 1 C# \:X_490 $end
$var wire 1 D# \:X_489 $end
$var wire 1 E# \:X_488 $end
$var wire 1 F# \:X_487 $end
$var wire 1 G# \:X_486 $end
$var wire 1 H# \:X_485 $end
$var wire 1 I# \:X_484 $end
$var wire 1 J# \:X_483 $end
$var wire 1 K# \:X_482 $end
$var wire 1 L# \:X_481 $end
$var wire 1 M# \:X_480 $end
$var wire 1 N# \:X_479 $end
$var wire 1 O# \:X_478 $end
$var wire 1 P# \:X_477 $end
$var wire 1 Q# \:X_476 $end
$var wire 1 R# \:X_475 $end
$var wire 1 S# \:X_474 $end
$var wire 1 T# \:X_473 $end
$var wire 1 U# \:X_472 $end
$var wire 1 V# \:X_471 $end
$var wire 1 W# \:X_470 $end
$var wire 1 X# \:X_469 $end
$var wire 1 Y# \:X_468 $end
$var wire 1 Z# \:X_467 $end
$var wire 1 [# \:X_466 $end
$var wire 1 \# \:X_465 $end
$var wire 1 ]# \:X_464 $end
$var wire 1 ^# \:X_463 $end
$var wire 1 _# \:X_462 $end
$var wire 1 `# \:X_461 $end
$var reg 1 a# mem_do_rdata $end
$var reg 1 b# mem_do_wdata $end
$var wire 1 c# mem_xfer $end
$var reg 1 d# mem_la_secondword $end
$var reg 32 e# alu_out_q [31:0] $end
$var wire 1 f# alu_out_0 $end
$var wire 32 g# alu_add_sub [31:0] $end
$var wire 32 h# alu_shl [31:0] $end
$var wire 32 i# alu_shr [31:0] $end
$var wire 1 j# alu_eq $end
$var reg 1 k# prefetched_high_word $end
$var wire 1 l# clear_prefetched_high_word $end
$var reg 16 m# mem_16bit_buffer [15:0] $end
$var wire 32 n# mem_rdata_latched_noshuffle [31:0] $end
$var wire 32 o# mem_rdata_latched [31:0] $end
$var wire 1 p# mem_la_use_prefetched_high_word $end
$var wire 1 q# mem_done $end
$var reg 1 r# instr_lui $end
$var reg 1 s# instr_auipc $end
$var reg 1 t# instr_jal $end
$var reg 1 u# instr_jalr $end
$var reg 1 v# instr_beq $end
$var reg 1 w# instr_bne $end
$var wire 1 x# \:X_142 $end
$var wire 1 y# \:X_143 $end
$var wire 1 z# \:X_144 $end
$var wire 1 {# \:X_145 $end
$var wire 1 |# \:X_146 $end
$var wire 1 }# \:X_147 $end
$var wire 1 ~# \:X_148 $end
$var wire 1 !$ \:X_149 $end
$var wire 1 "$ \:X_150 $end
$var wire 1 #$ \:X_151 $end
$var wire 1 $$ \:X_152 $end
$var wire 1 %$ \:X_153 $end
$var wire 1 &$ \:X_154 $end
$var wire 1 '$ \:X_155 $end
$var wire 1 ($ \:X_156 $end
$var wire 1 )$ \:X_157 $end
$var wire 1 *$ \:X_158 $end
$var wire 1 +$ \:X_159 $end
$var wire 1 ,$ \:X_160 $end
$var wire 1 -$ \:X_492 $end
$var reg 32 .$ \cpuregs[26] [31:0] $end
$var reg 32 /$ \cpuregs[27] [31:0] $end
$var reg 32 0$ \cpuregs[28] [31:0] $end
$var reg 32 1$ \cpuregs[29] [31:0] $end
$var reg 32 2$ \cpuregs[30] [31:0] $end
$var reg 32 3$ \cpuregs[31] [31:0] $end
$var wire 1 4$ pcpi_mul_wr $end
$var wire 32 5$ pcpi_mul_rd [31:0] $end
$var wire 1 6$ pcpi_mul_wait $end
$var wire 1 7$ pcpi_mul_ready $end
$var wire 1 8$ pcpi_div_wr $end
$var wire 32 9$ pcpi_div_rd [31:0] $end
$var wire 1 :$ pcpi_div_wait $end
$var wire 1 ;$ pcpi_div_ready $end
$var wire 1 <$ pcpi_int_wr $end
$var wire 32 =$ pcpi_int_rd [31:0] $end
$var wire 1 >$ pcpi_int_wait $end
$var wire 1 ?$ pcpi_int_ready $end
$var reg 2 @$ mem_state [1:0] $end
$var reg 2 A$ mem_wordsize [1:0] $end
$var wire 32 B$ mem_rdata_word [31:0] $end
$var reg 32 C$ mem_rdata_q [31:0] $end
$var reg 1 D$ mem_do_prefetch $end
$var reg 1 E$ mem_do_rinst $end
$var wire 1 F$ \:X_357 $end
$var wire 1 G$ \:X_358 $end
$var wire 1 H$ \:X_359 $end
$var wire 1 I$ \:X_360 $end
$var wire 1 J$ \:X_361 $end
$var wire 1 K$ \:X_362 $end
$var wire 1 L$ \:X_363 $end
$var wire 1 M$ \:X_364 $end
$var wire 1 N$ \:X_365 $end
$var wire 1 O$ \:X_366 $end
$var wire 1 P$ \:X_367 $end
$var wire 1 Q$ \:X_368 $end
$var wire 1 R$ \:X_369 $end
$var wire 1 S$ \:X_370 $end
$var wire 1 T$ \:X_371 $end
$var wire 1 U$ \:X_372 $end
$var reg 64 V$ count_cycle [63:0] $end
$var reg 64 W$ count_instr [63:0] $end
$var reg 32 X$ reg_pc [31:0] $end
$var reg 32 Y$ reg_next_pc [31:0] $end
$var reg 32 Z$ reg_op1 [31:0] $end
$var wire 1 [$ resetn $end
$var reg 1 \$ trap $end
$var reg 1 ]$ mem_valid $end
$var wire 1 ^$ \:X_48 $end
$var wire 1 _$ \:X_49 $end
$var wire 1 `$ \:X_50 $end
$var wire 1 a$ \:X_51 $end
$var wire 1 b$ \:X_52 $end
$var wire 1 c$ \:X_53 $end
$var wire 1 d$ \:X_54 $end
$var wire 1 e$ \:X_55 $end
$var wire 1 f$ \:X_56 $end
$var wire 1 g$ \:X_57 $end
$var wire 1 h$ \:X_58 $end
$var wire 1 i$ \:X_59 $end
$var wire 1 j$ \:X_60 $end
$var wire 1 k$ \:X_61 $end
$var wire 1 l$ \:X_62 $end
$var wire 1 m$ \:X_63 $end
$var reg 1 n$ is_beq_bne_blt_bge_bltu_bgeu $end
$var reg 1 o$ is_lbu_lhu_lw $end
$var reg 1 p$ is_alu_reg_imm $end
$var reg 1 q$ is_alu_reg_reg $end
$var reg 1 r$ is_compare $end
$var wire 1 s$ is_rdcycle_rdcycleh_rdinstr_rdinstrh $end
$var wire 1 t$ clk $end
$upscope $end
$var wire 1 u$ mem_ready $end
$var wire 32 v$ mem_rdata [31:0] $end
$var wire 32 w$ rvfi_insn [31:0] $end
$var wire 1 x$ rvfi_valid $end
$var wire 1 y$ reset $end
$var wire 1 z$ clock $end
$upscope $end
$scope module checker_inst $end
$scope module insn_spec $end
$var wire 1 {$ rvfi_valid $end
$var wire 32 |$ rvfi_insn [31:0] $end
$var wire 1 }$ spec_valid $end
$var wire 32 ~$ insn_padding [31:0] $end
$var wire 7 !% insn_funct7 [6:0] $end
$var wire 3 "% insn_funct3 [2:0] $end
$var wire 7 #% insn_opcode [6:0] $end
$upscope $end
$var wire 1 $% rvfi_valid $end
$var wire 32 %% rvfi_insn [31:0] $end
$var wire 1 &% reset $end
$var wire 1 '% check $end
$var wire 1 (% spec_valid $end
$var wire 1 )% valid $end
$var wire 1 *% clock $end
$upscope $end
$var reg 8 +% cycle_reg [7:0] $end
$var wire 8 ,% cycle [7:0] $end
$var wire 1 -% \:jasper_formal_reset $end
$var wire 32 .% rvfi_insn [31:0] $end
$var wire 1 /% reset $end
$var wire 1 0% rvfi_valid $end
$var wire 1 1% \:jasper_formal_clock $end
$var wire 1 2% clock $end
$upscope $end
$enddefinitions $end
#0
12%
1/%
b00000000 ,%
#5
02%
#10
12%
b00000001 +%
#15
02%
#20
12%
#25
02%
#30
0!
0"
0#
0$
0%
0&
0'
0(
0)
0*
0+
0,
0-
0.
0/
00
01
02
03
04
05
06
07
08
09
0:
b00000000000000000000000000000000 ;
0<
0=
0>
0?
0@
0A
0B
0C
0D
0E
1F
0G
b00000010000000000100000000110011 H
b11111111111111111111111111111110 I
b00000000000000000000000000000011 J
0K
0L
b00000000000000000000000000000000 M
0N
0O
0P
0Q
0R
1S
0T
1U
0V
b00000010000000000100000000110011 W
b11111111111111111111111111111110 X
b00000000000000000000000000000011 Y
0Z
0[
b00000000000000000000000000000000 \
0]
0^
0_
0`
0a
0b
b0000 c
0d
1e
b00000000000000000000000000000000 f
0g
0h
0i
0j
1k
0l
0m
0n
0o
0p
0q
0r
0s
0t
0u
0v
0w
0x
0y
0z
0{
0|
0}
0~
0!!
0"!
0#!
0$!
0%!
0&!
0'!
0(!
0)!
1*!
0+!
1,!
0-!
0.!
0/!
00!
01!
02!
03!
14!
15!
16!
17!
18!
09!
1:!
0;!
0<!
0=!
0>!
0?!
0@!
0A!
0B!
0C!
0D!
0E!
0F!
0G!
0H!
0I!
0J!
0K!
0L!
1M!
0N!
0O!
b00000000000000000000010000000000 P!
0Q!
0R!
b00000010000000000100000000110011 S!
b11111111111111111111111111111110 T!
b00000000000000000000000000000011 U!
0V!
b00000100000011010001000010000000 W!
0X!
0Y!
0Z!
0[!
0\!
0]!
0^!
0_!
0`!
0a!
0b!
0c!
0d!
0e!
0f!
0g!
0h!
0i!
0j!
0k!
0l!
0m!
0n!
0o!
0p!
0q!
0r!
0s!
0t!
0u!
0v!
0w!
0x!
0y!
b00001 z!
b1111 {!
0|!
0}!
b11111111111111111111111111111111 ~!
1!"
1""
1#"
1$"
1%"
1&"
1'"
1("
1)"
1*"
1+"
1,"
1-"
0."
0/"
00"
01"
12"
03"
04"
05"
06"
07"
08"
09"
0:"
0;"
0<"
0="
1>"
0?"
1@"
1A"
0B"
b11111111111111111111111111111111 C"
b00000000000000000000000000000000 D"
b01000000000000000000000000000000 E"
0F"
0G"
0H"
0I"
0J"
0K"
0L"
0M"
0N"
0O"
0P"
0Q"
0R"
0S"
0T"
0U"
b00000000000000000000000000000000 V"
b00000000000000000000000000000000 W"
b00000000000000000000000000000000 X"
b00000000000000000000000000000000 Y"
b00000000000000000000000000000000 Z"
b00000000000000000000000000000000 ["
b00000000000000000000000000000000 \"
b00000000000000000000000000000000 ]"
b00000000000000000000000000000000 ^"
b00000000000000000000000000000000 _"
b00000000000000000000000000000000 `"
b00000000000000000000000000000000 a"
b00000000000000000000000000000000 b"
b00000000000000000000000000000000 c"
b01000000000000000000000000000000 d"
b00000000000000000000000000000000 e"
b00000000000000000000000000000000 f"
b00000000000000000000000000000000 g"
b00000000000000000000000000000000 h"
b00000000000000000000000000000000 i"
b00000000000000000000000000000000 j"
b00000000000000000000000000000000 k"
b00000000000000000000000000000000 l"
0m"
0n"
0o"
0p"
0q"
0r"
0s"
1t"
0u"
0v"
0w"
0x"
0y"
0z"
0{"
0|"
b11111 }"
b11010 ~"
b10001 !#
b00000000000000000001000000000001 "#
1##
0$#
0%#
0&#
0'#
1(#
0)#
0*#
b00000100000011010001000010000000 +#
0,#
0-#
0.#
b00000000000000000000000000000000 /#
b01000000 0#
b00 1#
02#
03#
04#
05#
b00000000000000000000000000000011 6#
b00000000000000000000000000000000 7#
b11111 8#
b11111111111111110000000000000011 9#
b00000100000011010001000010000000 :#
0;#
0<#
0=#
b00000000000000000000000000000000 >#
b00000000000000000000000000000000 ?#
b00000000000000000000000000000000 @#
b00000000000000000000000000000000 A#
0B#
0C#
0D#
0E#
0F#
0G#
0H#
0I#
0J#
0K#
0L#
0M#
0N#
0O#
0P#
0Q#
0R#
0S#
0T#
0U#
0V#
0W#
0X#
0Y#
0Z#
0[#
0\#
0]#
0^#
0_#
0`#
0a#
0b#
0c#
0d#
b00000000000000000000000000000000 e#
0f#
b00000000000000000000000000000001 g#
b11111111111111111111111111110000 h#
b11111111111111111111111111111111 i#
0j#
0k#
0l#
b0000000000000000 m#
b00000100000000001000101000000111 n#
b00000100000000001000101000000111 o#
0p#
0q#
0r#
0s#
1t#
0u#
0v#
0w#
1x#
1y#
1z#
1{#
1|#
1}#
1~#
1!$
1"$
1#$
1$$
1%$
1&$
1'$
1($
1)$
1*$
1+$
1,$
0-$
b00000000000000000000000000000000 .$
b00000000000000000000000000000000 /$
b00000000000000000000000000000000 0$
b00000000000000000000000000000000 1$
b00000000000000000000000000000000 2$
b00000000000000000000000000000000 3$
04$
b00000000000000000000000000000000 5$
06$
07$
08$
b00000000000000000000000000000000 9$
0:$
0;$
0<$
b00000000000000000000000000000000 =$
0>$
0?$
b00 @$
b00 A$
b00000000000000000000010000000000 B$
b00000100000000001000101000000111 C$
0D$
0E$
0F$
0G$
0H$
0I$
0J$
0K$
1L$
0M$
0N$
0O$
0P$
0Q$
0R$
0S$
0T$
0U$
b0000000000000000000000000000000000000000000000000000000000000000 V$
b0000000000000000000000000000000000000000000000000000000000000000 W$
b00000000000000000000000000000000 X$
b00000000000000000000000000000000 Y$
b11111111111111111111111111111110 Z$
1[$
0\$
0]$
0^$
0_$
0`$
0a$
0b$
0c$
0d$
0e$
0f$
0g$
0h$
0i$
0j$
0k$
0l$
0m$
0n$
0o$
0p$
1q$
0r$
1s$
1t$
0u$
b00000000000000000000010000000000 v$
b00000100000011010001000010000000 w$
0x$
0y$
1z$
0{$
b00000100000011010001000010000000 |$
0}$
b00000000000000000000000000000000 ~$
b0000010 !%
b001 "%
b0000000 #%
0$%
b00000100000011010001000010000000 %%
0&%
0'%
0(%
0)%
1*%
b00000001 +%
b00000001 ,%
0-%
b00000100000011010001000010000000 .%
0/%
00%
11%
12%
#35
0S
0e
0t$
0z$
0*%
01%
02%
#40
1S
1e
0:!
0M!
b00000000000000000000000000000011 P!
1Q!
b11111 z!
0A"
15#
b01000000000000000000100000000000 7#
b11111111111111111111111111111111 e#
b00000000000000000000000000000011 B$
1E$
0L$
b0000000000000000000000000000000000000000000000000000000000000001 V$
1t$
b00000000000000000000000000000011 v$
1z$
1*%
b00000010 +%
b00000010 ,%
11%
12%
#45
0S
0e
0t$
0z$
0*%
01%
02%
#50
1S
1e
1O!
b00000010010000111010000000001001 P!
0Q!
0!"
b01111111111111111111111111111111 C"
b00000000000000000000000000000000 7#
1c#
b00000010010000111010000000001001 n#
b00000010010000111010000000001001 o#
1q#
b01 @$
b00000010010000111010000000001001 B$
b0000000000000000000000000000000000000000000000000000000000000010 V$
1]$
1t$
1u$
b00000010010000111010000000001001 v$
1z$
1*%
b00000011 +%
b00000011 ,%
11%
12%
#55
0S
0e
0t$
0z$
0*%
01%
02%
#60
1S
1e
b00000000000000000000000000000010 f
1g
1;!
b00000000000000000000000000000000 P!
1!"
0>"
b11111111111111111111111111111111 C"
b00000000000000000000000000000000 E"
b00000 }"
b00000 ~"
b00000 !#
1-#
b00000010010000111010000000001001 9#
0c#
1k#
b0000001001000011 m#
0q#
b00 @$
b00000000000000000000000000000000 B$
b00000010010000111010000000001001 C$
0E$
b0000000000000000000000000000000000000000000000000000000000000011 V$
0]$
0q$
1t$
b00000000000000000000000000000000 v$
1z$
1*%
b00000100 +%
b00000100 ,%
11%
12%
#65
0S
0e
0t$
0z$
0*%
01%
02%
#70
b00000010010000111010000000001001 H
1S
b00000010010000111010000000001001 W
1e
0g
1h
0*!
0,!
0;!
0O!
1Q!
b00000010010000111010000000001001 S!
b00000 z!
b00000000000000000000000000000000 ~!
0!"
0""
0#"
0$"
0%"
0&"
0'"
0("
0)"
0*"
0+"
0,"
0-"
02"
1B"
b00000000000000000000000000000010 C"
0t"
b00000000000000000000000000000010 "#
0(#
1,#
0-#
1.#
14#
b00100000000000000000000000000000 7#
b00000000000000001010000000001001 :#
1=#
b00000000000000000000000000000010 >#
b00011111111111111111111111111111 i#
1l#
b00000000000000000000001001000011 o#
0x#
0y#
0z#
0{#
0|#
0}#
0~#
0!$
0"$
0#$
0$$
0%$
0&$
0'$
0($
0)$
0*$
0+$
0,$
1E$
b0000000000000000000000000000000000000000000000000000000000000100 V$
b0000000000000000000000000000000000000000000000000000000000000001 W$
b00000000000000000000000000000010 Y$
0s$
1t$
0u$
1z$
1*%
b00000101 +%
b00000101 ,%
11%
12%
#75
0S
0e
0t$
0z$
0*%
01%
02%
#80
1S
1e
0h
1O!
b00110001000000000000000000000011 P!
0Q!
b00000000000000001010000000001001 W!
b00000000000000000000000000000001 ~!
1A"
0B"
b00000000000000000000000000000000 C"
1(#
b00000000000000001010000000001001 +#
0,#
b00000000000000001010000000001001 /#
04#
b00000000000000000000000000000000 7#
1;#
1c#
b00000000000000000000000000000000 e#
0k#
0l#
b00110001000000000000000000000011 n#
b00000000000000000011000100000000 o#
1q#
b01 @$
b00110001000000000000000000000011 B$
b0000000000000000000000000000000000000000000000000000000000000101 V$
b00000000000000000000000000000010 X$
1]$
1t$
1u$
b00110001000000000000000000000011 v$
b00000000000000001010000000001001 w$
1z$
b00000000000000001010000000001001 |$
b0000000 !%
b010 "%
b0001001 #%
b00000000000000001010000000001001 %%
1*%
b00000110 +%
b00000110 ,%
b00000000000000001010000000001001 .%
11%
12%
#85
0S
0e
0t$
0z$
0*%
01%
02%
#90
1S
1e
b11111111111111111111110000000000 f
1g
b00000000000000000000000000000000 P!
0A"
1|"
1-#
b00000000000000000011000100000000 9#
0=#
0c#
b00000000000000000000000000000001 e#
b00000000000000000011000100000000 n#
0q#
0t#
b00 @$
b00000000000000000000000000000000 B$
b00000000000000000011000100000000 C$
0E$
b0000000000000000000000000000000000000000000000000000000000000110 V$
0]$
1t$
b00000000000000000000000000000000 v$
1z$
1*%
b00000111 +%
b00000111 ,%
11%
12%
#95
0S
0e
0t$
0z$
0*%
01%
02%
