riscv_formal_verification/picorv32/rvfi_valid_lbu.vcd
$date Mon Feb 25 14:21:09 2019
 $end
$version JasperGold $end
$timescale 1 ns $end
$scope module rvfi_testbench $end
$scope module wrapper $end
$scope module uut $end
$scope module pcpi_div $end
$var wire 1 ! resetn $end
$var wire 1 " pcpi_valid $end
$var wire 32 # pcpi_insn [31:0] $end
$var wire 32 $ pcpi_rs1 [31:0] $end
$var wire 32 % pcpi_rs2 [31:0] $end
$var wire 1 & instr_any_div_rem $end
$var reg 1 ' pcpi_wr $end
$var reg 32 ( pcpi_rd [31:0] $end
$var reg 1 ) pcpi_wait $end
$var reg 1 * pcpi_ready $end
$var reg 1 + instr_div $end
$var reg 1 , instr_divu $end
$var reg 1 - instr_rem $end
$var reg 1 . instr_remu $end
$var reg 1 / pcpi_wait_q $end
$var wire 1 0 start $end
$var reg 32 1 quotient_msk [31:0] $end
$var reg 1 2 running $end
$var wire 1 3 \:X_3 $end
$var wire 1 4 \:X_4 $end
$var wire 1 5 \:X_0 $end
$var wire 1 6 \:X_1 $end
$var wire 1 7 \:X_2 $end
$var wire 1 8 \:X_5 $end
$var wire 1 9 \:X_6 $end
$var wire 1 : \:X_7 $end
$var wire 1 ; \:X_8 $end
$var wire 1 < \:X_9 $end
$var wire 1 = \:X_10 $end
$var wire 1 > \:X_11 $end
$var wire 1 ? \:X_12 $end
$var wire 1 @ \:X_13 $end
$var wire 1 A \:X_14 $end
$var wire 1 B \:X_15 $end
$var wire 1 C \:X_16 $end
$var wire 1 D \:X_17 $end
$var wire 1 E \:X_18 $end
$var wire 1 F \:X_19 $end
$var wire 1 G \:X_20 $end
$var wire 1 H \:X_21 $end
$var wire 1 I \:X_22 $end
$var wire 1 J \:X_23 $end
$var wire 1 K \:X_24 $end
$var wire 1 L \:X_25 $end
$var wire 1 M \:X_26 $end
$var wire 1 N \:X_27 $end
$var wire 1 O \:X_28 $end
$var wire 1 P \:X_29 $end
$var wire 1 Q \:X_30 $end
$var wire 1 R \:X_31 $end
$var wire 1 S clk $end
$upscope $end
$scope module pcpi_mul $end
$var wire 1 T \:X_3556 $end
$var wire 1 U resetn $end
$var wire 1 V pcpi_valid $end
$var wire 32 W pcpi_insn [31:0] $end
$var wire 32 X pcpi_rs1 [31:0] $end
$var wire 32 Y pcpi_rs2 [31:0] $end
$var wire 1 Z instr_any_mul $end
$var wire 1 [ pcpi_wr $end
$var wire 32 \ pcpi_rd [31:0] $end
$var wire 1 ] pcpi_wait $end
$var wire 1 ^ pcpi_ready $end
$var wire 1 _ instr_mul $end
$var wire 1 ` instr_mulh $end
$var wire 1 a instr_mulhsu $end
$var wire 1 b instr_mulhu $end
$var reg 4 c active [3:0] $end
$var wire 1 d pcpi_insn_valid $end
$var wire 1 e clk $end
$upscope $end
$var reg 1 f pcpi_valid $end
$var reg 32 g pcpi_insn [31:0] $end
$var wire 32 h pcpi_rs1 [31:0] $end
$var wire 32 i pcpi_rs2 [31:0] $end
$var reg 1 j rvfi_valid $end
$var reg 32 k rvfi_insn [31:0] $end
$var reg 64 l count_cycle [63:0] $end
$var reg 64 m count_instr [63:0] $end
$var reg 32 n reg_pc [31:0] $end
$var reg 32 o reg_next_pc [31:0] $end
$var wire 1 p \:X_357 $end
$var wire 1 q \:X_358 $end
$var wire 1 r \:X_359 $end
$var wire 1 s \:X_360 $end
$var wire 1 t \:X_361 $end
$var wire 1 u \:X_362 $end
$var wire 1 v \:X_363 $end
$var wire 1 w \:X_364 $end
$var wire 1 x \:X_365 $end
$var wire 1 y \:X_366 $end
$var wire 1 z \:X_367 $end
$var wire 1 { \:X_368 $end
$var wire 1 | \:X_369 $end
$var wire 1 } \:X_370 $end
$var wire 1 ~ \:X_371 $end
$var wire 1 !! \:X_372 $end
$var wire 1 "! \:X_373 $end
$var wire 1 #! \:X_374 $end
$var wire 1 $! \:X_375 $end
$var wire 1 %! \:X_376 $end
$var wire 1 &! \:X_377 $end
$var wire 1 '! \:X_378 $end
$var wire 1 (! \:X_379 $end
$var wire 1 )! \:X_380 $end
$var wire 1 *! \:X_381 $end
$var wire 1 +! \:X_382 $end
$var wire 1 ,! \:X_383 $end
$var wire 1 -! \:X_384 $end
$var wire 1 .! \:X_385 $end
$var wire 1 /! \:X_386 $end
$var wire 1 0! \:X_387 $end
$var wire 1 1! \:X_388 $end
$var wire 1 2! \:X_389 $end
$var wire 1 3! \:X_390 $end
$var wire 1 4! \:X_391 $end
$var wire 1 5! \:X_392 $end
$var wire 1 6! \:X_393 $end
$var wire 1 7! \:X_394 $end
$var wire 1 8! \:X_395 $end
$var wire 1 9! \:X_396 $end
$var wire 1 :! \:X_397 $end
$var wire 1 ;! \:X_398 $end
$var wire 1 <! \:X_399 $end
$var wire 1 =! \:X_400 $end
$var wire 1 >! \:X_401 $end
$var wire 1 ?! \:X_402 $end
$var wire 1 @! \:X_403 $end
$var wire 1 A! \:X_404 $end
$var wire 1 B! \:X_405 $end
$var wire 1 C! \:X_406 $end
$var wire 1 D! \:X_407 $end
$var wire 1 E! \:X_408 $end
$var reg 32 F! \cpuregs[18] [31:0] $end
$var reg 32 G! \cpuregs[19] [31:0] $end
$var reg 32 H! \cpuregs[20] [31:0] $end
$var reg 32 I! \cpuregs[21] [31:0] $end
$var reg 32 J! \cpuregs[22] [31:0] $end
$var reg 32 K! \cpuregs[23] [31:0] $end
$var reg 32 L! \cpuregs[24] [31:0] $end
$var reg 32 M! \cpuregs[25] [31:0] $end
$var reg 32 N! \cpuregs[26] [31:0] $end
$var reg 32 O! \cpuregs[27] [31:0] $end
$var reg 32 P! \cpuregs[28] [31:0] $end
$var reg 32 Q! \cpuregs[29] [31:0] $end
$var reg 32 R! \cpuregs[30] [31:0] $end
$var reg 32 S! \cpuregs[31] [31:0] $end
$var wire 1 T! pcpi_mul_wr $end
$var wire 32 U! pcpi_mul_rd [31:0] $end
$var wire 1 V! pcpi_mul_wait $end
$var wire 1 W! pcpi_mul_ready $end
$var wire 1 X! pcpi_div_wr $end
$var wire 32 Y! pcpi_div_rd [31:0] $end
$var wire 1 Z! pcpi_div_wait $end
$var wire 1 [! pcpi_div_ready $end
$var wire 1 \! pcpi_int_wr $end
$var wire 32 ]! pcpi_int_rd [31:0] $end
$var wire 1 ^! pcpi_int_wait $end
$var wire 1 _! pcpi_int_ready $end
$var reg 2 `! mem_state [1:0] $end
$var reg 2 a! mem_wordsize [1:0] $end
$var wire 32 b! mem_rdata_word [31:0] $end
$var reg 32 c! mem_rdata_q [31:0] $end
$var reg 1 d! mem_do_prefetch $end
$var reg 1 e! mem_do_rinst $end
$var reg 1 f! mem_do_rdata $end
$var reg 1 g! mem_do_wdata $end
$var wire 1 h! mem_xfer $end
$var reg 1 i! mem_la_secondword $end
$var reg 1 j! prefetched_high_word $end
$var wire 1 k! clear_prefetched_high_word $end
$var reg 16 l! mem_16bit_buffer [15:0] $end
$var wire 32 m! mem_rdata_latched_noshuffle [31:0] $end
$var wire 32 n! mem_rdata_latched [31:0] $end
$var reg 32 o! q_insn_opcode [31:0] $end
$var reg 1 p! dbg_next $end
$var wire 1 q! launch_next_insn $end
$var reg 1 r! dbg_valid_insn $end
$var reg 32 s! cached_insn_opcode [31:0] $end
$var reg 8 t! cpu_state [7:0] $end
$var reg 2 u! irq_state [1:0] $end
$var reg 1 v! latched_store $end
$var reg 1 w! latched_stalu $end
$var reg 1 x! latched_branch $end
$var reg 1 y! latched_compr $end
$var reg 1 z! latched_is_lu $end
$var reg 1 {! latched_is_lh $end
$var reg 1 |! latched_is_lb $end
$var reg 5 }! latched_rd [4:0] $end
$var reg 4 ~! pcpi_timeout_counter [3:0] $end
$var reg 1 !" pcpi_timeout $end
$var wire 1 "" \:X_129 $end
$var wire 1 #" \:X_130 $end
$var wire 1 $" \:X_131 $end
$var wire 1 %" \:X_132 $end
$var wire 1 &" \:X_133 $end
$var wire 1 '" \:X_134 $end
$var wire 1 (" \:X_135 $end
$var wire 1 )" \:X_136 $end
$var wire 1 *" \:X_137 $end
$var wire 1 +" \:X_138 $end
$var wire 1 ," \:X_139 $end
$var wire 1 -" \:X_140 $end
$var wire 1 ." \:X_141 $end
$var wire 1 /" \:X_142 $end
$var wire 1 0" \:X_143 $end
$var wire 1 1" \:X_144 $end
$var wire 1 2" \:X_145 $end
$var wire 1 3" \:X_146 $end
$var wire 1 4" \:X_147 $end
$var wire 1 5" \:X_148 $end
$var wire 1 6" \:X_149 $end
$var wire 1 7" \:X_150 $end
$var wire 1 8" \:X_151 $end
$var wire 1 9" \:X_152 $end
$var wire 1 :" \:X_153 $end
$var wire 1 ;" \:X_154 $end
$var wire 1 <" \:X_155 $end
$var wire 1 =" \:X_156 $end
$var wire 1 >" \:X_157 $end
$var wire 1 ?" \:X_158 $end
$var wire 1 @" \:X_159 $end
$var wire 1 A" \:X_160 $end
$var wire 1 B" \:X_492 $end
$var wire 1 C" \:X_491 $end
$var wire 1 D" \:X_490 $end
$var wire 1 E" \:X_489 $end
$var wire 1 F" \:X_488 $end
$var wire 1 G" \:X_487 $end
$var wire 1 H" \:X_486 $end
$var wire 1 I" \:X_485 $end
$var wire 1 J" \:X_484 $end
$var wire 1 K" \:X_483 $end
$var wire 1 L" \:X_482 $end
$var wire 1 M" \:X_481 $end
$var wire 1 N" \:X_480 $end
$var wire 1 O" \:X_479 $end
$var wire 1 P" \:X_478 $end
$var wire 1 Q" \:X_477 $end
$var wire 1 R" \:X_476 $end
$var wire 1 S" \:X_475 $end
$var wire 1 T" \:X_474 $end
$var wire 1 U" \:X_473 $end
$var wire 1 V" \:X_472 $end
$var wire 1 W" \:X_471 $end
$var wire 1 X" \:X_470 $end
$var wire 1 Y" \:X_469 $end
$var wire 1 Z" \:X_468 $end
$var wire 1 [" \:X_467 $end
$var wire 1 \" \:X_466 $end
$var wire 1 ]" \:X_465 $end
$var wire 1 ^" \:X_464 $end
$var reg 32 _" reg_op1 [31:0] $end
$var reg 32 `" reg_op2 [31:0] $end
$var reg 32 a" reg_out [31:0] $end
$var reg 5 b" reg_sh [4:0] $end
$var reg 32 c" next_insn_opcode [31:0] $end
$var wire 32 d" dbg_insn_opcode [31:0] $end
$var reg 1 e" mem_la_firstword_reg $end
$var reg 1 f" last_mem_valid $end
$var wire 1 g" mem_la_firstword $end
$var wire 32 h" next_pc [31:0] $end
$var reg 32 i" \cpuregs[0] [31:0] $end
$var reg 32 j" \cpuregs[1] [31:0] $end
$var reg 32 k" \cpuregs[2] [31:0] $end
$var reg 32 l" \cpuregs[3] [31:0] $end
$var reg 32 m" \cpuregs[4] [31:0] $end
$var reg 32 n" \cpuregs[5] [31:0] $end
$var reg 32 o" \cpuregs[6] [31:0] $end
$var reg 32 p" \cpuregs[7] [31:0] $end
$var reg 32 q" \cpuregs[8] [31:0] $end
$var reg 32 r" \cpuregs[9] [31:0] $end
$var reg 32 s" \cpuregs[10] [31:0] $end
$var reg 32 t" \cpuregs[11] [31:0] $end
$var reg 32 u" \cpuregs[12] [31:0] $end
$var reg 32 v" \cpuregs[13] [31:0] $end
$var reg 32 w" \cpuregs[14] [31:0] $end
$var reg 32 x" \cpuregs[15] [31:0] $end
$var reg 32 y" \cpuregs[16] [31:0] $end
$var reg 32 z" \cpuregs[17] [31:0] $end
$var wire 1 {" \:X_48 $end
$var wire 1 |" \:X_49 $end
$var wire 1 }" \:X_50 $end
$var wire 1 ~" \:X_51 $end
$var wire 1 !# \:X_52 $end
$var wire 1 "# \:X_53 $end
$var wire 1 ## \:X_54 $end
$var wire 1 $# \:X_55 $end
$var wire 1 %# \:X_56 $end
$var wire 1 &# \:X_57 $end
$var wire 1 '# \:X_58 $end
$var wire 1 (# \:X_59 $end
$var wire 1 )# \:X_60 $end
$var wire 1 *# \:X_61 $end
$var wire 1 +# \:X_62 $end
$var wire 1 ,# \:X_63 $end
$var wire 1 -# \:X_463 $end
$var wire 1 .# \:X_462 $end
$var wire 1 /# \:X_461 $end
$var wire 32 0# alu_shr [31:0] $end
$var wire 1 1# alu_eq $end
$var wire 1 2# alu_ltu $end
$var wire 1 3# alu_lts $end
$var reg 1 4# clear_prefetched_high_word_q $end
$var wire 1 5# cpuregs_write $end
$var wire 32 6# cpuregs_wrdata [31:0] $end
$var wire 32 7# cpuregs_rs1 [31:0] $end
$var wire 32 8# cpuregs_rs2 [31:0] $end
$var wire 1 9# \:X_32 $end
$var wire 1 :# \:X_33 $end
$var wire 1 ;# \:X_34 $end
$var wire 1 <# \:X_35 $end
$var wire 1 =# \:X_36 $end
$var wire 1 ># \:X_37 $end
$var wire 1 ?# \:X_38 $end
$var wire 1 @# \:X_39 $end
$var wire 1 A# \:X_40 $end
$var wire 1 B# \:X_41 $end
$var wire 1 C# \:X_42 $end
$var wire 1 D# \:X_43 $end
$var wire 1 E# \:X_44 $end
$var wire 1 F# \:X_45 $end
$var wire 1 G# \:X_46 $end
$var wire 1 H# \:X_47 $end
$var wire 1 I# \:X_409 $end
$var wire 1 J# \:X_410 $end
$var wire 1 K# \:X_411 $end
$var wire 1 L# \:X_412 $end
$var wire 1 M# \:X_413 $end
$var wire 1 N# \:X_414 $end
$var wire 1 O# \:X_415 $end
$var wire 1 P# \:X_416 $end
$var wire 1 Q# \:X_417 $end
$var wire 1 R# \:X_418 $end
$var wire 1 S# \:X_419 $end
$var wire 1 T# \:X_420 $end
$var reg 1 U# do_waitirq $end
$var wire 32 V# alu_out [31:0] $end
$var reg 32 W# alu_out_q [31:0] $end
$var wire 1 X# alu_out_0 $end
$var wire 32 Y# alu_add_sub [31:0] $end
$var wire 32 Z# alu_shl [31:0] $end
$var wire 1 [# mem_la_use_prefetched_high_word $end
$var wire 1 \# mem_done $end
$var reg 1 ]# instr_lui $end
$var reg 1 ^# instr_auipc $end
$var reg 1 _# instr_jal $end
$var reg 1 `# instr_jalr $end
$var reg 1 a# instr_beq $end
$var reg 1 b# instr_bne $end
$var reg 1 c# instr_blt $end
$var reg 1 d# instr_bge $end
$var reg 1 e# instr_bltu $end
$var reg 1 f# instr_bgeu $end
$var reg 1 g# instr_lb $end
$var reg 1 h# instr_lh $end
$var reg 1 i# instr_lw $end
$var reg 1 j# instr_lbu $end
$var reg 1 k# instr_lhu $end
$var reg 1 l# instr_sb $end
$var reg 1 m# instr_sh $end
$var reg 1 n# instr_sw $end
$var reg 1 o# instr_addi $end
$var reg 1 p# instr_slti $end
$var reg 1 q# instr_sltiu $end
$var reg 1 r# instr_xori $end
$var reg 1 s# instr_ori $end
$var reg 1 t# instr_andi $end
$var reg 1 u# instr_slli $end
$var reg 1 v# instr_srli $end
$var reg 1 w# instr_srai $end
$var reg 1 x# instr_add $end
$var reg 1 y# instr_sub $end
$var reg 1 z# instr_sll $end
$var reg 1 {# instr_slt $end
$var reg 1 |# instr_sltu $end
$var reg 1 }# instr_xor $end
$var reg 1 ~# instr_srl $end
$var reg 1 !$ instr_sra $end
$var wire 1 "$ \:X_64 $end
$var reg 1 #$ instr_or $end
$var reg 1 $$ instr_and $end
$var reg 1 %$ instr_rdcycle $end
$var reg 1 &$ instr_rdcycleh $end
$var reg 1 '$ instr_rdinstr $end
$var reg 1 ($ instr_rdinstrh $end
$var reg 1 )$ instr_ecall_ebreak $end
$var reg 1 *$ instr_getq $end
$var reg 1 +$ instr_setq $end
$var reg 1 ,$ instr_retirq $end
$var reg 1 -$ instr_maskirq $end
$var reg 1 .$ instr_waitirq $end
$var reg 1 /$ instr_timer $end
$var wire 1 0$ instr_trap $end
$var reg 5 1$ decoded_rd [4:0] $end
$var reg 5 2$ decoded_rs1 [4:0] $end
$var reg 5 3$ decoded_rs2 [4:0] $end
$var reg 32 4$ decoded_imm [31:0] $end
$var reg 1 5$ is_lui_auipc_jal $end
$var reg 1 6$ is_lb_lh_lw_lbu_lhu $end
$var reg 1 7$ is_slli_srli_srai $end
$var reg 1 8$ is_jalr_addi_slti_sltiu_xori_ori_andi $end
$var reg 1 9$ is_sb_sh_sw $end
$var reg 1 :$ is_lui_auipc_jal_jalr_addi_add_sub $end
$var reg 1 ;$ is_slti_blt_slt $end
$var reg 1 <$ is_sltiu_bltu_sltu $end
$var reg 1 =$ is_beq_bne_blt_bge_bltu_bgeu $end
$var reg 1 >$ is_lbu_lhu_lw $end
$var reg 1 ?$ is_alu_reg_imm $end
$var reg 1 @$ is_alu_reg_reg $end
$var reg 1 A$ is_compare $end
$var wire 1 B$ is_rdcycle_rdcycleh_rdinstr_rdinstrh $end
$var wire 1 C$ \:X_251 $end
$var wire 1 D$ \:X_252 $end
$var wire 1 E$ \:X_253 $end
$var wire 1 F$ \:X_254 $end
$var wire 1 G$ \:X_255 $end
$var wire 1 H$ \:X_256 $end
$var reg 32 I$ decoded_imm_uj [31:0] $end
$var reg 1 J$ decoder_trigger $end
$var reg 1 K$ decoder_trigger_q $end
$var reg 1 L$ decoder_pseudo_trigger $end
$var reg 1 M$ decoder_pseudo_trigger_q $end
$var reg 1 N$ compressed_instr $end
$var wire 1 O$ resetn $end
$var reg 1 P$ trap $end
$var reg 1 Q$ mem_valid $end
$var wire 1 R$ mem_ready $end
$var wire 32 S$ mem_rdata [31:0] $end
$var wire 1 T$ mem_la_read $end
$var wire 1 U$ \:X_220 $end
$var wire 1 V$ \:X_221 $end
$var wire 1 W$ \:X_222 $end
$var wire 1 X$ \:X_223 $end
$var wire 1 Y$ \:X_224 $end
$var wire 1 Z$ \:X_225 $end
$var wire 1 [$ \:X_226 $end
$var wire 1 \$ \:X_227 $end
$var wire 1 ]$ \:X_228 $end
$var wire 1 ^$ \:X_229 $end
$var wire 1 _$ \:X_230 $end
$var wire 1 `$ \:X_231 $end
$var wire 1 a$ \:X_232 $end
$var wire 1 b$ \:X_233 $end
$var wire 1 c$ \:X_234 $end
$var wire 1 d$ \:X_235 $end
$var wire 1 e$ \:X_236 $end
$var wire 1 f$ \:X_237 $end
$var wire 1 g$ \:X_238 $end
$var wire 1 h$ \:X_239 $end
$var wire 1 i$ \:X_240 $end
$var wire 1 j$ \:X_241 $end
$var wire 1 k$ \:X_242 $end
$var wire 1 l$ \:X_243 $end
$var wire 1 m$ \:X_244 $end
$var wire 1 n$ \:X_245 $end
$var wire 1 o$ \:X_246 $end
$var wire 1 p$ \:X_247 $end
$var wire 1 q$ \:X_248 $end
$var wire 1 r$ \:X_249 $end
$var wire 1 s$ \:X_250 $end
$var wire 1 t$ clk $end
$upscope $end
$var wire 1 u$ reset $end
$var wire 1 v$ rvfi_valid $end
$var wire 32 w$ rvfi_insn [31:0] $end
$var wire 1 x$ mem_ready $end
$var wire 32 y$ mem_rdata [31:0] $end
$var wire 1 z$ clock $end
$upscope $end
$scope module checker_inst $end
$scope module insn_spec $end
$var wire 1 {$ rvfi_valid $end
$var wire 32 |$ rvfi_insn [31:0] $end
$var wire 1 }$ spec_valid $end
$var wire 32 ~$ insn_padding [31:0] $end
$var wire 3 !% insn_funct3 [2:0] $end
$var wire 7 "% insn_opcode [6:0] $end
$upscope $end
$var wire 1 #% reset $end
$var wire 1 $% check $end
$var wire 1 %% spec_valid $end
$var wire 1 &% valid $end
$var wire 1 '% rvfi_valid $end
$var wire 32 (% rvfi_insn [31:0] $end
$var wire 1 )% clock $end
$upscope $end
$var wire 8 *% cycle [7:0] $end
$var wire 1 +% \:jasper_formal_reset $end
$var reg 8 ,% cycle_reg [7:0] $end
$var wire 1 -% reset $end
$var wire 1 .% rvfi_valid $end
$var wire 32 /% rvfi_insn [31:0] $end
$var wire 1 0% \:jasper_formal_clock $end
$var wire 1 1% clock $end
$upscope $end
$enddefinitions $end
#0
1!
0"
b00000010000000000100000000110011 #
b11111111111111111111111111111100 $
b00000000000000000000000000010001 %
0&
0'
b00000000000000000000000000000000 (
0)
0*
0+
0,
0-
0.
0/
00
b00000000000000000000000000000000 1
02
03
04
05
06
07
08
09
0:
0;
0<
0=
0>
0?
0@
0A
0B
0C
0D
0E
0F
0G
0H
0I
0J
0K
0L
0M
0N
0O
0P
0Q
0R
1S
0T
1U
0V
b00000010000000000100000000110011 W
b11111111111111111111111111111100 X
b00000000000000000000000000010001 Y
0Z
0[
b00000000000000000000000000000000 \
0]
0^
0_
0`
0a
0b
b0000 c
0d
1e
0f
b00000010000000000100000000110011 g
b11111111111111111111111111111100 h
b00000000000000000000000000010001 i
0j
b00000000001100000100000000001011 k
b0000000000000000000000000000000000000000000000000000000000000000 l
b0000000000000000000000000000000000000000000000000000000000000000 m
b00000000000000000000000000000000 n
b00000000000000000000000000000000 o
0p
0q
0r
0s
0t
0u
0v
0w
0x
0y
0z
0{
0|
0}
0~
0!!
0"!
0#!
0$!
0%!
1&!
0'!
0(!
0)!
0*!
0+!
0,!
0-!
0.!
0/!
00!
01!
02!
03!
04!
05!
06!
07!
08!
09!
0:!
0;!
0<!
0=!
0>!
0?!
0@!
0A!
0B!
0C!
0D!
0E!
b00000000000000000000000000000000 F!
b00000000000000000000000000000000 G!
b00000000000000000000000000000000 H!
b00000000000000000000000000000000 I!
b00000000000000000000000000000000 J!
b00000000000000000000000000000000 K!
b00000000000000000000000000000000 L!
b00000000000000000000000000000000 M!
b00000000000000000000000000000000 N!
b00000000000000000000000000000000 O!
b00000000000000000000000000000000 P!
b00000000000000000000000000000000 Q!
b00000000000000000000000000000000 R!
b00000000000000000000000000000000 S!
0T!
b00000000000000000000000000000000 U!
0V!
0W!
0X!
b00000000000000000000000000000000 Y!
0Z!
0[!
0\!
b00000000000000000000000000000000 ]!
0^!
0_!
b00 `!
b00 a!
b00000000000000000000000000000000 b!
b00000000000000000011000001110011 c!
0d!
0e!
0f!
0g!
0h!
0i!
0j!
0k!
b0000000000000000 l!
b00000000000000000011000001110011 m!
b00000000000000000011000001110011 n!
b00000000001100000100000000001011 o!
0p!
0q!
0r!
b00000000000000000000000000000000 s!
b01000000 t!
b00 u!
0v!
0w!
0x!
0y!
0z!
0{!
0|!
b01010 }!
b1111 ~!
0!"
1""
1#"
1$"
1%"
1&"
1'"
1("
1)"
1*"
1+"
1,"
1-"
1."
1/"
10"
11"
12"
13"
14"
15"
16"
17"
18"
19"
1:"
1;"
1<"
1="
1>"
1?"
1@"
1A"
0B"
0C"
0D"
0E"
0F"
0G"
0H"
0I"
0J"
0K"
0L"
0M"
0N"
0O"
0P"
0Q"
0R"
0S"
0T"
0U"
0V"
0W"
0X"
0Y"
0Z"
0["
0\"
0]"
0^"
b11111111111111111111111111111100 _"
b00000000000000000000000000010001 `"
b00000000000000000000000000000000 a"
b11111 b"
b11111111111011110000000000000011 c"
b00000000001100000100000000001011 d"
0e"
0f"
0g"
b00000000000000000000000000000000 h"
b00000000000000000000000000000000 i"
b00000000000000000000000000000000 j"
b00000000000000000000000000000000 k"
b00000000000000000000000000000000 l"
b00000000000000000000000000000000 m"
b00000000000000000000000000000000 n"
b00000000000000000000000000000000 o"
b00000000000000000000000000000000 p"
b00000000000000000000000000000000 q"
b00000000000000000000000000000000 r"
b00000000000000000000000000000000 s"
b00000000000000000000000000000000 t"
b00000000000000000000000000000000 u"
b00000000000000000000000000000000 v"
b00000000000000000000000000000000 w"
b00000000000000000000000000000000 x"
b00000000000000000000000000000000 y"
b00000000000000000000000000000000 z"
0{"
0|"
0}"
0~"
0!#
0"#
0##
0$#
0%#
0&#
0'#
0(#
0)#
0*#
0+#
0,#
0-#
0.#
0/#
b00000000000000000111111111111111 0#
01#
02#
13#
14#
05#
b11111111111111111111111111111111 6#
b00000000000000000000000000000000 7#
b00000000000000000000000000000000 8#
09#
0:#
0;#
0<#
0=#
0>#
0?#
0@#
0A#
0B#
0C#
0D#
0E#
0F#
0G#
0H#
0I#
0J#
0K#
0L#
0M#
0N#
0O#
0P#
0Q#
0R#
0S#
0T#
0U#
b00000000000000000000000000000000 V#
b00000000000000000000000000000000 W#
0X#
b00000000000000000000000000001101 Y#
b11111111111110000000000000000000 Z#
0[#
0\#
0]#
0^#
1_#
0`#
0a#
0b#
0c#
0d#
0e#
0f#
0g#
0h#
0i#
0j#
0k#
0l#
0m#
0n#
0o#
0p#
0q#
0r#
0s#
0t#
0u#
0v#
0w#
0x#
0y#
0z#
0{#
0|#
0}#
0~#
0!$
0"$
0#$
0$$
0%$
0&$
0'$
1($
0)$
0*$
0+$
0,$
0-$
0.$
0/$
00$
b11111 1$
b10001 2$
b00000 3$
b00000000000000000000000000000111 4$
05$
06$
17$
08$
09$
0:$
0;$
0<$
0=$
0>$
0?$
0@$
0A$
1B$
0C$
0D$
0E$
0F$
0G$
1H$
b00000000000000000000000000000000 I$
0J$
0K$
0L$
0M$
1N$
1O$
0P$
0Q$
0R$
b00000000000000000000000000000000 S$
0T$
1U$
1V$
1W$
1X$
1Y$
0Z$
0[$
0\$
0]$
0^$
0_$
0`$
0a$
0b$
0c$
0d$
0e$
0f$
0g$
0h$
0i$
0j$
0k$
0l$
0m$
0n$
0o$
0p$
0q$
0r$
0s$
1t$
0u$
0v$
b00000000001100000100000000001011 w$
0x$
b00000000000000000000000000000000 y$
1z$
0{$
b00000000001100000100000000001011 |$
0}$
b00000000000000000000000000000000 ~$
b100 !%
b0001011 "%
0#%
0$%
0%%
0&%
0'%
b00000000001100000100000000001011 (%
1)%
b00000001 *%
0+%
b00000001 ,%
0-%
0.%
b00000000001100000100000000001011 /%
10%
11%
#5
0S
0e
0t$
0z$
0)%
00%
01%
#10
1S
1e
b0000000000000000000000000000000000000000000000000000000000000001 l
0&!
1e!
1y!
b11111 }!
b00000000000000000000000000000001 a"
04#
1R#
1S#
1T#
b00000000000000000000000000001101 V#
15$
1:$
0H$
1T$
1t$
1z$
1)%
b00000010 *%
b00000010 ,%
10%
11%
#15
0S
0e
0t$
0z$
0)%
00%
01%
#20
1S
1e
b0000000000000000000000000000000000000000000000000000000000000010 l
b01 `!
b00000010010000111010000000011001 b!
1h!
b00000010010000111010000000011001 m!
b00000010010000111010000000011001 n!
b00000000000000000000000000000000 a"
b00000000000000000000000000001101 W#
1\#
1Q$
1R$
b00000010010000111010000000011001 S$
0T$
1t$
1x$
b00000010010000111010000000011001 y$
1z$
1)%
b00000011 *%
b00000011 ,%
10%
11%
#25
0S
0e
0t$
0z$
0)%
00%
01%
#30
1S
1e
b0000000000000000000000000000000000000000000000000000000000000011 l
b00 `!
b00000000000000000000000000000000 b!
b00000010010000111010000000011001 c!
0e!
0h!
1j!
b0000001001000011 l!
1q!
b00000010010000111010000000011001 c"
1J#
0T#
0\#
b00000 1$
b00000 2$
b00000000000000000000000000000110 I$
1J$
0Q$
b00000000000000000000000000000000 S$
1t$
b00000000000000000000000000000000 y$
1z$
1)%
b00000100 *%
b00000100 ,%
10%
11%
#35
0S
0e
0t$
0z$
0)%
00%
01%
#40
b00000010010000111010000000011001 #
1S
b00000010010000111010000000011001 W
1e
b00000010010000111010000000011001 g
b0000000000000000000000000000000000000000000000000000000000000100 l
b0000000000000000000000000000000000000000000000000000000000000001 m
b00000000000000000000000000000110 o
1e!
1k!
b00000000000000000000001001000011 n!
1p!
0q!
1r!
1x!
b00000 }!
0""
0#"
0$"
0%"
0&"
0'"
0("
0)"
0*"
0+"
0,"
0-"
0."
0/"
00"
01"
02"
03"
04"
05"
06"
07"
08"
09"
0:"
0;"
0<"
0="
0>"
0?"
0@"
0A"
b00000000000000001010000000011001 d"
1g"
b00000000000000000000000000000110 h"
15#
b00000000000000000000000000000010 6#
0J#
0R#
0S#
b00000000000000000000000000000000 V#
0($
b00000000000000000000000000000110 4$
07$
0:$
0B$
0J$
1K$
0R$
1T$
1t$
0x$
1z$
1)%
b00000101 *%
b00000101 ,%
10%
11%
#45
0S
0e
0t$
0z$
0)%
00%
01%
#50
1S
1e
b00000000000000001010000000011001 k
b0000000000000000000000000000000000000000000000000000000000000101 l
b00000000000000000000000000000110 n
b01 `!
b00100001010000100000000000000000 b!
1h!
0j!
0k!
b00100001010000100000000000000000 m!
b00000000000000000010000101000010 n!
b00000000000000001010000000011001 o!
0p!
b00000000000000001010000000011001 s!
0x!
1e"
14#
05#
b00000000000000000000000000000000 6#
b00000000000000000000000000001101 V#
b00000000000000000000000000000000 W#
1\#
1:$
0K$
1Q$
1R$
b00100001010000100000000000000000 S$
0T$
1t$
b00000000000000001010000000011001 w$
1x$
b00100001010000100000000000000000 y$
1z$
b00000000000000001010000000011001 |$
b010 !%
b0011001 "%
b00000000000000001010000000011001 (%
1)%
b00000110 *%
b00000110 ,%
b00000000000000001010000000011001 /%
10%
11%
#55
0S
0e
0t$
0z$
0)%
00%
01%
#60
1S
1e
b0000000000000000000000000000000000000000000000000000000000000110 l
b00 `!
b00000000000000000000000000000000 b!
b00000000000000000010000101000010 c!
0e!
0h!
1j!
b0010000101000010 l!
b00000000000000000010000101000010 m!
1q!
b00000000000000000010000101000010 c"
0g"
04#
b00000000000000000000000000001101 W#
0\#
0_#
10$
b00000000000000000000010010000000 I$
1J$
0Q$
b00000000000000000000000000000000 S$
1t$
b00000000000000000000000000000000 y$
1z$
1)%
b00000111 *%
b00000111 ,%
10%
11%
#65
0S
0e
0t$
0z$
0)%
00%
01%
#70
b00000000000000000010000101000010 #
1S
b00000000000000000010000101000010 W
1e
b00000000000000000010000101000010 g
1j
b0000000000000000000000000000000000000000000000000000000000000111 l
b0000000000000000000000000000000000000000000000000000000000000010 m
b00000000000000000000000000001000 o
1d!
1p!
0q!
b00100000 t!
b00000000000000000010000101000010 d"
0e"
b00000000000000000000000000001000 h"
b00000000000000000000000000000000 V#
b00000000000000000000000000000000 4$
05$
0:$
0J$
1K$
1T$
1t$
1v$
1z$
1{$
1&%
1'%
1)%
b00001000 *%
b00001000 ,%
1.%
10%
11%
