riscv_formal_verification/picorv32/rvfi_valid_c_li_new.vcd
$date Tue Feb 26 17:06:07 2019
 $end
$version JasperGold $end
$timescale 1 ns $end
$scope module rvfi_testbench $end
$scope module wrapper $end
$scope module uut $end
$scope module pcpi_div $end
$var wire 1 ! \:X_8 $end
$var wire 1 " \:X_9 $end
$var wire 1 # \:X_10 $end
$var wire 1 $ \:X_11 $end
$var wire 1 % \:X_12 $end
$var wire 1 & \:X_13 $end
$var wire 1 ' \:X_14 $end
$var wire 1 ( \:X_15 $end
$var wire 1 ) \:X_16 $end
$var wire 1 * \:X_17 $end
$var wire 1 + \:X_18 $end
$var wire 1 , \:X_19 $end
$var wire 1 - \:X_20 $end
$var wire 1 . \:X_21 $end
$var wire 1 / \:X_22 $end
$var wire 1 0 \:X_23 $end
$var wire 1 1 \:X_24 $end
$var wire 1 2 \:X_25 $end
$var wire 1 3 \:X_26 $end
$var wire 1 4 \:X_27 $end
$var wire 1 5 \:X_28 $end
$var wire 1 6 \:X_29 $end
$var wire 1 7 \:X_30 $end
$var wire 1 8 \:X_31 $end
$var wire 1 9 resetn $end
$var wire 1 : \:X_0 $end
$var wire 1 ; \:X_1 $end
$var wire 1 < \:X_2 $end
$var wire 1 = \:X_5 $end
$var wire 1 > \:X_6 $end
$var wire 1 ? \:X_7 $end
$var wire 1 @ pcpi_valid $end
$var wire 32 A pcpi_insn [31:0] $end
$var wire 32 B pcpi_rs1 [31:0] $end
$var wire 32 C pcpi_rs2 [31:0] $end
$var wire 1 D instr_any_div_rem $end
$var reg 1 E pcpi_wr $end
$var reg 32 F pcpi_rd [31:0] $end
$var reg 1 G pcpi_wait $end
$var reg 1 H pcpi_ready $end
$var reg 1 I instr_div $end
$var reg 1 J instr_divu $end
$var reg 1 K instr_rem $end
$var reg 1 L instr_remu $end
$var reg 1 M pcpi_wait_q $end
$var wire 1 N start $end
$var reg 32 O quotient_msk [31:0] $end
$var reg 1 P running $end
$var wire 1 Q \:X_3 $end
$var wire 1 R \:X_4 $end
$var wire 1 S clk $end
$upscope $end
$scope module pcpi_mul $end
$var wire 1 T \:X_3556 $end
$var wire 1 U instr_any_mul $end
$var wire 1 V pcpi_wr $end
$var wire 32 W pcpi_rd [31:0] $end
$var wire 1 X pcpi_wait $end
$var wire 1 Y pcpi_ready $end
$var wire 1 Z instr_mul $end
$var wire 1 [ instr_mulh $end
$var wire 1 \ instr_mulhsu $end
$var wire 1 ] instr_mulhu $end
$var reg 4 ^ active [3:0] $end
$var wire 1 _ pcpi_insn_valid $end
$var wire 1 ` resetn $end
$var wire 1 a pcpi_valid $end
$var wire 32 b pcpi_insn [31:0] $end
$var wire 32 c pcpi_rs1 [31:0] $end
$var wire 32 d pcpi_rs2 [31:0] $end
$var wire 1 e clk $end
$upscope $end
$var wire 1 f \:X_387 $end
$var wire 1 g \:X_388 $end
$var wire 1 h \:X_389 $end
$var wire 1 i \:X_390 $end
$var wire 1 j \:X_391 $end
$var wire 1 k \:X_392 $end
$var wire 1 l \:X_393 $end
$var wire 1 m \:X_394 $end
$var wire 1 n \:X_395 $end
$var wire 1 o \:X_396 $end
$var wire 1 p \:X_397 $end
$var wire 1 q \:X_398 $end
$var wire 1 r \:X_399 $end
$var wire 1 s \:X_400 $end
$var wire 1 t \:X_401 $end
$var wire 1 u \:X_402 $end
$var wire 1 v \:X_403 $end
$var wire 1 w \:X_404 $end
$var wire 1 x \:X_405 $end
$var wire 1 y \:X_406 $end
$var wire 1 z \:X_407 $end
$var wire 1 { \:X_408 $end
$var wire 1 | \:X_409 $end
$var wire 1 } \:X_410 $end
$var reg 1 ~ instr_add $end
$var reg 1 !! instr_sub $end
$var reg 1 "! instr_sll $end
$var reg 1 #! instr_slt $end
$var reg 1 $! instr_sltu $end
$var reg 1 %! instr_xor $end
$var reg 1 &! instr_srl $end
$var reg 1 '! instr_sra $end
$var reg 1 (! instr_or $end
$var reg 1 )! instr_and $end
$var reg 1 *! instr_rdcycle $end
$var reg 1 +! instr_rdcycleh $end
$var reg 1 ,! instr_rdinstr $end
$var reg 1 -! instr_rdinstrh $end
$var reg 1 .! instr_ecall_ebreak $end
$var reg 1 /! instr_getq $end
$var reg 1 0! instr_setq $end
$var reg 1 1! instr_retirq $end
$var reg 1 2! instr_maskirq $end
$var reg 1 3! instr_waitirq $end
$var reg 1 4! instr_timer $end
$var wire 1 5! instr_trap $end
$var wire 1 6! \:X_33 $end
$var wire 1 7! \:X_34 $end
$var wire 1 8! \:X_35 $end
$var wire 1 9! \:X_36 $end
$var wire 1 :! \:X_37 $end
$var wire 1 ;! \:X_38 $end
$var wire 1 <! \:X_39 $end
$var wire 1 =! \:X_40 $end
$var wire 1 >! \:X_41 $end
$var wire 1 ?! \:X_42 $end
$var wire 1 @! \:X_43 $end
$var wire 1 A! \:X_44 $end
$var wire 1 B! \:X_45 $end
$var wire 1 C! \:X_46 $end
$var wire 1 D! \:X_47 $end
$var wire 1 E! \:X_48 $end
$var wire 1 F! \:X_49 $end
$var wire 1 G! \:X_50 $end
$var wire 1 H! \:X_51 $end
$var wire 1 I! \:X_52 $end
$var wire 1 J! \:X_53 $end
$var wire 1 K! \:X_54 $end
$var wire 1 L! \:X_55 $end
$var reg 1 M! pcpi_timeout $end
$var reg 1 N! do_waitirq $end
$var wire 32 O! alu_out [31:0] $end
$var wire 1 P! \:X_129 $end
$var wire 1 Q! \:X_130 $end
$var wire 1 R! \:X_131 $end
$var wire 1 S! \:X_132 $end
$var wire 1 T! \:X_133 $end
$var wire 1 U! \:X_134 $end
$var wire 1 V! \:X_135 $end
$var wire 1 W! \:X_136 $end
$var wire 1 X! \:X_137 $end
$var wire 1 Y! \:X_138 $end
$var wire 1 Z! \:X_139 $end
$var wire 1 [! \:X_140 $end
$var wire 1 \! \:X_141 $end
$var wire 1 ]! \:X_142 $end
$var wire 1 ^! \:X_143 $end
$var wire 1 _! \:X_144 $end
$var wire 1 `! \:X_145 $end
$var wire 1 a! \:X_146 $end
$var wire 1 b! \:X_147 $end
$var wire 1 c! \:X_148 $end
$var wire 1 d! \:X_149 $end
$var wire 1 e! \:X_150 $end
$var wire 1 f! \:X_151 $end
$var wire 1 g! \:X_152 $end
$var wire 1 h! \:X_153 $end
$var wire 1 i! \:X_154 $end
$var wire 1 j! \:X_155 $end
$var wire 1 k! \:X_156 $end
$var wire 1 l! \:X_157 $end
$var wire 1 m! \:X_158 $end
$var wire 1 n! \:X_159 $end
$var wire 1 o! \:X_160 $end
$var reg 64 p! count_cycle [63:0] $end
$var reg 1 q! compressed_instr $end
$var reg 1 r! is_lui_auipc_jal $end
$var reg 1 s! is_lb_lh_lw_lbu_lhu $end
$var reg 1 t! is_slli_srli_srai $end
$var reg 1 u! is_jalr_addi_slti_sltiu_xori_ori_andi $end
$var reg 1 v! is_sb_sh_sw $end
$var wire 1 w! \:X_253 $end
$var wire 1 x! \:X_254 $end
$var wire 1 y! \:X_255 $end
$var wire 1 z! \:X_256 $end
$var wire 1 {! \:X_229 $end
$var wire 1 |! \:X_230 $end
$var wire 1 }! \:X_231 $end
$var wire 1 ~! \:X_232 $end
$var wire 1 !" \:X_233 $end
$var wire 1 "" \:X_234 $end
$var wire 1 #" \:X_235 $end
$var wire 1 $" \:X_236 $end
$var wire 1 %" \:X_237 $end
$var wire 1 &" \:X_238 $end
$var wire 1 '" \:X_239 $end
$var wire 1 (" \:X_240 $end
$var wire 1 )" \:X_241 $end
$var wire 1 *" \:X_242 $end
$var wire 1 +" \:X_243 $end
$var wire 1 ," \:X_244 $end
$var wire 1 -" \:X_245 $end
$var wire 1 ." \:X_246 $end
$var wire 1 /" \:X_247 $end
$var wire 1 0" \:X_248 $end
$var wire 1 1" \:X_249 $end
$var wire 1 2" \:X_250 $end
$var wire 1 3" \:X_251 $end
$var wire 1 4" \:X_252 $end
$var wire 1 5" \:X_411 $end
$var wire 1 6" \:X_412 $end
$var wire 1 7" \:X_413 $end
$var wire 1 8" \:X_414 $end
$var wire 1 9" \:X_415 $end
$var wire 1 :" \:X_416 $end
$var wire 1 ;" \:X_417 $end
$var wire 1 <" \:X_418 $end
$var wire 1 =" \:X_419 $end
$var wire 1 >" \:X_420 $end
$var reg 1 ?" instr_beq $end
$var reg 1 @" instr_bne $end
$var reg 1 A" instr_blt $end
$var reg 1 B" instr_bge $end
$var reg 1 C" instr_bltu $end
$var reg 1 D" instr_bgeu $end
$var reg 1 E" instr_lb $end
$var reg 1 F" instr_lh $end
$var reg 1 G" instr_lw $end
$var reg 1 H" instr_lbu $end
$var reg 1 I" instr_lhu $end
$var reg 1 J" instr_sb $end
$var reg 1 K" instr_sh $end
$var reg 1 L" instr_sw $end
$var reg 1 M" instr_addi $end
$var reg 1 N" instr_slti $end
$var reg 1 O" instr_sltiu $end
$var reg 1 P" instr_xori $end
$var reg 1 Q" instr_ori $end
$var reg 1 R" instr_andi $end
$var reg 1 S" instr_slli $end
$var reg 1 T" instr_srli $end
$var reg 1 U" instr_srai $end
$var wire 1 V" \:X_56 $end
$var wire 1 W" \:X_57 $end
$var wire 1 X" \:X_58 $end
$var wire 1 Y" \:X_59 $end
$var wire 1 Z" \:X_60 $end
$var wire 1 [" \:X_61 $end
$var wire 1 \" \:X_62 $end
$var wire 1 ]" \:X_63 $end
$var wire 32 ^" mem_rdata [31:0] $end
$var wire 1 _" mem_la_read $end
$var reg 1 `" pcpi_valid $end
$var reg 32 a" pcpi_insn [31:0] $end
$var wire 32 b" pcpi_rs1 [31:0] $end
$var wire 32 c" pcpi_rs2 [31:0] $end
$var reg 1 d" rvfi_valid $end
$var reg 32 e" rvfi_insn [31:0] $end
$var wire 1 f" \:X_461 $end
$var reg 1 g" mem_la_secondword $end
$var reg 32 h" alu_out_q [31:0] $end
$var wire 1 i" alu_out_0 $end
$var wire 32 j" alu_add_sub [31:0] $end
$var wire 32 k" alu_shl [31:0] $end
$var wire 32 l" alu_shr [31:0] $end
$var wire 1 m" clear_prefetched_high_word $end
$var reg 16 n" mem_16bit_buffer [15:0] $end
$var wire 32 o" mem_rdata_latched_noshuffle [31:0] $end
$var wire 32 p" mem_rdata_latched [31:0] $end
$var wire 1 q" mem_la_use_prefetched_high_word $end
$var wire 1 r" mem_done $end
$var reg 1 s" instr_lui $end
$var reg 1 t" instr_auipc $end
$var reg 1 u" instr_jal $end
$var reg 1 v" instr_jalr $end
$var wire 1 w" \:X_64 $end
$var wire 1 x" \:X_492 $end
$var wire 1 y" \:X_491 $end
$var wire 1 z" \:X_490 $end
$var wire 1 {" \:X_489 $end
$var wire 1 |" \:X_488 $end
$var wire 1 }" \:X_487 $end
$var wire 1 ~" \:X_220 $end
$var wire 1 !# \:X_221 $end
$var wire 1 "# \:X_222 $end
$var wire 1 ## \:X_223 $end
$var wire 1 $# \:X_224 $end
$var wire 1 %# \:X_225 $end
$var wire 1 &# \:X_226 $end
$var wire 1 '# \:X_227 $end
$var wire 1 (# \:X_228 $end
$var wire 32 )# next_pc [31:0] $end
$var reg 32 *# \cpuregs[0] [31:0] $end
$var reg 32 +# \cpuregs[1] [31:0] $end
$var reg 32 ,# \cpuregs[2] [31:0] $end
$var reg 32 -# \cpuregs[3] [31:0] $end
$var reg 32 .# \cpuregs[4] [31:0] $end
$var reg 32 /# \cpuregs[5] [31:0] $end
$var reg 32 0# \cpuregs[6] [31:0] $end
$var reg 32 1# \cpuregs[7] [31:0] $end
$var reg 32 2# \cpuregs[8] [31:0] $end
$var reg 32 3# \cpuregs[9] [31:0] $end
$var reg 32 4# \cpuregs[10] [31:0] $end
$var reg 32 5# \cpuregs[11] [31:0] $end
$var reg 32 6# \cpuregs[12] [31:0] $end
$var reg 1 7# is_lui_auipc_jal_jalr_addi_add_sub $end
$var reg 1 8# is_slti_blt_slt $end
$var reg 1 9# is_sltiu_bltu_sltu $end
$var reg 1 :# is_beq_bne_blt_bge_bltu_bgeu $end
$var reg 1 ;# is_lbu_lhu_lw $end
$var reg 1 <# is_alu_reg_imm $end
$var reg 1 =# is_alu_reg_reg $end
$var reg 1 ># is_compare $end
$var wire 1 ?# is_rdcycle_rdcycleh_rdinstr_rdinstrh $end
$var wire 1 @# \:X_357 $end
$var wire 1 A# \:X_358 $end
$var wire 1 B# \:X_359 $end
$var wire 1 C# \:X_360 $end
$var wire 1 D# \:X_361 $end
$var wire 1 E# \:X_362 $end
$var wire 1 F# \:X_486 $end
$var wire 1 G# \:X_485 $end
$var wire 1 H# \:X_484 $end
$var wire 1 I# \:X_483 $end
$var wire 1 J# \:X_482 $end
$var wire 1 K# \:X_481 $end
$var wire 1 L# \:X_480 $end
$var wire 1 M# \:X_479 $end
$var wire 1 N# \:X_478 $end
$var wire 1 O# \:X_477 $end
$var wire 1 P# \:X_476 $end
$var wire 1 Q# \:X_475 $end
$var wire 1 R# \:X_474 $end
$var wire 1 S# \:X_473 $end
$var wire 1 T# \:X_472 $end
$var wire 1 U# \:X_471 $end
$var wire 1 V# \:X_470 $end
$var wire 1 W# \:X_469 $end
$var wire 1 X# \:X_468 $end
$var wire 1 Y# \:X_467 $end
$var wire 1 Z# \:X_466 $end
$var wire 1 [# \:X_465 $end
$var wire 1 \# \:X_464 $end
$var wire 1 ]# \:X_463 $end
$var wire 1 ^# \:X_462 $end
$var reg 64 _# count_instr [63:0] $end
$var reg 32 `# reg_pc [31:0] $end
$var reg 32 a# reg_next_pc [31:0] $end
$var reg 32 b# reg_op1 [31:0] $end
$var reg 32 c# reg_op2 [31:0] $end
$var reg 32 d# reg_out [31:0] $end
$var reg 5 e# reg_sh [4:0] $end
$var reg 32 f# next_insn_opcode [31:0] $end
$var wire 32 g# dbg_insn_opcode [31:0] $end
$var reg 1 h# mem_la_firstword_reg $end
$var reg 1 i# last_mem_valid $end
$var wire 1 j# mem_la_firstword $end
$var reg 1 k# prefetched_high_word $end
$var reg 5 l# decoded_rd [4:0] $end
$var reg 5 m# decoded_rs1 [4:0] $end
$var reg 5 n# decoded_rs2 [4:0] $end
$var reg 32 o# decoded_imm [31:0] $end
$var reg 32 p# decoded_imm_uj [31:0] $end
$var reg 1 q# decoder_trigger $end
$var reg 1 r# decoder_trigger_q $end
$var reg 1 s# decoder_pseudo_trigger $end
$var reg 1 t# decoder_pseudo_trigger_q $end
$var reg 1 u# latched_branch $end
$var reg 1 v# latched_compr $end
$var reg 1 w# latched_is_lu $end
$var reg 1 x# latched_is_lh $end
$var reg 1 y# latched_is_lb $end
$var reg 5 z# latched_rd [4:0] $end
$var reg 4 {# pcpi_timeout_counter [3:0] $end
$var wire 1 |# alu_eq $end
$var wire 1 }# alu_ltu $end
$var wire 1 ~# alu_lts $end
$var reg 1 !$ clear_prefetched_high_word_q $end
$var wire 1 "$ cpuregs_write $end
$var wire 32 #$ cpuregs_wrdata [31:0] $end
$var wire 32 $$ cpuregs_rs1 [31:0] $end
$var wire 32 %$ cpuregs_rs2 [31:0] $end
$var wire 1 &$ \:X_32 $end
$var reg 32 '$ \cpuregs[13] [31:0] $end
$var reg 32 ($ \cpuregs[14] [31:0] $end
$var reg 32 )$ \cpuregs[15] [31:0] $end
$var reg 32 *$ \cpuregs[16] [31:0] $end
$var reg 32 +$ \cpuregs[17] [31:0] $end
$var reg 32 ,$ \cpuregs[18] [31:0] $end
$var reg 32 -$ \cpuregs[19] [31:0] $end
$var reg 32 .$ \cpuregs[20] [31:0] $end
$var reg 32 /$ \cpuregs[21] [31:0] $end
$var reg 32 0$ \cpuregs[22] [31:0] $end
$var reg 32 1$ \cpuregs[23] [31:0] $end
$var reg 32 2$ \cpuregs[24] [31:0] $end
$var reg 32 3$ \cpuregs[25] [31:0] $end
$var reg 32 4$ \cpuregs[26] [31:0] $end
$var reg 32 5$ \cpuregs[27] [31:0] $end
$var reg 32 6$ \cpuregs[28] [31:0] $end
$var reg 32 7$ \cpuregs[29] [31:0] $end
$var reg 32 8$ \cpuregs[30] [31:0] $end
$var reg 32 9$ \cpuregs[31] [31:0] $end
$var wire 1 :$ resetn $end
$var reg 1 ;$ trap $end
$var reg 1 <$ mem_valid $end
$var wire 1 =$ mem_ready $end
$var wire 1 >$ \:X_363 $end
$var wire 1 ?$ \:X_364 $end
$var wire 1 @$ \:X_365 $end
$var wire 1 A$ \:X_366 $end
$var wire 1 B$ \:X_367 $end
$var wire 1 C$ \:X_368 $end
$var wire 1 D$ \:X_369 $end
$var wire 1 E$ \:X_370 $end
$var wire 1 F$ \:X_371 $end
$var wire 1 G$ \:X_372 $end
$var wire 1 H$ \:X_373 $end
$var wire 1 I$ \:X_374 $end
$var wire 1 J$ \:X_375 $end
$var wire 1 K$ \:X_376 $end
$var wire 1 L$ \:X_377 $end
$var wire 1 M$ \:X_378 $end
$var wire 1 N$ \:X_379 $end
$var wire 1 O$ \:X_380 $end
$var wire 1 P$ \:X_381 $end
$var wire 1 Q$ \:X_382 $end
$var wire 1 R$ \:X_383 $end
$var wire 1 S$ \:X_384 $end
$var wire 1 T$ \:X_385 $end
$var wire 1 U$ \:X_386 $end
$var reg 32 V$ q_insn_opcode [31:0] $end
$var reg 1 W$ dbg_next $end
$var wire 1 X$ launch_next_insn $end
$var reg 1 Y$ dbg_valid_insn $end
$var reg 32 Z$ cached_insn_opcode [31:0] $end
$var reg 8 [$ cpu_state [7:0] $end
$var reg 2 \$ irq_state [1:0] $end
$var reg 1 ]$ latched_store $end
$var reg 1 ^$ latched_stalu $end
$var wire 1 _$ pcpi_mul_wr $end
$var wire 32 `$ pcpi_mul_rd [31:0] $end
$var wire 1 a$ pcpi_mul_wait $end
$var wire 1 b$ pcpi_mul_ready $end
$var wire 1 c$ pcpi_div_wr $end
$var wire 32 d$ pcpi_div_rd [31:0] $end
$var wire 1 e$ pcpi_div_wait $end
$var wire 1 f$ pcpi_div_ready $end
$var wire 1 g$ pcpi_int_wr $end
$var wire 32 h$ pcpi_int_rd [31:0] $end
$var wire 1 i$ pcpi_int_wait $end
$var wire 1 j$ pcpi_int_ready $end
$var reg 2 k$ mem_state [1:0] $end
$var reg 2 l$ mem_wordsize [1:0] $end
$var wire 32 m$ mem_rdata_word [31:0] $end
$var reg 32 n$ mem_rdata_q [31:0] $end
$var reg 1 o$ mem_do_prefetch $end
$var reg 1 p$ mem_do_rinst $end
$var reg 1 q$ mem_do_rdata $end
$var reg 1 r$ mem_do_wdata $end
$var wire 1 s$ mem_xfer $end
$var wire 1 t$ clk $end
$upscope $end
$var wire 1 u$ mem_ready $end
$var wire 32 v$ mem_rdata [31:0] $end
$var wire 1 w$ rvfi_valid $end
$var wire 32 x$ rvfi_insn [31:0] $end
$var wire 1 y$ reset $end
$var wire 1 z$ clock $end
$upscope $end
$scope module checker_inst $end
$scope module insn_spec $end
$var wire 1 {$ spec_valid $end
$var wire 1 |$ rvfi_valid $end
$var wire 32 }$ rvfi_insn [31:0] $end
$var wire 32 ~$ insn_padding [31:0] $end
$var wire 3 !% insn_funct3 [2:0] $end
$var wire 2 "% insn_opcode [1:0] $end
$upscope $end
$var wire 1 #% spec_valid $end
$var wire 1 $% check $end
$var wire 1 %% rvfi_valid $end
$var wire 32 &% rvfi_insn [31:0] $end
$var wire 1 '% valid $end
$var wire 1 (% reset $end
$var wire 1 )% clock $end
$upscope $end
$var reg 8 *% cycle_reg [7:0] $end
$var wire 8 +% cycle [7:0] $end
$var wire 1 ,% reset $end
$var wire 1 -% rvfi_valid $end
$var wire 32 .% rvfi_insn [31:0] $end
$var wire 1 /% \:jasper_formal_reset $end
$var wire 1 0% clock $end
$var wire 1 1% \:jasper_formal_clock $end
$upscope $end
$enddefinitions $end
#0
10%
1,%
b00000000 +%
#5
00%
#10
10%
b00000001 *%
#15
00%
#20
10%
#25
00%
#30
0!
0"
0#
0$
0%
0&
0'
0(
0)
0*
0+
0,
0-
0.
0/
00
01
02
03
04
05
06
07
08
19
0:
0;
0<
0=
0>
0?
0@
b00000010000000000100000000110011 A
b11111111111111111111111111111101 B
b00000000000000000000000000001110 C
0D
0E
b00000000000000000000000000000000 F
0G
0H
0I
0J
0K
0L
0M
0N
b00000000000000000000000000000000 O
0P
0Q
0R
1S
0T
0U
0V
b00000000000000000000000000000000 W
0X
0Y
0Z
0[
0\
0]
b0000 ^
0_
1`
0a
b00000010000000000100000000110011 b
b11111111111111111111111111111101 c
b00000000000000000000000000001110 d
1e
1f
0g
0h
0i
0j
0k
0l
0m
0n
0o
0p
0q
0r
0s
0t
0u
1v
0w
0x
0y
0z
0{
0|
0}
0~
0!!
0"!
0#!
0$!
0%!
0&!
0'!
0(!
0)!
0*!
0+!
0,!
1-!
0.!
0/!
00!
01!
02!
03!
04!
05!
06!
07!
08!
09!
0:!
0;!
0<!
0=!
0>!
0?!
0@!
0A!
0B!
0C!
0D!
0E!
0F!
0G!
0H!
0I!
0J!
0K!
0L!
0M!
0N!
b00000000000000000000000000000000 O!
1P!
1Q!
1R!
1S!
1T!
1U!
1V!
1W!
1X!
1Y!
1Z!
1[!
1\!
1]!
1^!
1_!
1`!
1a!
1b!
1c!
1d!
1e!
1f!
1g!
1h!
1i!
1j!
1k!
1l!
1m!
1n!
1o!
b0000000000000000000000000000000000000000000000000000000000000000 p!
0q!
1r!
0s!
0t!
0u!
0v!
0w!
0x!
0y!
0z!
0{!
0|!
0}!
0~!
0!"
0""
0#"
0$"
0%"
0&"
1'"
0("
0)"
0*"
0+"
0,"
0-"
0."
0/"
00"
01"
02"
03"
04"
05"
06"
07"
08"
09"
0:"
0;"
0<"
1="
0>"
0?"
0@"
0A"
0B"
0C"
0D"
0E"
0F"
0G"
0H"
0I"
0J"
0K"
0L"
0M"
0N"
0O"
0P"
0Q"
0R"
0S"
0T"
0U"
0V"
0W"
0X"
0Y"
0Z"
0["
0\"
0]"
b00000000000000000000000000000000 ^"
0_"
0`"
b00000010000000000100000000110011 a"
b11111111111111111111111111111101 b"
b00000000000000000000000000001110 c"
0d"
b00001100000000000100000000001011 e"
0f"
0g"
b00000000000000000000000000000000 h"
0i"
b00000000000000000000000000001011 j"
b11111111111111110100000000000000 k"
b00000000000000111111111111111111 l"
0m"
b0000000000000000 n"
b10100000000000001111000000000001 o"
b10100000000000001111000000000001 p"
0q"
0r"
0s"
0t"
0u"
0v"
0w"
0x"
0y"
0z"
0{"
0|"
0}"
1~"
1!#
1"#
1##
1$#
0%#
0&#
0'#
0(#
b00000000000000000000000000000000 )#
b00000000000000000000000000000000 *#
b00000000000000000000000000000000 +#
b00000000000000000000000000000000 ,#
b00000000000000000000000000000000 -#
b00000000000000000000000000000000 .#
b00000000000000000000000000000000 /#
b00000000000000000000000000000000 0#
b00000000000000000000000000000000 1#
b11111111111101111111111111001010 2#
b00000000000000000000000000000000 3#
b00000000000000000000000000000000 4#
b00000000000000000000000000000000 5#
b00000000000000000000000000000000 6#
07#
08#
09#
0:#
0;#
0<#
1=#
0>#
1?#
0@#
0A#
0B#
0C#
0D#
0E#
0F#
0G#
0H#
0I#
0J#
0K#
0L#
0M#
0N#
0O#
0P#
0Q#
0R#
0S#
0T#
0U#
0V#
0W#
0X#
0Y#
0Z#
0[#
0\#
0]#
0^#
b0000000000000000000000000000000000000000000000000000000000000000 _#
b00000000000000000000000000000000 `#
b00000000000000000000000000000000 a#
b11111111111111111111111111111101 b#
b00000000000000000000000000001110 c#
b00000000000000000000000000000000 d#
b11111 e#
b11111111111111110000000000000011 f#
b00001100000000000100000000001011 g#
0h#
0i#
0j#
0k#
b11110 l#
b11011 m#
b11111 n#
b00000000000000100000000000000010 o#
b00000000000000000000000000000000 p#
0q#
0r#
0s#
0t#
0u#
0v#
0w#
0x#
0y#
b00010 z#
b1111 {#
0|#
0}#
1~#
1!$
0"$
b11111111111111111111111111111111 #$
b11111111111111111011111110110111 $$
b11111111011111111111111111111111 %$
0&$
b00000000000000000000000000000000 '$
b00000000000000000000000000000000 ($
b00000000000000000000000000000000 )$
b00000000000000000000000000000000 *$
b00000000000000000000000000000000 +$
b00000000000000000000000000000000 ,$
b00000000000000000000000000000000 -$
b00000000000000000000000000000000 .$
b00000000000000000000000000000000 /$
b00000000000000000000000000000000 0$
b00000000000000000000000000000000 1$
b00000000000000000000000000000000 2$
b00000000000000000000000000000000 3$
b00000000000000000000000000000000 4$
b11111111111111111011111110110111 5$
b00000000000000000000000000000000 6$
b00000000000000000000000000000000 7$
b00000000000000000000000000000000 8$
b11111111011111111111111111111111 9$
1:$
0;$
0<$
0=$
0>$
0?$
0@$
0A$
0B$
0C$
1D$
0E$
0F$
0G$
0H$
0I$
0J$
0K$
0L$
0M$
0N$
0O$
0P$
0Q$
0R$
0S$
0T$
0U$
b00001100000000000100000000001011 V$
0W$
0X$
0Y$
b00000000000000000000000000000000 Z$
b01000000 [$
b00 \$
0]$
0^$
0_$
b00000000000000000000000000000000 `$
0a$
0b$
0c$
b00000000000000000000000000000000 d$
0e$
0f$
0g$
b00000000000000000000000000000000 h$
0i$
0j$
b00 k$
b11 l$
b00000000000000000000000000000000 m$
b10100000000000001111000000000001 n$
0o$
0p$
0q$
0r$
0s$
1t$
0u$
b00000000000000000000000000000000 v$
0w$
b00001100000000000100000000001011 x$
0y$
1z$
0{$
0|$
b00001100000000000100000000001011 }$
b00000000000000000000110000000000 ~$
b010 !%
b11 "%
0#%
0$%
0%%
b00001100000000000100000000001011 &%
0'%
0(%
1)%
b00000001 *%
b00000001 +%
0,%
0-%
b00001100000000000100000000001011 .%
0/%
10%
11%
#35
0S
0e
0t$
0z$
0)%
00%
01%
#40
1S
1e
0f
0v
b0000000000000000000000000000000000000000000000000000000000000001 p!
0r!
0'"
0="
1_"
b00000000000000100000000000000000 d#
b11110 z#
0!$
0D$
b00 l$
1p$
1t$
1z$
1)%
b00000010 *%
b00000010 +%
10%
11%
#45
0S
0e
0t$
0z$
0)%
00%
01%
#50
1S
1e
b0000000000000000000000000000000000000000000000000000000000000010 p!
b01100000000000101100000000010001 ^"
0_"
b01100000000000101100000000010001 o"
b01100000000000101100000000010001 p"
1r"
1(#
b00000000000000000000000000000000 d#
1<$
1=$
b01 k$
b01100000000000101100000000010001 m$
1s$
1t$
1u$
b01100000000000101100000000010001 v$
1z$
1)%
b00000011 *%
b00000011 +%
10%
11%
#55
0S
0e
0t$
0z$
0)%
00%
01%
#60
1S
1e
b0000000000000000000000000000000000000000000000000000000000000011 p!
1q!
1w!
1x!
1y!
1z!
1{!
1|!
1}!
1~!
1!"
1""
1#"
1$"
1%"
1&"
1'"
1("
1)"
1*"
1+"
1,"
1-"
1."
1/"
10"
11"
12"
13"
14"
b00000000000000000000000000000000 ^"
b0110000000000010 n"
b00000000000000101000001000010001 o"
b00000000000000101000001000010001 p"
0r"
1%#
1&#
1'#
1:#
0=#
b00010000000000000000000000000000 d#
b01100000000000101100000000010001 f#
1k#
b00000 l#
b01000 m#
b00000 n#
b00000000000000000000000000000100 p#
1q#
b11111111111101111111111111001010 $$
b00000000000000000000000000000000 %$
0<$
0=$
1X$
b00 k$
b00000000000000000000000000000000 m$
b00000000000000101000001000010001 n$
0p$
0s$
1t$
0u$
b00000000000000000000000000000000 v$
1z$
1)%
b00000100 *%
b00000100 +%
10%
11%
#65
0S
0e
0t$
0z$
0)%
00%
01%
#70
b00000000000000101000001000010001 A
1S
b00000000000000101000001000010001 b
1e
0-!
0m!
0n!
b0000000000000000000000000000000000000000000000000000000000000100 p!
0w!
0x!
0y!
0z!
0{!
0|!
0}!
0~!
0!"
0""
0#"
0$"
0%"
0&"
0'"
0("
0)"
0*"
0+"
0,"
0-"
0."
0/"
00"
01"
02"
03"
04"
1?"
b00000000000000101000001000010001 a"
b00000000000000000110000000000010 p"
1q"
0%#
0&#
0'#
0(#
b00000000000000000000000000000010 )#
0?#
1I#
b0000000000000000000000000000000000000000000000000000000000000001 _#
b00000000000000000000000000000010 a#
b11111111111111111111111111111111 d#
b00000000000000001100000000010001 g#
1j#
b00000000000000000000000000000100 o#
0q#
1r#
1v#
b00000 z#
b11111111111111111111111111111001 #$
1W$
0X$
1Y$
b00100000 [$
1o$
1t$
1z$
1)%
b00000101 *%
b00000101 +%
10%
11%
#75
0S
0e
0t$
0z$
0)%
00%
01%
#80
b11111111111101111111111111001010 B
b00000000000000000000000000000000 C
1S
b11111111111101111111111111001010 c
b00000000000000000000000000000000 d
1e
0P!
0Q!
0R!
0S!
0T!
0U!
0V!
0W!
0X!
0Y!
0Z!
0[!
0\!
0]!
0^!
0_!
0`!
0a!
0b!
0c!
0d!
0e!
0f!
0g!
0h!
0i!
0j!
0k!
0l!
0o!
b0000000000000000000000000000000000000000000000000000000000000101 p!
b11111111111101111111111111001010 b"
b00000000000000000000000000000000 c"
b00000000000000001100000000010001 e"
b11111111111101111111111111001010 j"
b11111111111101111111111111001010 k"
b11111111111101111111111111001010 l"
b00000000000000000000000000000000 o"
1r"
1>#
0I#
b11111111111101111111111111001010 b#
b00000000000000000000000000000000 c#
b00000000000000000000000000000000 d#
b00000 e#
1h#
0r#
b00000000000000000000000000000000 #$
b00000000000000001100000000010001 V$
0W$
b00000000000000001100000000010001 Z$
b00001000 [$
b01 k$
1p$
1s$
1t$
b00000000000000001100000000010001 x$
1z$
b00000000000000001100000000010001 }$
b00000000000000000000000000000000 ~$
b110 !%
b01 "%
b00000000000000001100000000010001 &%
1)%
b00000110 *%
b00000110 +%
b00000000000000001100000000010001 .%
10%
11%
#85
0S
0e
0t$
0z$
0)%
00%
01%
