riscv_formal_verification/picorv32/rvfi_valid_sh_new.vcd
$date Mon Feb 25 16:27:47 2019
 $end
$version JasperGold $end
$timescale 1 ns $end
$scope module rvfi_testbench $end
$scope module wrapper $end
$scope module uut $end
$scope module pcpi_div $end
$var wire 1 ! pcpi_valid $end
$var wire 32 " pcpi_insn [31:0] $end
$var wire 32 # pcpi_rs1 [31:0] $end
$var wire 32 $ pcpi_rs2 [31:0] $end
$var wire 1 % instr_any_div_rem $end
$var reg 1 & pcpi_wr $end
$var reg 32 ' pcpi_rd [31:0] $end
$var reg 1 ( pcpi_wait $end
$var reg 1 ) pcpi_ready $end
$var reg 1 * instr_div $end
$var reg 1 + instr_divu $end
$var reg 1 , instr_rem $end
$var reg 1 - instr_remu $end
$var reg 1 . pcpi_wait_q $end
$var wire 1 / start $end
$var reg 32 0 quotient_msk [31:0] $end
$var reg 1 1 running $end
$var wire 1 2 \:X_3 $end
$var wire 1 3 \:X_4 $end
$var wire 1 4 \:X_0 $end
$var wire 1 5 \:X_1 $end
$var wire 1 6 \:X_2 $end
$var wire 1 7 \:X_5 $end
$var wire 1 8 \:X_6 $end
$var wire 1 9 \:X_7 $end
$var wire 1 : \:X_8 $end
$var wire 1 ; \:X_9 $end
$var wire 1 < \:X_10 $end
$var wire 1 = \:X_11 $end
$var wire 1 > \:X_12 $end
$var wire 1 ? \:X_13 $end
$var wire 1 @ \:X_14 $end
$var wire 1 A \:X_15 $end
$var wire 1 B \:X_16 $end
$var wire 1 C \:X_17 $end
$var wire 1 D \:X_18 $end
$var wire 1 E \:X_19 $end
$var wire 1 F \:X_20 $end
$var wire 1 G \:X_21 $end
$var wire 1 H \:X_22 $end
$var wire 1 I \:X_23 $end
$var wire 1 J \:X_24 $end
$var wire 1 K \:X_25 $end
$var wire 1 L \:X_26 $end
$var wire 1 M \:X_27 $end
$var wire 1 N \:X_28 $end
$var wire 1 O \:X_29 $end
$var wire 1 P \:X_30 $end
$var wire 1 Q \:X_31 $end
$var wire 1 R resetn $end
$var wire 1 S clk $end
$upscope $end
$scope module pcpi_mul $end
$var wire 1 T resetn $end
$var wire 1 U pcpi_valid $end
$var wire 32 V pcpi_insn [31:0] $end
$var wire 32 W pcpi_rs1 [31:0] $end
$var wire 32 X pcpi_rs2 [31:0] $end
$var wire 1 Y instr_any_mul $end
$var wire 1 Z pcpi_wr $end
$var wire 32 [ pcpi_rd [31:0] $end
$var wire 1 \ pcpi_wait $end
$var wire 1 ] pcpi_ready $end
$var wire 1 ^ instr_mul $end
$var wire 1 _ instr_mulh $end
$var wire 1 ` instr_mulhsu $end
$var wire 1 a instr_mulhu $end
$var reg 4 b active [3:0] $end
$var wire 1 c pcpi_insn_valid $end
$var wire 1 d \:X_3556 $end
$var wire 1 e clk $end
$upscope $end
$var wire 1 f \:X_40 $end
$var wire 1 g \:X_41 $end
$var wire 1 h \:X_42 $end
$var wire 1 i \:X_43 $end
$var wire 1 j \:X_44 $end
$var wire 1 k \:X_45 $end
$var wire 1 l \:X_46 $end
$var wire 1 m \:X_47 $end
$var wire 1 n \:X_48 $end
$var wire 1 o \:X_49 $end
$var wire 1 p \:X_50 $end
$var wire 1 q \:X_51 $end
$var wire 1 r \:X_52 $end
$var wire 1 s \:X_53 $end
$var wire 1 t \:X_54 $end
$var wire 1 u \:X_55 $end
$var wire 1 v \:X_56 $end
$var wire 1 w \:X_57 $end
$var wire 1 x \:X_58 $end
$var wire 1 y \:X_59 $end
$var wire 1 z \:X_60 $end
$var wire 1 { \:X_61 $end
$var wire 1 | \:X_62 $end
$var wire 1 } \:X_63 $end
$var wire 32 ~ mem_rdata [31:0] $end
$var wire 1 !! mem_la_read $end
$var reg 1 "! pcpi_valid $end
$var reg 32 #! pcpi_insn [31:0] $end
$var wire 32 $! pcpi_rs1 [31:0] $end
$var wire 32 %! pcpi_rs2 [31:0] $end
$var reg 1 &! rvfi_valid $end
$var reg 32 '! rvfi_insn [31:0] $end
$var reg 1 (! is_lui_auipc_jal_jalr_addi_add_sub $end
$var reg 1 )! is_slti_blt_slt $end
$var reg 1 *! is_sltiu_bltu_sltu $end
$var reg 1 +! is_beq_bne_blt_bge_bltu_bgeu $end
$var reg 1 ,! is_lbu_lhu_lw $end
$var reg 1 -! is_alu_reg_imm $end
$var reg 1 .! is_alu_reg_reg $end
$var reg 1 /! is_compare $end
$var wire 1 0! is_rdcycle_rdcycleh_rdinstr_rdinstrh $end
$var reg 32 1! q_insn_opcode [31:0] $end
$var reg 1 2! dbg_next $end
$var wire 1 3! launch_next_insn $end
$var reg 1 4! dbg_valid_insn $end
$var wire 1 5! \:X_220 $end
$var wire 1 6! \:X_221 $end
$var wire 1 7! \:X_222 $end
$var wire 1 8! \:X_223 $end
$var wire 1 9! \:X_224 $end
$var wire 1 :! \:X_225 $end
$var wire 1 ;! \:X_226 $end
$var wire 1 <! \:X_227 $end
$var wire 1 =! \:X_228 $end
$var wire 1 >! \:X_229 $end
$var wire 1 ?! \:X_230 $end
$var wire 1 @! \:X_231 $end
$var wire 1 A! \:X_232 $end
$var wire 1 B! \:X_233 $end
$var wire 1 C! \:X_479 $end
$var wire 1 D! \:X_478 $end
$var wire 1 E! \:X_477 $end
$var wire 1 F! \:X_476 $end
$var wire 1 G! \:X_475 $end
$var wire 1 H! \:X_474 $end
$var wire 1 I! \:X_473 $end
$var wire 1 J! \:X_472 $end
$var wire 1 K! \:X_471 $end
$var wire 1 L! \:X_470 $end
$var wire 1 M! \:X_469 $end
$var wire 1 N! \:X_468 $end
$var wire 1 O! \:X_467 $end
$var wire 1 P! \:X_466 $end
$var wire 1 Q! \:X_465 $end
$var wire 1 R! \:X_464 $end
$var wire 1 S! \:X_463 $end
$var wire 1 T! \:X_462 $end
$var wire 1 U! \:X_461 $end
$var reg 32 V! cached_insn_opcode [31:0] $end
$var reg 8 W! cpu_state [7:0] $end
$var reg 2 X! irq_state [1:0] $end
$var reg 1 Y! latched_store $end
$var reg 1 Z! latched_stalu $end
$var reg 1 [! latched_branch $end
$var reg 1 \! latched_compr $end
$var reg 1 ]! latched_is_lu $end
$var reg 1 ^! latched_is_lh $end
$var reg 1 _! latched_is_lb $end
$var reg 5 `! latched_rd [4:0] $end
$var reg 4 a! pcpi_timeout_counter [3:0] $end
$var wire 32 b! alu_add_sub [31:0] $end
$var wire 32 c! alu_shl [31:0] $end
$var wire 32 d! alu_shr [31:0] $end
$var wire 1 e! alu_eq $end
$var wire 1 f! alu_ltu $end
$var wire 1 g! alu_lts $end
$var reg 1 h! clear_prefetched_high_word_q $end
$var wire 1 i! cpuregs_write $end
$var wire 32 j! cpuregs_wrdata [31:0] $end
$var reg 1 k! mem_la_firstword_reg $end
$var reg 1 l! last_mem_valid $end
$var wire 1 m! mem_la_firstword $end
$var wire 32 n! next_pc [31:0] $end
$var reg 32 o! \cpuregs[0] [31:0] $end
$var reg 32 p! \cpuregs[1] [31:0] $end
$var reg 32 q! \cpuregs[2] [31:0] $end
$var reg 32 r! \cpuregs[3] [31:0] $end
$var reg 32 s! \cpuregs[4] [31:0] $end
$var reg 32 t! \cpuregs[5] [31:0] $end
$var reg 32 u! \cpuregs[6] [31:0] $end
$var reg 32 v! \cpuregs[7] [31:0] $end
$var reg 32 w! \cpuregs[8] [31:0] $end
$var reg 32 x! \cpuregs[9] [31:0] $end
$var reg 32 y! \cpuregs[10] [31:0] $end
$var reg 32 z! \cpuregs[11] [31:0] $end
$var reg 32 {! \cpuregs[12] [31:0] $end
$var reg 32 |! \cpuregs[13] [31:0] $end
$var reg 32 }! \cpuregs[14] [31:0] $end
$var reg 32 ~! \cpuregs[15] [31:0] $end
$var reg 32 !" \cpuregs[16] [31:0] $end
$var reg 32 "" \cpuregs[17] [31:0] $end
$var wire 1 #" resetn $end
$var reg 1 $" trap $end
$var reg 1 %" mem_valid $end
$var wire 1 &" mem_ready $end
$var reg 1 '" instr_rdcycleh $end
$var reg 1 (" instr_rdinstr $end
$var reg 1 )" instr_rdinstrh $end
$var reg 1 *" instr_ecall_ebreak $end
$var reg 1 +" instr_getq $end
$var reg 1 ," instr_setq $end
$var reg 1 -" instr_retirq $end
$var reg 1 ." instr_maskirq $end
$var reg 1 /" instr_waitirq $end
$var reg 1 0" instr_timer $end
$var wire 1 1" instr_trap $end
$var reg 5 2" decoded_rd [4:0] $end
$var reg 5 3" decoded_rs1 [4:0] $end
$var reg 5 4" decoded_rs2 [4:0] $end
$var reg 32 5" decoded_imm [31:0] $end
$var reg 32 6" decoded_imm_uj [31:0] $end
$var reg 1 7" decoder_trigger $end
$var reg 1 8" decoder_trigger_q $end
$var reg 1 9" decoder_pseudo_trigger $end
$var wire 1 :" \:X_234 $end
$var wire 1 ;" \:X_235 $end
$var wire 1 <" \:X_236 $end
$var wire 1 =" \:X_237 $end
$var wire 1 >" \:X_238 $end
$var wire 1 ?" \:X_239 $end
$var wire 1 @" \:X_240 $end
$var wire 1 A" \:X_241 $end
$var wire 1 B" \:X_242 $end
$var wire 1 C" \:X_243 $end
$var wire 1 D" \:X_244 $end
$var wire 1 E" \:X_245 $end
$var wire 1 F" \:X_246 $end
$var wire 1 G" \:X_247 $end
$var wire 1 H" \:X_248 $end
$var wire 1 I" \:X_249 $end
$var wire 1 J" \:X_250 $end
$var wire 1 K" \:X_251 $end
$var wire 1 L" \:X_252 $end
$var wire 1 M" \:X_253 $end
$var wire 1 N" \:X_254 $end
$var wire 1 O" \:X_255 $end
$var wire 1 P" \:X_256 $end
$var reg 32 Q" \cpuregs[18] [31:0] $end
$var reg 32 R" \cpuregs[19] [31:0] $end
$var reg 32 S" \cpuregs[20] [31:0] $end
$var reg 32 T" \cpuregs[21] [31:0] $end
$var reg 32 U" \cpuregs[22] [31:0] $end
$var reg 32 V" \cpuregs[23] [31:0] $end
$var reg 32 W" \cpuregs[24] [31:0] $end
$var reg 32 X" \cpuregs[25] [31:0] $end
$var reg 32 Y" \cpuregs[26] [31:0] $end
$var reg 32 Z" \cpuregs[27] [31:0] $end
$var reg 32 [" \cpuregs[28] [31:0] $end
$var reg 32 \" \cpuregs[29] [31:0] $end
$var reg 32 ]" \cpuregs[30] [31:0] $end
$var reg 32 ^" \cpuregs[31] [31:0] $end
$var wire 1 _" pcpi_mul_wr $end
$var wire 32 `" pcpi_mul_rd [31:0] $end
$var wire 1 a" pcpi_mul_wait $end
$var wire 1 b" pcpi_mul_ready $end
$var wire 1 c" pcpi_div_wr $end
$var wire 32 d" pcpi_div_rd [31:0] $end
$var wire 1 e" pcpi_div_wait $end
$var wire 1 f" pcpi_div_ready $end
$var wire 1 g" pcpi_int_wr $end
$var wire 32 h" pcpi_int_rd [31:0] $end
$var wire 1 i" pcpi_int_wait $end
$var wire 1 j" pcpi_int_ready $end
$var reg 2 k" mem_state [1:0] $end
$var wire 32 l" cpuregs_rs1 [31:0] $end
$var wire 32 m" cpuregs_rs2 [31:0] $end
$var wire 1 n" \:X_32 $end
$var wire 1 o" \:X_33 $end
$var wire 1 p" \:X_34 $end
$var wire 1 q" \:X_35 $end
$var wire 1 r" \:X_36 $end
$var wire 1 s" \:X_37 $end
$var wire 1 t" \:X_38 $end
$var wire 1 u" \:X_39 $end
$var wire 1 v" \:X_492 $end
$var wire 1 w" \:X_491 $end
$var wire 1 x" \:X_490 $end
$var wire 1 y" \:X_489 $end
$var wire 1 z" \:X_488 $end
$var wire 1 {" \:X_487 $end
$var wire 1 |" \:X_486 $end
$var wire 1 }" \:X_485 $end
$var wire 1 ~" \:X_484 $end
$var wire 1 !# \:X_483 $end
$var wire 1 "# \:X_482 $end
$var wire 1 ## \:X_481 $end
$var wire 1 $# \:X_480 $end
$var wire 1 %# \:X_357 $end
$var wire 1 &# \:X_358 $end
$var wire 1 '# \:X_359 $end
$var wire 1 (# \:X_360 $end
$var wire 1 )# \:X_361 $end
$var wire 1 *# \:X_362 $end
$var wire 1 +# \:X_363 $end
$var reg 2 ,# mem_wordsize [1:0] $end
$var wire 32 -# mem_rdata_word [31:0] $end
$var reg 32 .# mem_rdata_q [31:0] $end
$var reg 1 /# mem_do_prefetch $end
$var reg 1 0# mem_do_rinst $end
$var reg 1 1# mem_do_rdata $end
$var reg 1 2# mem_do_wdata $end
$var wire 1 3# mem_xfer $end
$var reg 1 4# mem_la_secondword $end
$var reg 1 5# pcpi_timeout $end
$var reg 1 6# do_waitirq $end
$var wire 32 7# alu_out [31:0] $end
$var reg 32 8# alu_out_q [31:0] $end
$var wire 1 9# alu_out_0 $end
$var reg 1 :# prefetched_high_word $end
$var wire 1 ;# clear_prefetched_high_word $end
$var reg 16 <# mem_16bit_buffer [15:0] $end
$var wire 32 =# mem_rdata_latched_noshuffle [31:0] $end
$var wire 32 ># mem_rdata_latched [31:0] $end
$var wire 1 ?# mem_la_use_prefetched_high_word $end
$var wire 1 @# mem_done $end
$var reg 1 A# instr_lui $end
$var reg 1 B# instr_auipc $end
$var reg 1 C# instr_jal $end
$var reg 1 D# instr_jalr $end
$var reg 1 E# instr_beq $end
$var wire 1 F# \:X_364 $end
$var wire 1 G# \:X_365 $end
$var wire 1 H# \:X_366 $end
$var wire 1 I# \:X_367 $end
$var wire 1 J# \:X_368 $end
$var wire 1 K# \:X_369 $end
$var wire 1 L# \:X_370 $end
$var wire 1 M# \:X_371 $end
$var wire 1 N# \:X_372 $end
$var wire 1 O# \:X_373 $end
$var wire 1 P# \:X_374 $end
$var wire 1 Q# \:X_375 $end
$var wire 1 R# \:X_376 $end
$var wire 1 S# \:X_377 $end
$var wire 1 T# \:X_378 $end
$var wire 1 U# \:X_379 $end
$var wire 1 V# \:X_380 $end
$var wire 1 W# \:X_381 $end
$var wire 1 X# \:X_382 $end
$var wire 1 Y# \:X_383 $end
$var wire 1 Z# \:X_384 $end
$var wire 1 [# \:X_385 $end
$var wire 1 \# \:X_386 $end
$var wire 1 ]# \:X_387 $end
$var wire 1 ^# \:X_388 $end
$var wire 1 _# \:X_389 $end
$var wire 1 `# \:X_390 $end
$var wire 1 a# \:X_391 $end
$var wire 1 b# \:X_392 $end
$var wire 1 c# \:X_393 $end
$var wire 1 d# \:X_394 $end
$var wire 1 e# \:X_395 $end
$var wire 1 f# \:X_396 $end
$var wire 1 g# \:X_397 $end
$var wire 1 h# \:X_398 $end
$var wire 1 i# \:X_399 $end
$var wire 1 j# \:X_400 $end
$var wire 1 k# \:X_401 $end
$var reg 1 l# decoder_pseudo_trigger_q $end
$var reg 1 m# compressed_instr $end
$var reg 1 n# is_lui_auipc_jal $end
$var reg 1 o# is_lb_lh_lw_lbu_lhu $end
$var reg 1 p# is_slli_srli_srai $end
$var reg 1 q# is_jalr_addi_slti_sltiu_xori_ori_andi $end
$var reg 1 r# is_sb_sh_sw $end
$var wire 1 s# \:X_64 $end
$var wire 1 t# \:X_129 $end
$var wire 1 u# \:X_130 $end
$var wire 1 v# \:X_131 $end
$var wire 1 w# \:X_132 $end
$var wire 1 x# \:X_133 $end
$var wire 1 y# \:X_134 $end
$var wire 1 z# \:X_135 $end
$var wire 1 {# \:X_136 $end
$var wire 1 |# \:X_137 $end
$var wire 1 }# \:X_138 $end
$var wire 1 ~# \:X_139 $end
$var wire 1 !$ \:X_140 $end
$var wire 1 "$ \:X_141 $end
$var wire 1 #$ \:X_142 $end
$var wire 1 $$ \:X_143 $end
$var wire 1 %$ \:X_144 $end
$var wire 1 &$ \:X_145 $end
$var wire 1 '$ \:X_146 $end
$var wire 1 ($ \:X_147 $end
$var wire 1 )$ \:X_148 $end
$var wire 1 *$ \:X_149 $end
$var wire 1 +$ \:X_150 $end
$var wire 1 ,$ \:X_151 $end
$var wire 1 -$ \:X_152 $end
$var wire 1 .$ \:X_153 $end
$var wire 1 /$ \:X_154 $end
$var wire 1 0$ \:X_155 $end
$var wire 1 1$ \:X_156 $end
$var wire 1 2$ \:X_157 $end
$var wire 1 3$ \:X_158 $end
$var wire 1 4$ \:X_159 $end
$var wire 1 5$ \:X_160 $end
$var wire 1 6$ \:X_402 $end
$var wire 1 7$ \:X_403 $end
$var wire 1 8$ \:X_404 $end
$var wire 1 9$ \:X_405 $end
$var wire 1 :$ \:X_406 $end
$var wire 1 ;$ \:X_407 $end
$var wire 1 <$ \:X_408 $end
$var wire 1 =$ \:X_409 $end
$var wire 1 >$ \:X_410 $end
$var wire 1 ?$ \:X_411 $end
$var wire 1 @$ \:X_412 $end
$var wire 1 A$ \:X_413 $end
$var wire 1 B$ \:X_414 $end
$var wire 1 C$ \:X_415 $end
$var wire 1 D$ \:X_416 $end
$var wire 1 E$ \:X_417 $end
$var wire 1 F$ \:X_418 $end
$var wire 1 G$ \:X_419 $end
$var wire 1 H$ \:X_420 $end
$var reg 64 I$ count_cycle [63:0] $end
$var reg 64 J$ count_instr [63:0] $end
$var reg 32 K$ reg_pc [31:0] $end
$var reg 32 L$ reg_next_pc [31:0] $end
$var reg 32 M$ reg_op1 [31:0] $end
$var reg 32 N$ reg_op2 [31:0] $end
$var reg 32 O$ reg_out [31:0] $end
$var reg 5 P$ reg_sh [4:0] $end
$var reg 32 Q$ next_insn_opcode [31:0] $end
$var wire 32 R$ dbg_insn_opcode [31:0] $end
$var reg 1 S$ instr_bne $end
$var reg 1 T$ instr_blt $end
$var reg 1 U$ instr_bge $end
$var reg 1 V$ instr_bltu $end
$var reg 1 W$ instr_bgeu $end
$var reg 1 X$ instr_lb $end
$var reg 1 Y$ instr_lh $end
$var reg 1 Z$ instr_lw $end
$var reg 1 [$ instr_lbu $end
$var reg 1 \$ instr_lhu $end
$var reg 1 ]$ instr_sb $end
$var reg 1 ^$ instr_sh $end
$var reg 1 _$ instr_sw $end
$var reg 1 `$ instr_addi $end
$var reg 1 a$ instr_slti $end
$var reg 1 b$ instr_sltiu $end
$var reg 1 c$ instr_xori $end
$var reg 1 d$ instr_ori $end
$var reg 1 e$ instr_andi $end
$var reg 1 f$ instr_slli $end
$var reg 1 g$ instr_srli $end
$var reg 1 h$ instr_srai $end
$var reg 1 i$ instr_add $end
$var reg 1 j$ instr_sub $end
$var reg 1 k$ instr_sll $end
$var reg 1 l$ instr_slt $end
$var reg 1 m$ instr_sltu $end
$var reg 1 n$ instr_xor $end
$var reg 1 o$ instr_srl $end
$var reg 1 p$ instr_sra $end
$var reg 1 q$ instr_or $end
$var reg 1 r$ instr_and $end
$var reg 1 s$ instr_rdcycle $end
$var wire 1 t$ clk $end
$upscope $end
$var wire 1 u$ mem_ready $end
$var wire 32 v$ mem_rdata [31:0] $end
$var wire 1 w$ reset $end
$var wire 1 x$ rvfi_valid $end
$var wire 32 y$ rvfi_insn [31:0] $end
$var wire 1 z$ clock $end
$upscope $end
$scope module checker_inst $end
$scope module insn_spec $end
$var wire 1 {$ spec_valid $end
$var wire 32 |$ insn_padding [31:0] $end
$var wire 3 }$ insn_funct3 [2:0] $end
$var wire 7 ~$ insn_opcode [6:0] $end
$var wire 1 !% rvfi_valid $end
$var wire 32 "% rvfi_insn [31:0] $end
$upscope $end
$var wire 1 #% reset $end
$var wire 1 $% valid $end
$var wire 1 %% check $end
$var wire 1 &% rvfi_valid $end
$var wire 32 '% rvfi_insn [31:0] $end
$var wire 1 (% spec_valid $end
$var wire 1 )% clock $end
$upscope $end
$var reg 8 *% cycle_reg [7:0] $end
$var wire 8 +% cycle [7:0] $end
$var wire 32 ,% rvfi_insn [31:0] $end
$var wire 1 -% rvfi_valid $end
$var wire 1 .% reset $end
$var wire 1 /% \:jasper_formal_reset $end
$var wire 1 0% clock $end
$var wire 1 1% \:jasper_formal_clock $end
$upscope $end
$enddefinitions $end
#0
10%
1.%
b00000000 +%
#5
00%
#10
10%
b00000001 *%
#15
00%
#20
10%
#25
00%
#30
0!
b00000010000000000100000000110011 "
b11111111111111111111110000010011 #
b00000000000000000000001111110101 $
0%
0&
b00000000000000000000000000000000 '
0(
0)
0*
0+
0,
0-
0.
0/
b00000000000000000000000000000000 0
01
02
03
04
05
06
07
08
09
0:
0;
0<
0=
0>
0?
0@
0A
0B
0C
0D
0E
0F
0G
0H
0I
0J
0K
0L
0M
0N
0O
0P
0Q
1R
1S
1T
0U
b00000010000000000100000000110011 V
b11111111111111111111110000010011 W
b00000000000000000000001111110101 X
0Y
0Z
b00000000000000000000000000000000 [
0\
0]
0^
0_
0`
0a
b0000 b
0c
0d
1e
0f
0g
0h
0i
0j
0k
0l
0m
0n
0o
0p
0q
0r
0s
0t
0u
0v
0w
0x
0y
0z
0{
0|
0}
b00000000000000000000000000000000 ~
0!!
0"!
b00000010000000000100000000110011 #!
b11111111111111111111110000010011 $!
b00000000000000000000001111110101 %!
0&!
b10000010000011111001111110001011 '!
0(!
0)!
0*!
0+!
0,!
0-!
1.!
0/!
10!
b10000010000011111001111110001011 1!
02!
03!
04!
15!
16!
17!
18!
19!
0:!
0;!
0<!
0=!
0>!
0?!
0@!
0A!
0B!
0C!
0D!
0E!
0F!
0G!
0H!
0I!
0J!
0K!
0L!
0M!
0N!
0O!
0P!
0Q!
0R!
0S!
0T!
0U!
b00000000000000000000000000000000 V!
b01000000 W!
b00 X!
0Y!
0Z!
0[!
0\!
0]!
0^!
0_!
b00010 `!
b1111 a!
b00000000000000000000000000001000 b!
b10000010011000000000000000000000 c!
b00000000000000000000011111111111 d!
0e!
0f!
1g!
1h!
0i!
b11111111111111111111111111111111 j!
0k!
0l!
0m!
b00000000000000000000000000000000 n!
b00000000000000000000000000000000 o!
b00000000000000000000000000000000 p!
b00000000000000000000000000000000 q!
b00000000000000000000000000000000 r!
b00000000000000000000000000000000 s!
b00000000000000000000000000000000 t!
b00000000000000000000000000000000 u!
b00000000000000000000000000000000 v!
b00000000000000000000000000000000 w!
b00000000000000000000000000000000 x!
b00000000000000000000000000000000 y!
b00000000000000000000000000000000 z!
b00000000000000000000000000000000 {!
b00000000000000000000000000000000 |!
b00000000000000000000000000000000 }!
b00000000000000000000000000000000 ~!
b00000000000000000000000000000000 !"
b00000000000000000000000000000000 ""
1#"
0$"
0%"
0&"
0'"
0("
1)"
0*"
0+"
0,"
0-"
0."
0/"
00"
01"
b11111 2"
b11111 3"
b10110 4"
b00000000000000000000001111101111 5"
b10000000010000000000000000100000 6"
07"
08"
09"
0:"
0;"
0<"
0="
0>"
0?"
0@"
0A"
0B"
0C"
0D"
0E"
0F"
0G"
0H"
0I"
0J"
0K"
0L"
0M"
0N"
0O"
0P"
b00000000000000000000000000000000 Q"
b00000000000000000000000000000000 R"
b00000000000000000000000000000000 S"
b00000000000000000000000000000000 T"
b10000000000000000000000000000000 U"
b00000000000000000000000000000000 V"
b00000000000000000000000000000000 W"
b00000000000000000000000000000000 X"
b00000000000000000000000000000000 Y"
b00000000000000000000000000000000 Z"
b00000000000000000000000000000000 ["
b00000000000000000000000000000000 \"
b00000000000000000000000000000000 ]"
b00000000000000000000000000000000 ^"
0_"
b00000000000000000000000000000000 `"
0a"
0b"
0c"
b00000000000000000000000000000000 d"
0e"
0f"
0g"
b00000000000000000000000000000000 h"
0i"
0j"
b00 k"
b00000000000000000000000000000000 l"
b10000000000000000000000000000000 m"
0n"
0o"
0p"
0q"
0r"
0s"
0t"
0u"
0v"
0w"
0x"
0y"
0z"
0{"
0|"
0}"
0~"
0!#
0"#
0##
0$#
0%#
0&#
0'#
0(#
0)#
0*#
0+#
b11 ,#
b00000000000000000000000000000000 -#
b10000000010000000000111000000000 .#
0/#
00#
01#
02#
03#
04#
05#
06#
b00000000000000000000000000000000 7#
b00000000000000000000000000000000 8#
09#
0:#
0;#
b0000000000000000 <#
b10000000010000000000111000000000 =#
b10000000010000000000111000000000 >#
0?#
0@#
1A#
0B#
1C#
0D#
0E#
0F#
0G#
0H#
0I#
0J#
0K#
1L#
0M#
0N#
0O#
0P#
0Q#
0R#
0S#
0T#
0U#
0V#
0W#
0X#
0Y#
0Z#
0[#
0\#
0]#
1^#
0_#
0`#
0a#
0b#
0c#
0d#
0e#
0f#
0g#
1h#
0i#
0j#
0k#
0l#
0m#
1n#
0o#
1p#
1q#
0r#
0s#
1t#
1u#
1v#
1w#
1x#
1y#
1z#
1{#
1|#
1}#
1~#
1!$
1"$
1#$
1$$
1%$
1&$
1'$
1($
1)$
1*$
1+$
1,$
1-$
1.$
1/$
10$
11$
12$
13$
14$
15$
06$
07$
08$
09$
0:$
1;$
0<$
0=$
0>$
1?$
1@$
1A$
1B$
0C$
1D$
1E$
1F$
1G$
0H$
b0000000000000000000000000000000000000000000000000000000000000000 I$
b0000000000000000000000000000000000000000000000000000000000000000 J$
b00000000000000000000000000000000 K$
b00000000000000000000000000000000 L$
b11111111111111111111110000010011 M$
b00000000000000000000001111110101 N$
b00000000000000000000000000000000 O$
b11111 P$
b11111111111111110000000000000011 Q$
b10000010000011111001111110001011 R$
0S$
0T$
0U$
0V$
0W$
0X$
0Y$
0Z$
0[$
0\$
0]$
0^$
0_$
0`$
0a$
0b$
0c$
0d$
0e$
0f$
0g$
0h$
0i$
0j$
0k$
0l$
0m$
0n$
0o$
0p$
0q$
0r$
0s$
1t$
0u$
b00000000000000000000000000000000 v$
0w$
0x$
b10000010000011111001111110001011 y$
1z$
0{$
b00000000000000000000000000000000 |$
b001 }$
b0001011 ~$
0!%
b10000010000011111001111110001011 "%
0#%
0$%
0%%
0&%
b10000010000011111001111110001011 '%
0(%
1)%
b00000001 *%
b00000001 +%
b10000010000011111001111110001011 ,%
0-%
0.%
0/%
10%
11%
#35
0S
0e
0t$
0z$
0)%
00%
01%
#40
1S
1e
b00000000000000000000000000000011 ~
1!!
1(!
b11111 `!
0h!
b00 ,#
b00000000000000000000000000000011 -#
10#
b00000000000000000000000000001000 7#
0L#
0^#
0h#
0;$
1C$
1H$
b0000000000000000000000000000000000000000000000000000000000000001 I$
1t$
b00000000000000000000000000000011 v$
1z$
1)%
b00000010 *%
b00000010 +%
10%
11%
#45
0S
0e
0t$
0z$
0)%
00%
01%
#50
1S
1e
b00000010000000001010000100100001 ~
0!!
b11111011111111111111111111111111 j!
1%"
1&"
b01 k"
b00000010000000001010000100100001 -#
13#
b00000000000000000000000000001000 8#
b00000010000000001010000100100001 =#
b00000010000000001010000100100001 >#
1@#
0y#
b0000000000000000000000000000000000000000000000000000000000000010 I$
1t$
1u$
b00000010000000001010000100100001 v$
1z$
1)%
b00000011 *%
b00000011 +%
10%
11%
#55
0S
0e
0t$
0z$
0)%
00%
01%
#60
1S
1e
b00000000000000000000000000000000 ~
0.!
13!
b11111111111111111111111111111111 j!
0%"
b00000 2"
b00000 3"
b00000 4"
b00000000000000000000010000001000 6"
17"
1H"
b00 k"
b00000000000000000000000000000000 m"
b00000000000000000000000000000000 -#
b00000010000000001010000100100001 .#
00#
03#
1:#
b0000001000000000 <#
0@#
0A#
1m#
1y#
0D$
b0000000000000000000000000000000000000000000000000000000000000011 I$
b00000010000000001010000100100001 Q$
1t$
b00000000000000000000000000000000 v$
1z$
1)%
b00000100 *%
b00000100 +%
10%
11%
#65
0S
0e
0t$
0z$
0)%
00%
01%
#70
b00000010000000001010000100100001 "
1S
b00000010000000001010000100100001 V
1e
1!!
b00000010000000001010000100100001 #!
0(!
00!
12!
03!
14!
1[!
1\!
b00000 `!
1i!
b00000000000000000000000000000010 j!
b00000000000000000000010000001000 n!
0&"
0)"
b00000000000000000000010000001000 5"
07"
18"
0H"
10#
b00000000000000000000000000000000 7#
1;#
0p#
0q#
0t#
0u#
0v#
0w#
0x#
0y#
0z#
0{#
0|#
0}#
0~#
0!$
0"$
0#$
0$$
0%$
0&$
0'$
0($
0)$
0*$
0+$
0,$
0-$
0.$
0/$
00$
01$
02$
03$
04$
05$
0?$
0@$
0A$
0B$
0C$
0E$
0F$
0G$
0H$
b0000000000000000000000000000000000000000000000000000000000000100 I$
b0000000000000000000000000000000000000000000000000000000000000001 J$
b00000000000000000000010000001000 L$
b00000000000000000000000100000000 O$
b00000000000000001010000100100001 R$
1t$
0u$
1z$
1)%
b00000101 *%
b00000101 +%
10%
11%
#75
0S
0e
0t$
0z$
0)%
00%
01%
#80
1S
1e
b00000000000000001000010001111111 ~
0!!
b00000000000000001010000100100001 '!
1(!
b00000000000000001010000100100001 1!
02!
b00000000000000001010000100100001 V!
0[!
1h!
0i!
b00000000000000000000000000000000 j!
1%"
1&"
08"
b01 k"
b00000000000000001000010001111111 -#
13#
b00000000000000000000000000001000 7#
b00000000000000000000000000000000 8#
0:#
0;#
b00000000000000001000010001111111 =#
b00000000000000001000010001111111 >#
1@#
b0000000000000000000000000000000000000000000000000000000000000101 I$
b00000000000000000000010000001000 K$
b00000000000000000000000000000000 O$
1t$
1u$
b00000000000000001000010001111111 v$
b00000000000000001010000100100001 y$
1z$
b010 }$
b0100001 ~$
b00000000000000001010000100100001 "%
b00000000000000001010000100100001 '%
1)%
b00000110 *%
b00000110 +%
b00000000000000001010000100100001 ,%
10%
11%
#85
0S
0e
0t$
0z$
0)%
00%
01%
#90
1S
1e
b00000010000000000000000000000000 ~
13!
0h!
0%"
11"
b01000 2"
b00001 3"
b00000000000000001000000000000000 6"
17"
b00 k"
b00000010000000000000000000000000 -#
b00000000000000001000010001111111 .#
00#
03#
b00000000000000000000000000001000 8#
0@#
0C#
0m#
b0000000000000000000000000000000000000000000000000000000000000110 I$
b00000000000000001000010001111111 Q$
1t$
b00000010000000000000000000000000 v$
1z$
1)%
b00000111 *%
b00000111 +%
10%
11%
#95
0S
0e
0t$
0z$
0)%
00%
01%
