riscv_formal_verification/picorv32/rvfi_valid_div_new.vcd
$date Mon Feb 25 13:53:36 2019
 $end
$version JasperGold $end
$timescale 1 ns $end
$scope module rvfi_testbench $end
$scope module wrapper $end
$scope module uut $end
$scope module pcpi_div $end
$var wire 1 ! \:X_0 $end
$var wire 1 " \:X_1 $end
$var wire 1 # \:X_2 $end
$var wire 1 $ \:X_5 $end
$var wire 1 % \:X_6 $end
$var wire 1 & \:X_7 $end
$var wire 1 ' \:X_8 $end
$var wire 1 ( \:X_9 $end
$var wire 1 ) \:X_10 $end
$var wire 1 * \:X_11 $end
$var wire 1 + \:X_12 $end
$var wire 1 , \:X_13 $end
$var wire 1 - \:X_14 $end
$var wire 1 . \:X_15 $end
$var wire 1 / \:X_16 $end
$var wire 1 0 \:X_17 $end
$var wire 1 1 \:X_18 $end
$var wire 1 2 \:X_19 $end
$var wire 1 3 \:X_20 $end
$var wire 1 4 \:X_21 $end
$var wire 1 5 \:X_22 $end
$var wire 1 6 \:X_23 $end
$var wire 1 7 \:X_24 $end
$var wire 1 8 \:X_25 $end
$var wire 1 9 \:X_26 $end
$var wire 1 : \:X_27 $end
$var wire 1 ; \:X_28 $end
$var wire 1 < \:X_29 $end
$var wire 1 = \:X_30 $end
$var wire 1 > \:X_31 $end
$var wire 1 ? resetn $end
$var wire 1 @ pcpi_valid $end
$var wire 32 A pcpi_insn [31:0] $end
$var wire 32 B pcpi_rs1 [31:0] $end
$var wire 32 C pcpi_rs2 [31:0] $end
$var wire 1 D instr_any_div_rem $end
$var reg 1 E pcpi_wr $end
$var reg 32 F pcpi_rd [31:0] $end
$var reg 1 G pcpi_wait $end
$var reg 1 H pcpi_ready $end
$var reg 1 I instr_div $end
$var reg 1 J instr_divu $end
$var reg 1 K instr_rem $end
$var reg 1 L instr_remu $end
$var reg 1 M pcpi_wait_q $end
$var wire 1 N start $end
$var reg 32 O quotient_msk [31:0] $end
$var reg 1 P running $end
$var wire 1 Q \:X_3 $end
$var wire 1 R \:X_4 $end
$var wire 1 S clk $end
$upscope $end
$scope module pcpi_mul $end
$var wire 1 T resetn $end
$var wire 1 U pcpi_valid $end
$var wire 32 V pcpi_insn [31:0] $end
$var wire 32 W pcpi_rs1 [31:0] $end
$var wire 32 X pcpi_rs2 [31:0] $end
$var wire 1 Y instr_any_mul $end
$var wire 1 Z pcpi_wr $end
$var wire 32 [ pcpi_rd [31:0] $end
$var wire 1 \ pcpi_wait $end
$var wire 1 ] pcpi_ready $end
$var wire 1 ^ instr_mul $end
$var wire 1 _ instr_mulh $end
$var wire 1 ` instr_mulhsu $end
$var wire 1 a instr_mulhu $end
$var reg 4 b active [3:0] $end
$var wire 1 c pcpi_insn_valid $end
$var wire 1 d \:X_3556 $end
$var wire 1 e clk $end
$upscope $end
$var wire 1 f \:X_357 $end
$var wire 1 g \:X_358 $end
$var wire 1 h \:X_359 $end
$var wire 1 i \:X_360 $end
$var wire 1 j \:X_361 $end
$var wire 1 k \:X_362 $end
$var wire 1 l \:X_363 $end
$var wire 1 m \:X_364 $end
$var wire 1 n \:X_365 $end
$var wire 1 o \:X_366 $end
$var wire 1 p \:X_367 $end
$var wire 1 q \:X_368 $end
$var wire 1 r \:X_369 $end
$var wire 1 s \:X_370 $end
$var wire 1 t \:X_371 $end
$var wire 1 u \:X_372 $end
$var wire 1 v \:X_373 $end
$var wire 1 w \:X_374 $end
$var wire 1 x \:X_375 $end
$var wire 1 y \:X_376 $end
$var wire 1 z \:X_377 $end
$var wire 1 { \:X_378 $end
$var wire 1 | \:X_379 $end
$var wire 1 } \:X_380 $end
$var wire 1 ~ \:X_381 $end
$var wire 1 !! \:X_382 $end
$var wire 1 "! \:X_383 $end
$var wire 1 #! \:X_384 $end
$var wire 1 $! \:X_385 $end
$var wire 1 %! \:X_386 $end
$var wire 1 &! \:X_387 $end
$var wire 1 '! \:X_388 $end
$var wire 1 (! \:X_389 $end
$var wire 1 )! \:X_390 $end
$var wire 1 *! \:X_391 $end
$var wire 1 +! \:X_392 $end
$var wire 1 ,! \:X_393 $end
$var wire 1 -! \:X_394 $end
$var wire 1 .! \:X_395 $end
$var wire 1 /! \:X_396 $end
$var wire 1 0! \:X_397 $end
$var wire 1 1! \:X_398 $end
$var wire 1 2! \:X_399 $end
$var reg 1 3! is_sb_sh_sw $end
$var reg 1 4! is_lui_auipc_jal_jalr_addi_add_sub $end
$var reg 1 5! is_slti_blt_slt $end
$var reg 1 6! is_sltiu_bltu_sltu $end
$var reg 1 7! is_beq_bne_blt_bge_bltu_bgeu $end
$var reg 1 8! is_lbu_lhu_lw $end
$var reg 1 9! is_alu_reg_imm $end
$var reg 1 :! is_alu_reg_reg $end
$var reg 1 ;! is_compare $end
$var wire 1 <! is_rdcycle_rdcycleh_rdinstr_rdinstrh $end
$var reg 32 =! q_insn_opcode [31:0] $end
$var reg 1 >! dbg_next $end
$var wire 1 ?! launch_next_insn $end
$var reg 1 @! dbg_valid_insn $end
$var reg 32 A! cached_insn_opcode [31:0] $end
$var reg 8 B! cpu_state [7:0] $end
$var reg 2 C! irq_state [1:0] $end
$var reg 1 D! latched_store $end
$var reg 1 E! latched_stalu $end
$var reg 1 F! latched_branch $end
$var reg 1 G! latched_compr $end
$var reg 1 H! latched_is_lu $end
$var reg 1 I! latched_is_lh $end
$var reg 1 J! latched_is_lb $end
$var reg 5 K! latched_rd [4:0] $end
$var reg 4 L! pcpi_timeout_counter [3:0] $end
$var wire 32 M! alu_add_sub [31:0] $end
$var wire 32 N! alu_shl [31:0] $end
$var wire 32 O! alu_shr [31:0] $end
$var wire 1 P! alu_eq $end
$var wire 1 Q! alu_ltu $end
$var wire 1 R! alu_lts $end
$var reg 1 S! clear_prefetched_high_word_q $end
$var wire 1 T! cpuregs_write $end
$var wire 32 U! cpuregs_wrdata [31:0] $end
$var wire 32 V! cpuregs_rs1 [31:0] $end
$var wire 32 W! cpuregs_rs2 [31:0] $end
$var reg 1 X! decoder_pseudo_trigger $end
$var reg 1 Y! decoder_pseudo_trigger_q $end
$var reg 1 Z! compressed_instr $end
$var reg 1 [! is_lui_auipc_jal $end
$var reg 1 \! is_lb_lh_lw_lbu_lhu $end
$var reg 1 ]! is_slli_srli_srai $end
$var reg 1 ^! is_jalr_addi_slti_sltiu_xori_ori_andi $end
$var reg 32 _! \cpuregs[12] [31:0] $end
$var reg 32 `! \cpuregs[13] [31:0] $end
$var reg 32 a! \cpuregs[14] [31:0] $end
$var reg 32 b! \cpuregs[15] [31:0] $end
$var reg 32 c! \cpuregs[16] [31:0] $end
$var reg 32 d! \cpuregs[17] [31:0] $end
$var reg 32 e! \cpuregs[18] [31:0] $end
$var reg 32 f! \cpuregs[19] [31:0] $end
$var reg 32 g! \cpuregs[20] [31:0] $end
$var reg 32 h! \cpuregs[21] [31:0] $end
$var reg 32 i! \cpuregs[22] [31:0] $end
$var reg 32 j! \cpuregs[23] [31:0] $end
$var reg 32 k! \cpuregs[24] [31:0] $end
$var reg 32 l! \cpuregs[25] [31:0] $end
$var reg 32 m! \cpuregs[26] [31:0] $end
$var reg 32 n! \cpuregs[27] [31:0] $end
$var reg 32 o! \cpuregs[28] [31:0] $end
$var reg 32 p! \cpuregs[29] [31:0] $end
$var reg 32 q! \cpuregs[30] [31:0] $end
$var reg 32 r! \cpuregs[31] [31:0] $end
$var wire 1 s! pcpi_mul_wr $end
$var wire 32 t! pcpi_mul_rd [31:0] $end
$var wire 1 u! pcpi_mul_wait $end
$var wire 1 v! pcpi_mul_ready $end
$var wire 1 w! pcpi_div_wr $end
$var wire 32 x! pcpi_div_rd [31:0] $end
$var wire 1 y! pcpi_div_wait $end
$var wire 1 z! pcpi_div_ready $end
$var wire 1 {! pcpi_int_wr $end
$var wire 32 |! pcpi_int_rd [31:0] $end
$var wire 1 }! pcpi_int_wait $end
$var wire 1 ~! pcpi_int_ready $end
$var reg 2 !" mem_state [1:0] $end
$var reg 2 "" mem_wordsize [1:0] $end
$var wire 32 #" mem_rdata_word [31:0] $end
$var reg 32 $" mem_rdata_q [31:0] $end
$var reg 1 %" mem_do_prefetch $end
$var reg 1 &" mem_do_rinst $end
$var reg 1 '" mem_do_rdata $end
$var reg 1 (" mem_do_wdata $end
$var wire 1 )" mem_xfer $end
$var reg 1 *" mem_la_secondword $end
$var reg 1 +" pcpi_timeout $end
$var reg 1 ," do_waitirq $end
$var wire 32 -" alu_out [31:0] $end
$var reg 32 ." alu_out_q [31:0] $end
$var wire 1 /" alu_out_0 $end
$var reg 1 0" prefetched_high_word $end
$var wire 1 1" clear_prefetched_high_word $end
$var reg 16 2" mem_16bit_buffer [15:0] $end
$var wire 32 3" mem_rdata_latched_noshuffle [31:0] $end
$var wire 32 4" mem_rdata_latched [31:0] $end
$var wire 1 5" mem_la_use_prefetched_high_word $end
$var wire 1 6" mem_done $end
$var reg 1 7" instr_lui $end
$var reg 1 8" instr_auipc $end
$var wire 1 9" \:X_400 $end
$var wire 1 :" \:X_401 $end
$var wire 1 ;" \:X_402 $end
$var wire 1 <" \:X_403 $end
$var wire 1 =" \:X_404 $end
$var wire 1 >" \:X_405 $end
$var wire 1 ?" \:X_406 $end
$var wire 1 @" \:X_407 $end
$var wire 1 A" \:X_408 $end
$var wire 1 B" \:X_409 $end
$var wire 1 C" \:X_410 $end
$var wire 1 D" \:X_411 $end
$var wire 1 E" \:X_412 $end
$var wire 1 F" \:X_413 $end
$var wire 1 G" \:X_414 $end
$var wire 1 H" \:X_415 $end
$var wire 1 I" \:X_416 $end
$var wire 1 J" \:X_417 $end
$var wire 1 K" \:X_418 $end
$var wire 1 L" \:X_419 $end
$var wire 1 M" \:X_420 $end
$var wire 1 N" \:X_236 $end
$var wire 1 O" \:X_237 $end
$var wire 1 P" \:X_238 $end
$var wire 1 Q" \:X_239 $end
$var wire 1 R" \:X_240 $end
$var wire 1 S" \:X_241 $end
$var wire 1 T" \:X_242 $end
$var wire 1 U" \:X_243 $end
$var wire 1 V" \:X_244 $end
$var wire 1 W" \:X_245 $end
$var wire 1 X" \:X_246 $end
$var wire 1 Y" \:X_247 $end
$var wire 1 Z" \:X_248 $end
$var wire 1 [" \:X_249 $end
$var wire 1 \" \:X_250 $end
$var wire 1 ]" \:X_251 $end
$var wire 1 ^" \:X_252 $end
$var wire 1 _" \:X_253 $end
$var wire 1 `" \:X_254 $end
$var wire 1 a" \:X_255 $end
$var wire 1 b" \:X_256 $end
$var wire 1 c" \:X_129 $end
$var wire 1 d" \:X_130 $end
$var wire 1 e" \:X_131 $end
$var wire 1 f" \:X_132 $end
$var wire 1 g" \:X_133 $end
$var wire 1 h" \:X_134 $end
$var wire 1 i" \:X_135 $end
$var wire 1 j" \:X_136 $end
$var wire 1 k" \:X_137 $end
$var wire 1 l" \:X_138 $end
$var wire 1 m" \:X_139 $end
$var wire 1 n" \:X_140 $end
$var wire 1 o" \:X_141 $end
$var wire 1 p" \:X_142 $end
$var wire 1 q" \:X_143 $end
$var wire 1 r" \:X_144 $end
$var wire 1 s" \:X_145 $end
$var wire 1 t" \:X_146 $end
$var wire 1 u" \:X_147 $end
$var wire 1 v" \:X_148 $end
$var wire 1 w" \:X_149 $end
$var wire 1 x" \:X_150 $end
$var wire 1 y" \:X_151 $end
$var wire 1 z" \:X_152 $end
$var wire 1 {" \:X_153 $end
$var wire 1 |" \:X_154 $end
$var wire 1 }" \:X_155 $end
$var wire 1 ~" \:X_156 $end
$var wire 1 !# \:X_157 $end
$var wire 1 "# \:X_158 $end
$var wire 1 ## \:X_159 $end
$var wire 1 $# \:X_160 $end
$var wire 1 %# resetn $end
$var reg 1 &# trap $end
$var reg 1 '# mem_valid $end
$var wire 1 (# mem_ready $end
$var wire 32 )# mem_rdata [31:0] $end
$var wire 1 *# mem_la_read $end
$var reg 1 +# pcpi_valid $end
$var reg 32 ,# pcpi_insn [31:0] $end
$var wire 32 -# pcpi_rs1 [31:0] $end
$var wire 32 .# pcpi_rs2 [31:0] $end
$var reg 1 /# rvfi_valid $end
$var reg 32 0# rvfi_insn [31:0] $end
$var wire 1 1# \:X_492 $end
$var wire 1 2# \:X_491 $end
$var wire 1 3# \:X_490 $end
$var wire 1 4# \:X_489 $end
$var wire 1 5# \:X_488 $end
$var wire 1 6# \:X_487 $end
$var wire 1 7# \:X_486 $end
$var wire 1 8# \:X_485 $end
$var wire 1 9# \:X_484 $end
$var wire 1 :# \:X_483 $end
$var wire 1 ;# \:X_482 $end
$var wire 1 <# \:X_481 $end
$var wire 1 =# \:X_480 $end
$var wire 1 ># \:X_479 $end
$var wire 1 ?# \:X_478 $end
$var wire 1 @# \:X_477 $end
$var wire 1 A# \:X_476 $end
$var wire 1 B# \:X_475 $end
$var wire 1 C# \:X_474 $end
$var wire 1 D# \:X_473 $end
$var wire 1 E# \:X_472 $end
$var wire 1 F# \:X_471 $end
$var wire 1 G# \:X_470 $end
$var wire 1 H# \:X_469 $end
$var wire 1 I# \:X_468 $end
$var wire 1 J# \:X_467 $end
$var wire 1 K# \:X_466 $end
$var wire 1 L# \:X_465 $end
$var wire 1 M# \:X_464 $end
$var wire 1 N# \:X_463 $end
$var wire 1 O# \:X_462 $end
$var wire 1 P# \:X_461 $end
$var wire 1 Q# \:X_64 $end
$var reg 64 R# count_cycle [63:0] $end
$var reg 64 S# count_instr [63:0] $end
$var reg 32 T# reg_pc [31:0] $end
$var reg 32 U# reg_next_pc [31:0] $end
$var reg 32 V# reg_op1 [31:0] $end
$var reg 32 W# reg_op2 [31:0] $end
$var reg 32 X# reg_out [31:0] $end
$var reg 5 Y# reg_sh [4:0] $end
$var reg 32 Z# next_insn_opcode [31:0] $end
$var wire 32 [# dbg_insn_opcode [31:0] $end
$var reg 1 \# mem_la_firstword_reg $end
$var reg 1 ]# last_mem_valid $end
$var wire 1 ^# mem_la_firstword $end
$var wire 32 _# next_pc [31:0] $end
$var reg 32 `# \cpuregs[0] [31:0] $end
$var reg 32 a# \cpuregs[1] [31:0] $end
$var reg 32 b# \cpuregs[2] [31:0] $end
$var reg 32 c# \cpuregs[3] [31:0] $end
$var reg 32 d# \cpuregs[4] [31:0] $end
$var reg 32 e# \cpuregs[5] [31:0] $end
$var reg 32 f# \cpuregs[6] [31:0] $end
$var reg 32 g# \cpuregs[7] [31:0] $end
$var reg 32 h# \cpuregs[8] [31:0] $end
$var reg 32 i# \cpuregs[9] [31:0] $end
$var reg 32 j# \cpuregs[10] [31:0] $end
$var reg 32 k# \cpuregs[11] [31:0] $end
$var wire 1 l# \:X_220 $end
$var wire 1 m# \:X_221 $end
$var wire 1 n# \:X_222 $end
$var wire 1 o# \:X_223 $end
$var wire 1 p# \:X_224 $end
$var wire 1 q# \:X_225 $end
$var wire 1 r# \:X_226 $end
$var wire 1 s# \:X_227 $end
$var wire 1 t# \:X_228 $end
$var wire 1 u# \:X_229 $end
$var wire 1 v# \:X_230 $end
$var wire 1 w# \:X_231 $end
$var wire 1 x# \:X_232 $end
$var wire 1 y# \:X_233 $end
$var wire 1 z# \:X_234 $end
$var wire 1 {# \:X_235 $end
$var reg 1 |# instr_jal $end
$var reg 1 }# instr_jalr $end
$var reg 1 ~# instr_beq $end
$var reg 1 !$ instr_bne $end
$var reg 1 "$ instr_blt $end
$var reg 1 #$ instr_bge $end
$var reg 1 $$ instr_bltu $end
$var reg 1 %$ instr_bgeu $end
$var reg 1 &$ instr_lb $end
$var reg 1 '$ instr_lh $end
$var reg 1 ($ instr_lw $end
$var reg 1 )$ instr_lbu $end
$var reg 1 *$ instr_lhu $end
$var reg 1 +$ instr_sb $end
$var reg 1 ,$ instr_sh $end
$var reg 1 -$ instr_sw $end
$var reg 1 .$ instr_addi $end
$var reg 1 /$ instr_slti $end
$var reg 1 0$ instr_sltiu $end
$var reg 1 1$ instr_xori $end
$var reg 1 2$ instr_ori $end
$var reg 1 3$ instr_andi $end
$var reg 1 4$ instr_slli $end
$var reg 1 5$ instr_srli $end
$var reg 1 6$ instr_srai $end
$var reg 1 7$ instr_add $end
$var reg 1 8$ instr_sub $end
$var reg 1 9$ instr_sll $end
$var reg 1 :$ instr_slt $end
$var reg 1 ;$ instr_sltu $end
$var reg 1 <$ instr_xor $end
$var reg 1 =$ instr_srl $end
$var reg 1 >$ instr_sra $end
$var reg 1 ?$ instr_or $end
$var reg 1 @$ instr_and $end
$var reg 1 A$ instr_rdcycle $end
$var reg 1 B$ instr_rdcycleh $end
$var reg 1 C$ instr_rdinstr $end
$var reg 1 D$ instr_rdinstrh $end
$var reg 1 E$ instr_ecall_ebreak $end
$var reg 1 F$ instr_getq $end
$var reg 1 G$ instr_setq $end
$var reg 1 H$ instr_retirq $end
$var reg 1 I$ instr_maskirq $end
$var reg 1 J$ instr_waitirq $end
$var reg 1 K$ instr_timer $end
$var wire 1 L$ instr_trap $end
$var reg 5 M$ decoded_rd [4:0] $end
$var reg 5 N$ decoded_rs1 [4:0] $end
$var reg 5 O$ decoded_rs2 [4:0] $end
$var reg 32 P$ decoded_imm [31:0] $end
$var reg 32 Q$ decoded_imm_uj [31:0] $end
$var reg 1 R$ decoder_trigger $end
$var reg 1 S$ decoder_trigger_q $end
$var wire 1 T$ \:X_32 $end
$var wire 1 U$ \:X_33 $end
$var wire 1 V$ \:X_34 $end
$var wire 1 W$ \:X_35 $end
$var wire 1 X$ \:X_36 $end
$var wire 1 Y$ \:X_37 $end
$var wire 1 Z$ \:X_38 $end
$var wire 1 [$ \:X_39 $end
$var wire 1 \$ \:X_40 $end
$var wire 1 ]$ \:X_41 $end
$var wire 1 ^$ \:X_42 $end
$var wire 1 _$ \:X_43 $end
$var wire 1 `$ \:X_44 $end
$var wire 1 a$ \:X_45 $end
$var wire 1 b$ \:X_46 $end
$var wire 1 c$ \:X_47 $end
$var wire 1 d$ \:X_48 $end
$var wire 1 e$ \:X_49 $end
$var wire 1 f$ \:X_50 $end
$var wire 1 g$ \:X_51 $end
$var wire 1 h$ \:X_52 $end
$var wire 1 i$ \:X_53 $end
$var wire 1 j$ \:X_54 $end
$var wire 1 k$ \:X_55 $end
$var wire 1 l$ \:X_56 $end
$var wire 1 m$ \:X_57 $end
$var wire 1 n$ \:X_58 $end
$var wire 1 o$ \:X_59 $end
$var wire 1 p$ \:X_60 $end
$var wire 1 q$ \:X_61 $end
$var wire 1 r$ \:X_62 $end
$var wire 1 s$ \:X_63 $end
$var wire 1 t$ clk $end
$upscope $end
$var wire 1 u$ reset $end
$var wire 1 v$ rvfi_valid $end
$var wire 32 w$ rvfi_insn [31:0] $end
$var wire 1 x$ mem_ready $end
$var wire 32 y$ mem_rdata [31:0] $end
$var wire 1 z$ clock $end
$upscope $end
$scope module checker_inst $end
$scope module insn_spec $end
$var wire 32 {$ insn_padding [31:0] $end
$var wire 7 |$ insn_funct7 [6:0] $end
$var wire 3 }$ insn_funct3 [2:0] $end
$var wire 7 ~$ insn_opcode [6:0] $end
$var wire 1 !% rvfi_valid $end
$var wire 32 "% rvfi_insn [31:0] $end
$var wire 1 #% spec_valid $end
$upscope $end
$var wire 1 $% check $end
$var wire 1 %% rvfi_valid $end
$var wire 32 &% rvfi_insn [31:0] $end
$var wire 1 '% spec_valid $end
$var wire 1 (% valid $end
$var wire 1 )% reset $end
$var wire 1 *% clock $end
$upscope $end
$var wire 1 +% \:jasper_formal_reset $end
$var wire 1 ,% reset $end
$var wire 1 -% rvfi_valid $end
$var wire 32 .% rvfi_insn [31:0] $end
$var reg 8 /% cycle_reg [7:0] $end
$var wire 8 0% cycle [7:0] $end
$var wire 1 1% \:jasper_formal_clock $end
$var wire 1 2% clock $end
$upscope $end
$enddefinitions $end
#0
12%
1,%
b00000000 0%
#5
02%
#10
12%
b00000001 /%
#15
02%
#20
12%
#25
02%
#30
0!
0"
0#
0$
0%
0&
0'
0(
0)
0*
0+
0,
0-
0.
0/
00
01
02
03
04
05
06
07
08
09
0:
0;
0<
0=
0>
1?
0@
b00000010000000000100000000110011 A
b11111111111111111111111111111111 B
b00000000000000000000000000000000 C
0D
0E
b00000000000000000000000000000000 F
0G
0H
0I
0J
0K
0L
0M
0N
b00000000000000000000000000000000 O
0P
0Q
0R
1S
1T
0U
b00000010000000000100000000110011 V
b11111111111111111111111111111111 W
b00000000000000000000000000000000 X
0Y
0Z
b00000000000000000000000000000000 [
0\
0]
0^
0_
0`
0a
b0000 b
0c
0d
1e
0f
0g
0h
0i
0j
0k
0l
0m
0n
0o
0p
0q
0r
0s
0t
0u
0v
0w
0x
0y
0z
0{
0|
0}
0~
0!!
0"!
0#!
0$!
0%!
0&!
0'!
0(!
0)!
0*!
0+!
0,!
0-!
0.!
0/!
00!
01!
02!
13!
04!
05!
06!
07!
08!
19!
1:!
0;!
1<!
b00000001111111111100000000000000 =!
0>!
0?!
0@!
b00000000000000000000000000000000 A!
b01000000 B!
b00 C!
0D!
0E!
0F!
0G!
0H!
0I!
0J!
b00010 K!
b1111 L!
b11111111111111111111111111111111 M!
b11111111111111111111111111111111 N!
b11111111111111111111111111111111 O!
0P!
0Q!
1R!
1S!
0T!
b11111111111111111111110111101111 U!
b00000000000000000000000000000000 V!
b00000000000000000000000000000000 W!
0X!
0Y!
1Z!
0[!
1\!
0]!
1^!
b00000000000000000000000000000000 _!
b00000000000000000000000000000000 `!
b00000000000000000000000000000000 a!
b00000000000000000000000000000000 b!
b00000000000000000000000000000000 c!
b00000000000000000000000000000000 d!
b00000000000000000000000000000000 e!
b00000000000000000000000000000000 f!
b00000000000000000000000000000000 g!
b00000000000000000000000000000000 h!
b00000000000000000000000000000000 i!
b00000000000000000000000000000000 j!
b00000000000000000000000000000000 k!
b00000000000000000000000000000000 l!
b00000000000000000000000000000000 m!
b00000000000000000000000000000000 n!
b00000000000000000000000000000000 o!
b00000000000000000000000000000000 p!
b00000000000000000000000000000000 q!
b00000000000000000000000000000000 r!
0s!
b00000000000000000000000000000000 t!
0u!
0v!
0w!
b00000000000000000000000000000000 x!
0y!
0z!
0{!
b00000000000000000000000000000000 |!
0}!
0~!
b00 !"
b00 ""
b11101001111111000001000000000000 #"
b00000000000000000000000001100011 $"
0%"
0&"
0'"
0("
0)"
0*"
0+"
0,"
b00000000000000000000000000000000 -"
b00000000000000000000000000000000 ."
0/"
00"
01"
b0000000000000000 2"
b00000000000000000000000001100011 3"
b00000000000000000000000001100011 4"
05"
06"
07"
08"
09"
0:"
0;"
0<"
0="
0>"
0?"
0@"
0A"
0B"
0C"
0D"
0E"
0F"
0G"
0H"
0I"
0J"
0K"
1L"
0M"
0N"
0O"
0P"
0Q"
0R"
0S"
0T"
0U"
0V"
0W"
0X"
0Y"
0Z"
0["
0\"
0]"
0^"
0_"
0`"
0a"
1b"
1c"
1d"
1e"
1f"
1g"
1h"
1i"
1j"
1k"
1l"
1m"
1n"
1o"
1p"
1q"
1r"
1s"
1t"
1u"
1v"
1w"
1x"
0y"
1z"
1{"
1|"
1}"
0~"
1!#
1"#
1##
1$#
1%#
0&#
0'#
0(#
b11101001111111000001000000000000 )#
0*#
0+#
b00000010000000000100000000110011 ,#
b11111111111111111111111111111111 -#
b00000000000000000000000000000000 .#
0/#
b00000001111111111100000000000000 0#
01#
02#
03#
04#
05#
06#
07#
08#
09#
0:#
0;#
0<#
0=#
0>#
0?#
0@#
0A#
0B#
0C#
0D#
0E#
0F#
0G#
0H#
0I#
0J#
0K#
0L#
0M#
0N#
0O#
0P#
0Q#
b0000000000000000000000000000000000000000000000000000000000000000 R#
b0000000000000000000000000000000000000000000000000000000000000000 S#
b00000000000000000000000000000000 T#
b00000000000000000000000000000000 U#
b11111111111111111111111111111111 V#
b00000000000000000000000000000000 W#
b00000000000000000000000000000000 X#
b11111 Y#
b11111111111111110000000000000011 Z#
b00000001111111111100000000000000 [#
0\#
0]#
0^#
b00000000000000000000000000000000 _#
b00000000000000000000000000000000 `#
b00000000000000000000000000000000 a#
b00000000000000000000000000000000 b#
b00000000000000000000000000000000 c#
b00000000000000000000000000000000 d#
b00000000000000000000000000000000 e#
b00000000000000000000000000000000 f#
b00000000000000000000000000000000 g#
b00000000000000000000000000000000 h#
b00000000000000000000000000000000 i#
b00000000000000000000000000000000 j#
b00000000000000000000000000000000 k#
1l#
1m#
1n#
1o#
1p#
0q#
0r#
0s#
0t#
0u#
0v#
0w#
0x#
0y#
0z#
0{#
1|#
0}#
0~#
0!$
0"$
0#$
0$$
0%$
1&$
0'$
0($
0)$
0*$
0+$
0,$
0-$
0.$
0/$
00$
01$
02$
03$
04$
05$
06$
07$
08$
09$
0:$
0;$
0<$
0=$
0>$
0?$
0@$
0A$
0B$
0C$
1D$
0E$
0F$
0G$
0H$
0I$
0J$
0K$
0L$
b11111 M$
b11111 N$
b11111 O$
b00000000000000000000000000000011 P$
b00000000000000000000000000000000 Q$
0R$
0S$
0T$
0U$
0V$
0W$
0X$
0Y$
0Z$
0[$
0\$
0]$
0^$
0_$
0`$
0a$
0b$
0c$
0d$
0e$
0f$
0g$
0h$
0i$
0j$
0k$
0l$
0m$
0n$
0o$
0p$
0q$
0r$
0s$
1t$
0u$
0v$
b00000001111111111100000000000000 w$
0x$
b11101001111111000001000000000000 y$
1z$
b00000000000000000000000000000000 {$
b0000000 |$
b100 }$
b0000000 ~$
0!%
b00000001111111111100000000000000 "%
0#%
0$%
0%%
b00000001111111111100000000000000 &%
0'%
0(%
0)%
1*%
0+%
0,%
0-%
b00000001111111111100000000000000 .%
b00000001 /%
b00000001 0%
11%
12%
#35
0S
0e
0t$
0z$
0*%
01%
02%
#40
1S
1e
14!
1G!
b11111 K!
0S!
b11111111111111111111111111111111 U!
1[!
b00000000000000000000000000000011 #"
1&"
b11111111111111111111111111111111 -"
1M"
0b"
1y"
1~"
b00000000000000000000000000000011 )#
1*#
b0000000000000000000000000000000000000000000000000000000000000001 R#
b00000000000000000000000000000001 X#
1t$
b00000000000000000000000000000011 y$
1z$
1*%
b00000010 /%
b00000010 0%
11%
12%
#45
0S
0e
0t$
0z$
0*%
01%
02%
#50
1S
1e
b01 !"
b00000000000000000000000001110011 #"
1)"
b11111111111111111111111111111111 ."
b00000000000000000000000001110011 3"
b00000000000000000000000001110011 4"
16"
1'#
1(#
b00000000000000000000000001110011 )#
0*#
b0000000000000000000000000000000000000000000000000000000000000010 R#
b00000000000000000000000000000000 X#
1t$
1x$
b00000000000000000000000001110011 y$
1z$
1*%
b00000011 /%
b00000011 0%
11%
12%
#55
0S
0e
0t$
0z$
0*%
01%
02%
#60
1S
1e
1)!
1*!
03!
09!
0:!
1?!
0Z!
0\!
b00 !"
b00000000000000000000000000000011 #"
b00000000000000000000000001110011 $"
0&"
0)"
06"
0'#
0(#
b00000000000000000000000000000011 )#
1Q#
b0000000000000000000000000000000000000000000000000000000000000011 R#
b00000000000000000000000001110011 Z#
0|#
b00000 M$
b00000 N$
b00000 O$
1R$
1t$
0x$
b00000000000000000000000000000011 y$
1z$
1*%
b00000100 /%
b00000100 0%
11%
12%
#65
0S
0e
0t$
0z$
0*%
01%
02%
#70
b00000000000000000000000001110011 A
1S
b00000000000000000000000001110011 V
1e
0)!
0*!
04!
0<!
1>!
0?!
1@!
b00100000 B!
0G!
b00000 K!
b11111111111111111111111111111001 U!
0[!
0^!
1%"
b00000000000000000000000000000000 -"
0L"
0M"
0"#
0##
1*#
b00000000000000000000000001110011 ,#
0Q#
b0000000000000000000000000000000000000000000000000000000000000100 R#
b0000000000000000000000000000000000000000000000000000000000000001 S#
b00000000000000000000000000000100 U#
b00000000000000000000000001110011 [#
b00000000000000000000000000000100 _#
0&$
0D$
1E$
1L$
b00000000000000000000000000000001 P$
0R$
1S$
1t$
1z$
1*%
b00000101 /%
b00000101 0%
11%
12%
#75
0S
0e
0t$
0z$
0*%
01%
02%
#80
b00000000000000000000000000000000 B
1S
b00000000000000000000000000000000 W
1e
b00000000000000000000000001110011 =!
0>!
b00000000000000000000000001110011 A!
b10000000 B!
b00000000000000000000000000000000 M!
b00000000000000000000000000000000 N!
b00000000000000000000000000000000 O!
1P!
0R!
b00000000000000000000000000000000 U!
b01 !"
b00000000000000000011000100000000 #"
1)"
b00000000000000000000000000000000 ."
b00000000000000000011000100000000 3"
b00000000000000000011000100000000 4"
0c"
0d"
0e"
0f"
0g"
0h"
0i"
0j"
0k"
0l"
0m"
0n"
0o"
0p"
0q"
0r"
0s"
0t"
0u"
0v"
0w"
0x"
0y"
0z"
0{"
0|"
0}"
0~"
0!#
0$#
1'#
1(#
b00000000000000000011000100000000 )#
0*#
b00000000000000000000000000000000 -#
b00000000000000000000000001110011 0#
b0000000000000000000000000000000000000000000000000000000000000101 R#
b00000000000000000000000000000000 V#
b00000 Y#
0S$
1t$
b00000000000000000000000001110011 w$
1x$
b00000000000000000011000100000000 y$
1z$
b000 }$
b1110011 ~$
b00000000000000000000000001110011 "%
b00000000000000000000000001110011 &%
1*%
b00000000000000000000000001110011 .%
b00000110 /%
b00000110 0%
11%
12%
#85
0S
0e
0t$
0z$
0*%
01%
02%
#90
1S
1e
b11 !"
b00000000000000000000000000000000 #"
b00000000000000000011000100000000 $"
0)"
10"
1&#
0'#
0(#
b00000000000000000000000000000000 )#
b0000000000000000000000000000000000000000000000000000000000000110 R#
b11111 Y#
b00000000000000000011000100000000 Z#
1t$
0x$
b00000000000000000000000000000000 y$
1z$
1*%
b00000111 /%
b00000111 0%
11%
12%
#95
0S
0e
0t$
0z$
0*%
01%
02%
#100
1S
1e
0@!
00"
1/#
b0000000000000000000000000000000000000000000000000000000000000111 R#
1t$
1v$
1z$
1!%
1%%
1(%
1*%
1-%
b00001000 /%
b00001000 0%
11%
12%
