riscv_formal_verification/picorv32/rvfi_valid_c_bnez_new.vcd
$date Tue Feb 26 14:53:31 2019
 $end
$version JasperGold $end
$timescale 1 ns $end
$scope module rvfi_testbench $end
$scope module wrapper $end
$scope module uut $end
$scope module pcpi_div $end
$var reg 32 ! quotient_msk [31:0] $end
$var reg 1 " running $end
$var wire 1 # \:X_3 $end
$var wire 1 $ \:X_4 $end
$var wire 1 % \:X_0 $end
$var wire 1 & \:X_1 $end
$var wire 1 ' \:X_2 $end
$var wire 1 ( \:X_5 $end
$var wire 1 ) \:X_6 $end
$var wire 1 * \:X_7 $end
$var wire 1 + \:X_8 $end
$var wire 1 , \:X_9 $end
$var wire 1 - \:X_10 $end
$var wire 1 . \:X_11 $end
$var wire 1 / \:X_12 $end
$var wire 1 0 \:X_13 $end
$var wire 1 1 \:X_14 $end
$var wire 1 2 \:X_15 $end
$var wire 1 3 \:X_16 $end
$var wire 1 4 \:X_17 $end
$var wire 1 5 \:X_18 $end
$var wire 1 6 \:X_19 $end
$var wire 1 7 \:X_20 $end
$var wire 1 8 \:X_21 $end
$var wire 1 9 \:X_22 $end
$var wire 1 : \:X_23 $end
$var wire 1 ; \:X_24 $end
$var wire 1 < \:X_25 $end
$var wire 1 = \:X_26 $end
$var wire 1 > \:X_27 $end
$var wire 1 ? \:X_28 $end
$var wire 1 @ \:X_29 $end
$var wire 1 A \:X_30 $end
$var wire 1 B \:X_31 $end
$var wire 1 C resetn $end
$var wire 1 D pcpi_valid $end
$var wire 32 E pcpi_insn [31:0] $end
$var wire 32 F pcpi_rs1 [31:0] $end
$var wire 32 G pcpi_rs2 [31:0] $end
$var wire 1 H instr_any_div_rem $end
$var reg 1 I pcpi_wr $end
$var reg 32 J pcpi_rd [31:0] $end
$var reg 1 K pcpi_wait $end
$var reg 1 L pcpi_ready $end
$var reg 1 M instr_div $end
$var reg 1 N instr_divu $end
$var reg 1 O instr_rem $end
$var reg 1 P instr_remu $end
$var reg 1 Q pcpi_wait_q $end
$var wire 1 R start $end
$var wire 1 S clk $end
$upscope $end
$scope module pcpi_mul $end
$var wire 1 T resetn $end
$var wire 1 U pcpi_valid $end
$var wire 32 V pcpi_insn [31:0] $end
$var wire 32 W pcpi_rs1 [31:0] $end
$var wire 32 X pcpi_rs2 [31:0] $end
$var wire 1 Y instr_any_mul $end
$var wire 1 Z pcpi_wr $end
$var wire 32 [ pcpi_rd [31:0] $end
$var wire 1 \ pcpi_wait $end
$var wire 1 ] pcpi_ready $end
$var wire 1 ^ instr_mul $end
$var wire 1 _ instr_mulh $end
$var wire 1 ` instr_mulhsu $end
$var wire 1 a instr_mulhu $end
$var reg 4 b active [3:0] $end
$var wire 1 c pcpi_insn_valid $end
$var wire 1 d \:X_3556 $end
$var wire 1 e clk $end
$upscope $end
$var reg 32 f q_insn_opcode [31:0] $end
$var reg 1 g dbg_next $end
$var wire 1 h launch_next_insn $end
$var reg 1 i dbg_valid_insn $end
$var reg 32 j cached_insn_opcode [31:0] $end
$var reg 8 k cpu_state [7:0] $end
$var reg 2 l irq_state [1:0] $end
$var wire 32 m alu_shr [31:0] $end
$var wire 1 n alu_eq $end
$var wire 1 o alu_ltu $end
$var wire 1 p alu_lts $end
$var reg 1 q clear_prefetched_high_word_q $end
$var wire 1 r cpuregs_write $end
$var wire 32 s cpuregs_wrdata [31:0] $end
$var wire 32 t cpuregs_rs1 [31:0] $end
$var wire 32 u cpuregs_rs2 [31:0] $end
$var wire 1 v \:X_32 $end
$var wire 1 w \:X_33 $end
$var wire 1 x \:X_34 $end
$var wire 1 y \:X_35 $end
$var reg 1 z do_waitirq $end
$var wire 32 { alu_out [31:0] $end
$var reg 32 | alu_out_q [31:0] $end
$var wire 1 } alu_out_0 $end
$var wire 32 ~ alu_add_sub [31:0] $end
$var wire 32 !! alu_shl [31:0] $end
$var wire 32 "! mem_rdata_latched_noshuffle [31:0] $end
$var wire 32 #! mem_rdata_latched [31:0] $end
$var wire 1 $! mem_la_use_prefetched_high_word $end
$var wire 1 %! mem_done $end
$var reg 1 &! instr_lui $end
$var reg 1 '! instr_auipc $end
$var reg 1 (! instr_jal $end
$var reg 1 )! is_sltiu_bltu_sltu $end
$var reg 1 *! is_beq_bne_blt_bge_bltu_bgeu $end
$var reg 1 +! is_lbu_lhu_lw $end
$var reg 1 ,! is_alu_reg_imm $end
$var reg 1 -! is_alu_reg_reg $end
$var reg 1 .! is_compare $end
$var wire 1 /! is_rdcycle_rdcycleh_rdinstr_rdinstrh $end
$var wire 1 0! \:X_357 $end
$var wire 1 1! \:X_358 $end
$var wire 1 2! \:X_359 $end
$var wire 1 3! \:X_360 $end
$var wire 1 4! \:X_361 $end
$var wire 1 5! \:X_362 $end
$var wire 1 6! \:X_363 $end
$var wire 1 7! \:X_364 $end
$var wire 1 8! \:X_365 $end
$var wire 1 9! \:X_406 $end
$var wire 1 :! \:X_407 $end
$var wire 1 ;! \:X_408 $end
$var wire 1 <! \:X_409 $end
$var wire 1 =! \:X_410 $end
$var wire 1 >! \:X_411 $end
$var wire 1 ?! \:X_412 $end
$var wire 1 @! \:X_413 $end
$var wire 1 A! \:X_414 $end
$var wire 1 B! \:X_415 $end
$var wire 1 C! \:X_416 $end
$var wire 1 D! \:X_417 $end
$var wire 1 E! \:X_418 $end
$var wire 1 F! \:X_419 $end
$var wire 1 G! \:X_420 $end
$var wire 1 H! \:X_488 $end
$var wire 1 I! \:X_487 $end
$var wire 1 J! \:X_486 $end
$var wire 1 K! \:X_485 $end
$var wire 1 L! \:X_484 $end
$var wire 1 M! \:X_483 $end
$var wire 1 N! \:X_482 $end
$var wire 1 O! \:X_481 $end
$var wire 1 P! \:X_480 $end
$var wire 1 Q! \:X_479 $end
$var wire 1 R! \:X_478 $end
$var wire 1 S! \:X_477 $end
$var wire 1 T! \:X_476 $end
$var wire 1 U! \:X_475 $end
$var wire 1 V! \:X_474 $end
$var wire 1 W! \:X_473 $end
$var wire 1 X! \:X_472 $end
$var wire 1 Y! \:X_471 $end
$var wire 1 Z! \:X_470 $end
$var wire 1 [! \:X_469 $end
$var wire 1 \! \:X_149 $end
$var wire 1 ]! \:X_150 $end
$var wire 1 ^! \:X_151 $end
$var wire 1 _! \:X_152 $end
$var wire 1 `! \:X_153 $end
$var wire 1 a! \:X_154 $end
$var wire 1 b! \:X_155 $end
$var wire 1 c! \:X_156 $end
$var wire 1 d! \:X_157 $end
$var wire 1 e! \:X_158 $end
$var wire 1 f! \:X_159 $end
$var wire 1 g! \:X_160 $end
$var reg 1 h! instr_rdinstr $end
$var reg 1 i! instr_rdinstrh $end
$var reg 1 j! instr_ecall_ebreak $end
$var reg 1 k! instr_getq $end
$var reg 1 l! instr_setq $end
$var reg 1 m! instr_retirq $end
$var reg 1 n! instr_maskirq $end
$var reg 1 o! instr_waitirq $end
$var reg 1 p! instr_timer $end
$var wire 1 q! instr_trap $end
$var reg 5 r! decoded_rd [4:0] $end
$var reg 5 s! decoded_rs1 [4:0] $end
$var reg 5 t! decoded_rs2 [4:0] $end
$var reg 32 u! decoded_imm [31:0] $end
$var reg 32 v! decoded_imm_uj [31:0] $end
$var reg 1 w! decoder_trigger $end
$var reg 1 x! decoder_trigger_q $end
$var wire 1 y! resetn $end
$var reg 1 z! trap $end
$var reg 1 {! mem_valid $end
$var wire 1 |! mem_ready $end
$var reg 1 }! is_lb_lh_lw_lbu_lhu $end
$var reg 1 ~! is_slli_srli_srai $end
$var reg 1 !" is_jalr_addi_slti_sltiu_xori_ori_andi $end
$var reg 1 "" is_sb_sh_sw $end
$var reg 1 #" is_lui_auipc_jal_jalr_addi_add_sub $end
$var reg 1 $" is_slti_blt_slt $end
$var reg 64 %" count_cycle [63:0] $end
$var reg 64 &" count_instr [63:0] $end
$var reg 32 '" reg_pc [31:0] $end
$var reg 32 (" reg_next_pc [31:0] $end
$var reg 32 )" reg_op1 [31:0] $end
$var wire 1 *" \:X_229 $end
$var wire 1 +" \:X_230 $end
$var wire 1 ," \:X_231 $end
$var wire 1 -" \:X_232 $end
$var wire 1 ." \:X_233 $end
$var wire 1 /" \:X_234 $end
$var wire 1 0" \:X_235 $end
$var wire 1 1" \:X_236 $end
$var wire 1 2" \:X_237 $end
$var wire 1 3" \:X_238 $end
$var wire 1 4" \:X_239 $end
$var wire 1 5" \:X_240 $end
$var wire 1 6" \:X_241 $end
$var wire 1 7" \:X_242 $end
$var wire 1 8" \:X_243 $end
$var wire 1 9" \:X_244 $end
$var wire 1 :" \:X_245 $end
$var wire 1 ;" \:X_246 $end
$var wire 1 <" \:X_247 $end
$var reg 32 =" \cpuregs[24] [31:0] $end
$var reg 32 >" \cpuregs[25] [31:0] $end
$var reg 32 ?" \cpuregs[26] [31:0] $end
$var reg 32 @" \cpuregs[27] [31:0] $end
$var reg 32 A" \cpuregs[28] [31:0] $end
$var reg 32 B" \cpuregs[29] [31:0] $end
$var reg 32 C" \cpuregs[30] [31:0] $end
$var reg 32 D" \cpuregs[31] [31:0] $end
$var wire 1 E" pcpi_mul_wr $end
$var wire 32 F" pcpi_mul_rd [31:0] $end
$var wire 1 G" pcpi_mul_wait $end
$var wire 1 H" pcpi_mul_ready $end
$var wire 1 I" pcpi_div_wr $end
$var wire 32 J" pcpi_div_rd [31:0] $end
$var wire 1 K" pcpi_div_wait $end
$var reg 1 L" instr_jalr $end
$var reg 1 M" instr_beq $end
$var reg 1 N" instr_bne $end
$var reg 1 O" instr_blt $end
$var reg 1 P" instr_bge $end
$var reg 1 Q" instr_bltu $end
$var reg 1 R" instr_bgeu $end
$var reg 1 S" instr_lb $end
$var reg 1 T" instr_lh $end
$var reg 1 U" instr_lw $end
$var reg 1 V" instr_lbu $end
$var reg 1 W" instr_lhu $end
$var reg 1 X" instr_sb $end
$var reg 1 Y" instr_sh $end
$var reg 1 Z" instr_sw $end
$var reg 1 [" instr_addi $end
$var reg 1 \" instr_slti $end
$var reg 1 ]" instr_sltiu $end
$var reg 1 ^" decoder_pseudo_trigger $end
$var reg 1 _" decoder_pseudo_trigger_q $end
$var reg 1 `" compressed_instr $end
$var reg 1 a" is_lui_auipc_jal $end
$var wire 32 b" next_pc [31:0] $end
$var reg 32 c" \cpuregs[0] [31:0] $end
$var reg 32 d" \cpuregs[1] [31:0] $end
$var reg 32 e" \cpuregs[2] [31:0] $end
$var reg 32 f" \cpuregs[3] [31:0] $end
$var reg 32 g" \cpuregs[4] [31:0] $end
$var reg 32 h" \cpuregs[5] [31:0] $end
$var reg 32 i" \cpuregs[6] [31:0] $end
$var reg 32 j" \cpuregs[7] [31:0] $end
$var reg 32 k" \cpuregs[8] [31:0] $end
$var reg 1 l" rvfi_valid $end
$var reg 32 m" rvfi_insn [31:0] $end
$var wire 1 n" \:X_54 $end
$var wire 1 o" \:X_55 $end
$var wire 1 p" \:X_56 $end
$var wire 1 q" \:X_57 $end
$var wire 1 r" \:X_58 $end
$var wire 1 s" \:X_59 $end
$var wire 1 t" \:X_60 $end
$var wire 1 u" \:X_61 $end
$var wire 1 v" \:X_62 $end
$var wire 1 w" \:X_63 $end
$var wire 1 x" \:X_386 $end
$var wire 1 y" \:X_387 $end
$var wire 1 z" \:X_388 $end
$var wire 1 {" \:X_389 $end
$var wire 1 |" \:X_390 $end
$var wire 1 }" \:X_391 $end
$var wire 1 ~" \:X_392 $end
$var wire 1 !# \:X_393 $end
$var wire 1 "# \:X_394 $end
$var wire 1 ## \:X_395 $end
$var wire 1 $# \:X_396 $end
$var wire 1 %# \:X_397 $end
$var wire 1 &# \:X_398 $end
$var wire 1 '# \:X_399 $end
$var wire 1 (# \:X_400 $end
$var wire 1 )# \:X_401 $end
$var wire 1 *# \:X_402 $end
$var wire 1 +# \:X_403 $end
$var wire 1 ,# \:X_404 $end
$var wire 1 -# \:X_405 $end
$var wire 1 .# \:X_36 $end
$var wire 1 /# \:X_37 $end
$var wire 1 0# \:X_38 $end
$var wire 1 1# \:X_39 $end
$var wire 1 2# \:X_40 $end
$var wire 1 3# \:X_41 $end
$var wire 1 4# \:X_42 $end
$var wire 1 5# \:X_43 $end
$var wire 1 6# \:X_44 $end
$var wire 1 7# \:X_45 $end
$var wire 1 8# \:X_46 $end
$var wire 1 9# \:X_47 $end
$var wire 1 :# \:X_48 $end
$var wire 1 ;# \:X_49 $end
$var wire 1 <# \:X_50 $end
$var wire 1 =# \:X_51 $end
$var wire 1 ># \:X_52 $end
$var wire 1 ?# \:X_53 $end
$var wire 1 @# \:X_220 $end
$var wire 1 A# \:X_221 $end
$var wire 1 B# \:X_222 $end
$var wire 1 C# \:X_223 $end
$var wire 1 D# \:X_224 $end
$var wire 1 E# \:X_225 $end
$var wire 1 F# \:X_226 $end
$var wire 1 G# \:X_227 $end
$var wire 1 H# \:X_228 $end
$var wire 1 I# \:X_64 $end
$var wire 1 J# \:X_366 $end
$var wire 1 K# \:X_367 $end
$var wire 1 L# \:X_368 $end
$var wire 1 M# \:X_369 $end
$var wire 1 N# \:X_370 $end
$var wire 1 O# \:X_371 $end
$var wire 1 P# \:X_372 $end
$var wire 1 Q# \:X_373 $end
$var wire 1 R# \:X_374 $end
$var wire 1 S# \:X_375 $end
$var wire 1 T# \:X_376 $end
$var wire 1 U# \:X_377 $end
$var wire 1 V# \:X_378 $end
$var wire 1 W# \:X_379 $end
$var wire 1 X# \:X_380 $end
$var wire 1 Y# \:X_381 $end
$var wire 1 Z# \:X_382 $end
$var wire 1 [# \:X_383 $end
$var wire 1 \# \:X_384 $end
$var wire 1 ]# \:X_385 $end
$var wire 1 ^# pcpi_div_ready $end
$var wire 1 _# pcpi_int_wr $end
$var wire 32 `# pcpi_int_rd [31:0] $end
$var wire 1 a# pcpi_int_wait $end
$var wire 1 b# pcpi_int_ready $end
$var reg 2 c# mem_state [1:0] $end
$var reg 2 d# mem_wordsize [1:0] $end
$var wire 32 e# mem_rdata_word [31:0] $end
$var reg 32 f# mem_rdata_q [31:0] $end
$var reg 1 g# mem_do_prefetch $end
$var reg 1 h# mem_do_rinst $end
$var reg 1 i# mem_do_rdata $end
$var reg 1 j# mem_do_wdata $end
$var wire 1 k# mem_xfer $end
$var reg 1 l# mem_la_secondword $end
$var reg 1 m# mem_la_firstword_reg $end
$var reg 1 n# last_mem_valid $end
$var reg 1 o# instr_xori $end
$var reg 1 p# instr_ori $end
$var reg 1 q# instr_andi $end
$var reg 1 r# instr_slli $end
$var reg 1 s# instr_srli $end
$var reg 1 t# instr_srai $end
$var reg 1 u# instr_add $end
$var reg 1 v# instr_sub $end
$var reg 1 w# instr_sll $end
$var reg 1 x# instr_slt $end
$var reg 1 y# instr_sltu $end
$var reg 1 z# instr_xor $end
$var reg 1 {# instr_srl $end
$var reg 1 |# instr_sra $end
$var reg 1 }# instr_or $end
$var reg 1 ~# instr_and $end
$var reg 1 !$ instr_rdcycle $end
$var reg 1 "$ instr_rdcycleh $end
$var reg 32 #$ \cpuregs[9] [31:0] $end
$var reg 32 $$ \cpuregs[10] [31:0] $end
$var reg 32 %$ \cpuregs[11] [31:0] $end
$var reg 32 &$ \cpuregs[12] [31:0] $end
$var reg 32 '$ \cpuregs[13] [31:0] $end
$var reg 32 ($ \cpuregs[14] [31:0] $end
$var reg 32 )$ \cpuregs[15] [31:0] $end
$var reg 32 *$ \cpuregs[16] [31:0] $end
$var reg 32 +$ \cpuregs[17] [31:0] $end
$var reg 32 ,$ \cpuregs[18] [31:0] $end
$var reg 32 -$ \cpuregs[19] [31:0] $end
$var reg 32 .$ \cpuregs[20] [31:0] $end
$var reg 32 /$ \cpuregs[21] [31:0] $end
$var reg 32 0$ \cpuregs[22] [31:0] $end
$var reg 32 1$ \cpuregs[23] [31:0] $end
$var wire 32 2$ mem_rdata [31:0] $end
$var wire 1 3$ mem_la_read $end
$var reg 1 4$ pcpi_valid $end
$var reg 32 5$ pcpi_insn [31:0] $end
$var wire 32 6$ pcpi_rs1 [31:0] $end
$var wire 32 7$ pcpi_rs2 [31:0] $end
$var reg 1 8$ latched_store $end
$var reg 1 9$ latched_stalu $end
$var reg 1 :$ latched_branch $end
$var reg 1 ;$ latched_compr $end
$var reg 1 <$ latched_is_lu $end
$var reg 1 =$ latched_is_lh $end
$var reg 1 >$ latched_is_lb $end
$var reg 5 ?$ latched_rd [4:0] $end
$var reg 4 @$ pcpi_timeout_counter [3:0] $end
$var reg 1 A$ pcpi_timeout $end
$var wire 1 B$ \:X_492 $end
$var wire 1 C$ \:X_491 $end
$var wire 1 D$ \:X_490 $end
$var wire 1 E$ \:X_489 $end
$var wire 1 F$ \:X_468 $end
$var wire 1 G$ \:X_467 $end
$var wire 1 H$ \:X_466 $end
$var wire 1 I$ \:X_465 $end
$var wire 1 J$ \:X_464 $end
$var wire 1 K$ \:X_463 $end
$var wire 1 L$ \:X_462 $end
$var wire 1 M$ \:X_461 $end
$var reg 32 N$ reg_op2 [31:0] $end
$var reg 32 O$ reg_out [31:0] $end
$var reg 5 P$ reg_sh [4:0] $end
$var reg 32 Q$ next_insn_opcode [31:0] $end
$var wire 32 R$ dbg_insn_opcode [31:0] $end
$var wire 1 S$ mem_la_firstword $end
$var reg 1 T$ prefetched_high_word $end
$var wire 1 U$ clear_prefetched_high_word $end
$var reg 16 V$ mem_16bit_buffer [15:0] $end
$var wire 1 W$ \:X_129 $end
$var wire 1 X$ \:X_130 $end
$var wire 1 Y$ \:X_131 $end
$var wire 1 Z$ \:X_132 $end
$var wire 1 [$ \:X_133 $end
$var wire 1 \$ \:X_134 $end
$var wire 1 ]$ \:X_135 $end
$var wire 1 ^$ \:X_136 $end
$var wire 1 _$ \:X_137 $end
$var wire 1 `$ \:X_138 $end
$var wire 1 a$ \:X_139 $end
$var wire 1 b$ \:X_140 $end
$var wire 1 c$ \:X_141 $end
$var wire 1 d$ \:X_142 $end
$var wire 1 e$ \:X_143 $end
$var wire 1 f$ \:X_144 $end
$var wire 1 g$ \:X_145 $end
$var wire 1 h$ \:X_146 $end
$var wire 1 i$ \:X_147 $end
$var wire 1 j$ \:X_148 $end
$var wire 1 k$ \:X_248 $end
$var wire 1 l$ \:X_249 $end
$var wire 1 m$ \:X_250 $end
$var wire 1 n$ \:X_251 $end
$var wire 1 o$ \:X_252 $end
$var wire 1 p$ \:X_253 $end
$var wire 1 q$ \:X_254 $end
$var wire 1 r$ \:X_255 $end
$var wire 1 s$ \:X_256 $end
$var wire 1 t$ clk $end
$upscope $end
$var wire 1 u$ reset $end
$var wire 1 v$ rvfi_valid $end
$var wire 1 w$ mem_ready $end
$var wire 32 x$ mem_rdata [31:0] $end
$var wire 32 y$ rvfi_insn [31:0] $end
$var wire 1 z$ clock $end
$upscope $end
$scope module checker_inst $end
$scope module insn_spec $end
$var wire 1 {$ rvfi_valid $end
$var wire 32 |$ rvfi_insn [31:0] $end
$var wire 3 }$ insn_funct3 [2:0] $end
$var wire 2 ~$ insn_opcode [1:0] $end
$var wire 1 !% spec_valid $end
$var wire 32 "% insn_padding [31:0] $end
$upscope $end
$var wire 1 #% check $end
$var wire 1 $% rvfi_valid $end
$var wire 32 %% rvfi_insn [31:0] $end
$var wire 1 &% reset $end
$var wire 1 '% valid $end
$var wire 1 (% spec_valid $end
$var wire 1 )% clock $end
$upscope $end
$var wire 1 *% \:jasper_formal_reset $end
$var reg 8 +% cycle_reg [7:0] $end
$var wire 8 ,% cycle [7:0] $end
$var wire 1 -% reset $end
$var wire 1 .% rvfi_valid $end
$var wire 32 /% rvfi_insn [31:0] $end
$var wire 1 0% \:jasper_formal_clock $end
$var wire 1 1% clock $end
$upscope $end
$enddefinitions $end
#0
11%
1-%
b00000000 ,%
#5
01%
#10
11%
b00000001 +%
#15
01%
#20
11%
#25
01%
#30
b00000000000000000000000000000000 !
0"
0#
0$
0%
0&
0'
0(
0)
0*
0+
0,
0-
0.
0/
00
01
02
03
04
05
06
07
08
09
0:
0;
0<
0=
0>
0?
0@
0A
0B
1C
0D
b00000010000000000010000000000011 E
b11111111111111111111111111111110 F
b00000000000000000000000000000011 G
0H
0I
b00000000000000000000000000000000 J
0K
0L
0M
0N
0O
0P
0Q
0R
1S
1T
0U
b00000010000000000010000000000011 V
b11111111111111111111111111111110 W
b00000000000000000000000000000011 X
0Y
0Z
b00000000000000000000000000000000 [
0\
0]
0^
0_
0`
0a
b0000 b
0c
0d
1e
b10000000000000001110001010001011 f
0g
0h
0i
b00000000000000000000000000000000 j
b01000000 k
b00 l
b00011111111111111111111111111111 m
0n
0o
1p
1q
0r
b11111111101111011111111101111111 s
b00000000000000000000000000000000 t
b00000000000000000000000000000000 u
0v
0w
0x
0y
0z
b00000000000000000000000000000000 {
b00000000000000000000000000000000 |
0}
b00000000000000000000000000000001 ~
b11111111111111111111111111110000 !!
b01000011100011101111000010000001 "!
b01000011100011101111000010000001 #!
0$!
0%!
0&!
0'!
1(!
0)!
0*!
0+!
0,!
1-!
0.!
1/!
00!
01!
02!
03!
04!
05!
06!
07!
08!
09!
0:!
0;!
0<!
0=!
0>!
0?!
0@!
0A!
0B!
0C!
0D!
0E!
0F!
0G!
0H!
0I!
0J!
0K!
0L!
0M!
0N!
0O!
0P!
0Q!
0R!
0S!
0T!
0U!
0V!
0W!
0X!
0Y!
0Z!
0[!
1\!
1]!
1^!
1_!
0`!
1a!
1b!
1c!
1d!
1e!
1f!
1g!
0h!
1i!
0j!
0k!
0l!
0m!
0n!
0o!
0p!
0q!
b01111 r!
b11111 s!
b11111 t!
b00000000000000000000000000000011 u!
b00000000000000000000000000000000 v!
0w!
0x!
1y!
0z!
0{!
0|!
0}!
0~!
0!"
0""
0#"
0$"
b0000000000000000000000000000000000000000000000000000000000000000 %"
b0000000000000000000000000000000000000000000000000000000000000000 &"
b00000000000000000000000000000000 '"
b00000000000000000000000000000000 ("
b11111111111111111111111111111110 )"
0*"
0+"
0,"
0-"
0."
0/"
00"
01"
02"
03"
04"
05"
06"
07"
08"
09"
0:"
0;"
0<"
b00000000000000000000000000000000 ="
b00000000000000000000000000000000 >"
b00000000000000000000000000000000 ?"
b00000000000000000000000000000000 @"
b00000000000000000000000000000000 A"
b00000000000000000000000000000000 B"
b00000000000000000000000000000000 C"
b00000000000000000000000000000000 D"
0E"
b00000000000000000000000000000000 F"
0G"
0H"
0I"
b00000000000000000000000000000000 J"
0K"
0L"
0M"
0N"
0O"
0P"
0Q"
0R"
0S"
0T"
0U"
0V"
0W"
0X"
0Y"
0Z"
0["
0\"
0]"
0^"
0_"
1`"
0a"
b00000000000000000000000000000000 b"
b00000000000000000000000000000000 c"
b00000000000000000000000000000000 d"
b00000000000000000000000000000000 e"
b00000000000000000000000000000000 f"
b00000000000000000000000000000000 g"
b00000000000000000000000000000000 h"
b00000000000000000000000000000000 i"
b00000000000000000000000000000000 j"
b00000000000000000000000000000000 k"
0l"
b10000000000000001110001010001011 m"
0n"
0o"
0p"
0q"
0r"
0s"
0t"
0u"
0v"
0w"
0x"
0y"
0z"
0{"
0|"
0}"
0~"
0!#
0"#
0##
0$#
0%#
0&#
0'#
0(#
0)#
0*#
0+#
0,#
0-#
0.#
0/#
00#
01#
02#
03#
04#
05#
06#
07#
08#
09#
0:#
0;#
0<#
0=#
0>#
0?#
1@#
1A#
1B#
1C#
1D#
0E#
0F#
0G#
0H#
0I#
0J#
0K#
0L#
0M#
0N#
0O#
0P#
0Q#
0R#
0S#
0T#
0U#
0V#
0W#
0X#
0Y#
0Z#
0[#
0\#
0]#
0^#
0_#
b00000000000000000000000000000000 `#
0a#
0b#
b00 c#
b10 d#
b00000000000000000000000000000001 e#
b01000011100011101111000010000001 f#
0g#
0h#
0i#
0j#
0k#
0l#
0m#
0n#
0o#
0p#
0q#
0r#
0s#
0t#
0u#
0v#
0w#
0x#
0y#
0z#
0{#
0|#
0}#
0~#
0!$
0"$
b00000000000000000000000000000000 #$
b00000000000000000000000000000000 $$
b00000000000000000000000000000000 %$
b00000000000000000000000000000000 &$
b00000000000000000000000000000000 '$
b00000000000000000000000000000000 ($
b00000000000000000000000000000000 )$
b00000000000000000000000000000000 *$
b00000000000000000000000000000000 +$
b00000000000000000000000000000000 ,$
b00000000000000000000000000000000 -$
b00000000000000000000000000000000 .$
b00000000000000000000000000000000 /$
b00000000000000000000000000000000 0$
b00000000000000000000000000000000 1$
b00000000000000010000000000000011 2$
03$
04$
b00000010000000000010000000000011 5$
b11111111111111111111111111111110 6$
b00000000000000000000000000000011 7$
08$
09$
0:$
0;$
0<$
0=$
0>$
b00100 ?$
b1111 @$
0A$
0B$
0C$
0D$
0E$
0F$
0G$
0H$
0I$
0J$
0K$
0L$
0M$
b00000000000000000000000000000011 N$
b00000000000000000000000000000000 O$
b11111 P$
b11111111111111110000000000000011 Q$
b10000000000000001110001010001011 R$
0S$
0T$
0U$
b0000000000000000 V$
1W$
1X$
1Y$
1Z$
1[$
1\$
1]$
1^$
1_$
0`$
1a$
1b$
1c$
1d$
0e$
1f$
1g$
1h$
1i$
1j$
0k$
0l$
0m$
0n$
0o$
0p$
0q$
1r$
0s$
1t$
0u$
0v$
0w$
b00000000000000010000000000000011 x$
b10000000000000001110001010001011 y$
1z$
0{$
b10000000000000001110001010001011 |$
b111 }$
b11 ~$
0!%
b00000000000000001000000000000000 "%
0#%
0$%
b10000000000000001110001010001011 %%
0&%
0'%
0(%
1)%
0*%
b00000001 +%
b00000001 ,%
0-%
0.%
b10000000000000001110001010001011 /%
10%
11%
#35
0S
0e
0t$
0z$
0)%
00%
01%
#40
1S
1e
0q
b11111111111111111111111111111111 s
b00000000000000000000000000000001 {
1F!
1G!
1`!
1#"
b0000000000000000000000000000000000000000000000000000000000000001 %"
1a"
b00 d#
b00000000000000000000000000000011 e#
1h#
b00000000000000000000000000000011 2$
13$
1;$
b01111 ?$
b00000000000000000000000000000010 O$
1`$
1e$
0r$
1t$
b00000000000000000000000000000011 x$
1z$
1)%
b00000010 +%
b00000010 ,%
10%
11%
#45
0S
0e
0t$
0z$
0)%
00%
01%
#50
1S
1e
b10111111111111111111111111111111 s
b00000000000000000000000000000001 |
b00000010010000111010000000001001 "!
b00000010010000111010000000001001 #!
1%!
1{!
1|!
b0000000000000000000000000000000000000000000000000000000000000010 %"
1)#
b01 c#
b00000010010000111010000000001001 e#
1k#
b00000010010000111010000000001001 2$
03$
b00000000000000000000000000000000 O$
0X$
1t$
1w$
b00000010010000111010000000001001 x$
1z$
1)%
b00000011 +%
b00000011 ,%
10%
11%
#55
0S
0e
0t$
0z$
0)%
00%
01%
#60
1S
1e
1h
b11111111111111111111111111111111 s
0%!
0-!
b00000 r!
b00000 s!
b00000 t!
b00000000000000000000000000000010 v!
1w!
0{!
b0000000000000000000000000000000000000000000000000000000000000011 %"
0)#
1W#
b00 c#
b00000000000000000000000000000000 e#
b00000010010000111010000000001001 f#
0h#
0k#
b00000000000000000000000000000000 2$
b00000010010000111010000000001001 Q$
1T$
b0000001001000011 V$
1X$
1t$
b00000000000000000000000000000000 x$
1z$
1)%
b00000100 +%
b00000100 ,%
10%
11%
#65
0S
0e
0t$
0z$
0)%
00%
01%
#70
b00000010010000111010000000001001 E
1S
b00000010010000111010000000001001 V
1e
1g
0h
1i
1r
b00000000000000000000000000000010 s
b00000000000000000000000000000000 {
b00000000000000000000001001000011 #!
0/!
0F!
0G!
0\!
0]!
0^!
0_!
0`!
0a!
0b!
0c!
0d!
0e!
0f!
0g!
0i!
b00000000000000000000000000000010 u!
0w!
1x!
0|!
0#"
b0000000000000000000000000000000000000000000000000000000000000100 %"
b0000000000000000000000000000000000000000000000000000000000000001 &"
b00000000000000000000000000000010 ("
b00000000000000000000000000000010 b"
0W#
1h#
13$
b00000010010000111010000000001001 5$
1:$
b00000 ?$
b00000000000000001010000000001001 R$
1S$
1U$
0W$
0X$
0Y$
0Z$
0[$
0\$
0]$
0^$
0_$
0`$
0a$
0b$
0c$
0d$
0e$
0f$
0g$
0h$
0i$
0j$
1t$
0w$
1z$
1)%
b00000101 +%
b00000101 ,%
10%
11%
#75
0S
0e
0t$
0z$
0)%
00%
01%
#80
1S
1e
b00000000000000001010000000001001 f
0g
b00000000000000001010000000001001 j
1q
0r
b00000000000000000000000000000000 s
b00000000000000000000000000000001 {
b00000000000000000000000000000000 |
b01100001000000000000000000000011 "!
b00000000000000000110000100000000 #!
1%!
0x!
1{!
1|!
1#"
b0000000000000000000000000000000000000000000000000000000000000101 %"
b00000000000000000000000000000010 '"
b00000000000000001010000000001001 m"
b01 c#
b01100001000000000000000000000011 e#
1k#
1m#
b01100001000000000000000000000011 2$
03$
0:$
0T$
0U$
1t$
1w$
b01100001000000000000000000000011 x$
b00000000000000001010000000001001 y$
1z$
b00000000000000001010000000001001 |$
b101 }$
b01 ~$
b00000000000000000000000000000000 "%
b00000000000000001010000000001001 %%
1)%
b00000110 +%
b00000110 ,%
b00000000000000001010000000001001 /%
10%
11%
#85
0S
0e
0t$
0z$
0)%
00%
01%
#90
1S
1e
1h
0q
b00000000000000000000000000000001 |
b00000000000000000110000100000000 "!
0%!
0(!
1q!
b00000000000000000000010000000000 v!
1w!
0{!
b0000000000000000000000000000000000000000000000000000000000000110 %"
b00 c#
b00000000000000000000000000000000 e#
b00000000000000000110000100000000 f#
0h#
0k#
b00000000000000000000000000000000 2$
b00000000000000000110000100000000 Q$
0S$
1t$
b00000000000000000000000000000000 x$
1z$
1)%
b00000111 +%
b00000111 ,%
10%
11%
#95
0S
0e
0t$
0z$
0)%
00%
01%
